test/cpu.vcd
$version Generated by VerilatedVcd $end
$date Tue Dec 12 16:06:10 2023 $end
$timescale 1ps $end

 $scope module TOP $end
  $var wire 32 A a0 [31:0] $end
  $var wire  1 > clk $end
  $var wire  1 ? rst $end
  $var wire 32 @ test [31:0] $end
  $scope module cpu $end
   $var wire 32 5 ALUResult_o [31:0] $end
   $var wire  3 3 ALUctrl [2:0] $end
   $var wire  1 4 ALUsrc $end
   $var wire 32 F CONTROL_WIDTH [31:0] $end
   $var wire 32 E DATA_WIDTH [31:0] $end
   $var wire 32 G IMM_WIDTH [31:0] $end
   $var wire 32 7 ImmOp [31:0] $end
   $var wire 32 # Instr [31:0] $end
   $var wire  2 2 MemWrite [1:0] $end
   $var wire 32 $ PC [31:0] $end
   $var wire 32 % PCPlus4 [31:0] $end
   $var wire  2 8 PCsrc [1:0] $end
   $var wire  3 1 RegWrite [2:0] $end
   $var wire  2 6 Resultsrc [1:0] $end
   $var wire  1 B Zero $end
   $var wire 32 A a0 [31:0] $end
   $var wire  1 > clk $end
   $var wire  1 ? rst $end
   $var wire 32 @ test [31:0] $end
   $scope module alu $end
    $var wire 32 5 ALUResult_o [31:0] $end
    $var wire  3 3 ALUctrl_i [2:0] $end
    $var wire  1 4 ALUsrc_i $end
    $var wire 32 F CONTROL_WIDTH [31:0] $end
    $var wire 32 E DATA_WIDTH [31:0] $end
    $var wire 32 7 ImmOp_i [31:0] $end
    $var wire 32 # Instr_i [31:0] $end
    $var wire  2 2 MemWrite_i [1:0] $end
    $var wire 32 % PCPlus4_i [31:0] $end
    $var wire 32 C ReadData [31:0] $end
    $var wire  3 1 RegWrite_i [2:0] $end
    $var wire 32 : Result [31:0] $end
    $var wire  2 6 ResultSrc_i [1:0] $end
    $var wire 32 & SrcA [31:0] $end
    $var wire 32 9 SrcB [31:0] $end
    $var wire  1 B Zero_o $end
    $var wire 32 A a0 [31:0] $end
    $var wire  1 > clk $end
    $var wire 32 ' regOp2 [31:0] $end
    $var wire 32 @ test [31:0] $end
    $scope module ALU $end
     $var wire 32 5 ALUResult [31:0] $end
     $var wire  3 3 ALUctrl [2:0] $end
     $var wire 32 F CONTROL_WIDTH [31:0] $end
     $var wire 32 E DATA_WIDTH [31:0] $end
     $var wire 32 & SrcA [31:0] $end
     $var wire 32 9 SrcB [31:0] $end
     $var wire  1 B Zero $end
    $upscope $end
    $scope module ALUMux $end
     $var wire 32 E DATA_WIDTH [31:0] $end
     $var wire  1 4 control $end
     $var wire 32 ' input0 [31:0] $end
     $var wire 32 7 input1 [31:0] $end
     $var wire 32 9 out [31:0] $end
    $upscope $end
    $scope module data $end
     $var wire 32 5 A [31:0] $end
     $var wire 32 H ADDRESS_WIDTH [31:0] $end
     $var wire 32 E DATA_WIDTH [31:0] $end
     $var wire 32 C RD [31:0] $end
     $var wire 32 ' WD [31:0] $end
     $var wire  2 2 WE [1:0] $end
     $var wire 18 ; add [17:0] $end
     $var wire  1 > clk $end
     $var wire 16 ( data16 [15:0] $end
     $var wire  8 ) data8 [7:0] $end
     $var wire 32 I starting_address [31:0] $end
     $var wire 32 @ test [31:0] $end
    $upscope $end
    $scope module register $end
     $var wire  8 + A1 [7:0] $end
     $var wire  8 * A2 [7:0] $end
     $var wire  8 , A3 [7:0] $end
     $var wire 32 H ADDRESS_WIDTH [31:0] $end
     $var wire 32 E DATA_WIDTH [31:0] $end
     $var wire 32 # Instr [31:0] $end
     $var wire 32 & RD1 [31:0] $end
     $var wire 32 ' RD2 [31:0] $end
     $var wire 32 : WD3 [31:0] $end
     $var wire  3 1 WE3 [2:0] $end
     $var wire 32 A a0 [31:0] $end
     $var wire  1 > clk $end
    $upscope $end
    $scope module resultMux $end
     $var wire 32 G CONTROL_WIDTH [31:0] $end
     $var wire 32 E DATA_WIDTH [31:0] $end
     $var wire  2 6 control [1:0] $end
     $var wire 32 5 input0 [31:0] $end
     $var wire 32 C input1 [31:0] $end
     $var wire 32 % input2 [31:0] $end
     $var wire 32 J input3 [31:0] $end
     $var wire 32 : out [31:0] $end
    $upscope $end
   $upscope $end
   $scope module control $end
    $var wire  3 3 ALUctrl_o [2:0] $end
    $var wire  1 4 ALUsrc_o $end
    $var wire 32 F CONTROL_WIDTH [31:0] $end
    $var wire 32 E DATA_WIDTH [31:0] $end
    $var wire 32 G IMM_WIDTH [31:0] $end
    $var wire 32 7 ImmOp_o [31:0] $end
    $var wire  3 < ImmSrc [2:0] $end
    $var wire  2 2 MemWrite_o [1:0] $end
    $var wire 32 $ PC_i [31:0] $end
    $var wire  2 8 PCsrc_o [1:0] $end
    $var wire  3 1 RegWrite_o [2:0] $end
    $var wire  2 6 Resultsrc_o [1:0] $end
    $var wire  1 B Zero_i $end
    $var wire 32 # instr_o [31:0] $end
    $scope module ControlUnit $end
     $var wire  3 3 ALUctrl_o [2:0] $end
     $var wire  1 4 ALUsrc_o $end
     $var wire 32 F CONTROL_WIDTH [31:0] $end
     $var wire 32 E DATA_WIDTH [31:0] $end
     $var wire 32 G IMM_WIDTH [31:0] $end
     $var wire  3 < ImmSrc_o [2:0] $end
     $var wire  2 2 MemWrite_o [1:0] $end
     $var wire  2 8 PCsrc_o [1:0] $end
     $var wire  3 1 RegWrite_o [2:0] $end
     $var wire  2 6 Resultsrc_o [1:0] $end
     $var wire  1 B Zero_i $end
     $var wire  3 . funct3 [2:0] $end
     $var wire  1 / funct7 $end
     $var wire 32 # instr_i [31:0] $end
     $var wire  7 - opcode [6:0] $end
    $upscope $end
    $scope module InstrMem $end
     $var wire 32 H ADDRESS_WIDTH [31:0] $end
     $var wire 32 E DATA_WIDTH [31:0] $end
     $var wire 32 # Instr_o [31:0] $end
     $var wire 32 $ addr_i [31:0] $end
    $upscope $end
    $scope module MySignExtend $end
     $var wire 32 E DATA_WIDTH [31:0] $end
     $var wire 32 G IMM_WIDTH [31:0] $end
     $var wire 32 7 ImmOp_o [31:0] $end
     $var wire  3 < ImmSrc_i [2:0] $end
     $var wire 32 # instr_i [31:0] $end
    $upscope $end
   $upscope $end
   $scope module pc $end
    $var wire 32 5 ALUResult_i [31:0] $end
    $var wire 32 7 ImmOp_i [31:0] $end
    $var wire 32 0 PC [31:0] $end
    $var wire 32 % PCPlus4_o [31:0] $end
    $var wire 32 D PCTarget [31:0] $end
    $var wire  2 8 PCsrc_i [1:0] $end
    $var wire 32 E WIDTH [31:0] $end
    $var wire  1 > clk $end
    $var wire 32 = next_PC [31:0] $end
    $var wire 32 $ pc_out [31:0] $end
    $var wire  1 ? rst $end
    $scope module pc_mux $end
     $var wire 32 G CONTROL_WIDTH [31:0] $end
     $var wire 32 E DATA_WIDTH [31:0] $end
     $var wire  2 8 control [1:0] $end
     $var wire 32 % input0 [31:0] $end
     $var wire 32 D input1 [31:0] $end
     $var wire 32 5 input2 [31:0] $end
     $var wire 32 K input3 [31:0] $end
     $var wire 32 = out [31:0] $end
    $upscope $end
    $scope module pc_reg $end
     $var wire 32 E WIDTH [31:0] $end
     $var wire 32 $ another_pc [31:0] $end
     $var wire  1 > clk $end
     $var wire 32 = next_PC [31:0] $end
     $var wire 32 0 pc [31:0] $end
     $var wire  1 ? rst $end
    $upscope $end
   $upscope $end
  $upscope $end
 $upscope $end
$enddefinitions $end


#0
b00000000000000000000000000000000 #
b00000000000000000000000000000000 $
b00000000000000000000000000000100 %
b00000000000000000000000000000000 &
b00000000000000000000000000000000 '
b0000000000000000 (
b00000000 )
b00000000 *
b00000000 +
b00000000 ,
b0000000 -
b000 .
0/
b00000000000000000000000000000000 0
b000 1
b00 2
b000 3
04
b00000000000000000000000000000000 5
b00 6
b00000000000000000000000000000000 7
b00 8
b00000000000000000000000000000000 9
b00000000000000000000000000000000 :
b000000000000000000 ;
b000 <
b00000000000000000000000000000000 =
0>
0?
b00000000000000000000000000000000 @
b00000000000000000000000000000000 A
1B
b00000000000000000000000000000000 C
b00000000000000000000000000000000 D
b00000000000000000000000000100000 E
b00000000000000000000000000000011 F
b00000000000000000000000000000010 G
b00000000000000000000000000001000 H
b00000000000000010000000000000000 I
b00000000000000000000000000000000 J
b00000000000000000000000000000000 K
#1
b00000001000000000000000011101111 #
b00010000 *
b00000001 ,
b1101111 -
b001 1
14
b00000000000000000000000000010000 5
b10 6
b00000000000000000000000000010000 7
b01 8
b00000000000000000000000000010000 9
b00000000000000000000000000000100 :
b000000000000010000 ;
b011 <
b00000000000000000000000000010000 =
1>
0B
b00000000000000000000000000010000 D
#2
0>
#3
b00010000000000000000010110010011 #
b00000000000000000000000000010000 $
b00000000000000000000000000010100 %
b00000000 *
b00001011 ,
b0010011 -
b00000000000000000000000000010000 0
b00000000000000000000000100000000 5
b00 6
b00000000000000000000000100000000 7
b00 8
b00000000000000000000000100000000 9
b00000000000000000000000100000000 :
b000000000100000000 ;
b000 <
b00000000000000000000000000010100 =
1>
b00000000000000000000000100010000 D
#4
0>
#5
b11111111111101011000010110010011 #
b00000000000000000000000000010100 $
b00000000000000000000000000011000 %
b00000000000000000000000100000000 &
b00011111 *
b00001011 +
1/
b00000000000000000000000000010100 0
b00000000000000000000000011111111 5
b11111111111111111111111111111111 7
b11111111111111111111111111111111 9
b00000000000000000000000011111111 :
b000000000011111111 ;
b00000000000000000000000000011000 =
1>
b00000000000000000000000000010011 D
#6
0>
#7
b00010000000001011000000000100011 #
b00000000000000000000000000011000 $
b00000000000000000000000000011100 %
b00000000000000000000000011111111 &
b00000000 *
b00000000 ,
b0100011 -
0/
b00000000000000000000000000011000 0
b000 1
b11 2
b00000000000000000000000111111111 5
b00000000000000000000000100000000 7
b00000000000000000000000100000000 9
b00000000000000000000000111111111 :
b000000000111111111 ;
b001 <
b00000000000000000000000000011100 =
1>
b00000000000000000000000100011000 D
#8
0>
#9
b11111110000001011001110011100011 #
b00000000000000000000000000011100 $
b00000000000000000000000000100000 %
b00011001 ,
b1100011 -
b001 .
1/
b00000000000000000000000000011100 0
b00 2
b001 3
04
b00000000000000000000000011111111 5
b01 6
b11111111111111111111111111111000 7
b01 8
b00000000000000000000000000000000 9
b00000000000000000000000000000000 :
b000000000011111111 ;
b010 <
b00000000000000000000000000010100 =
1>
b00000000000000000000000000010100 D
#10
0>
#11
b11111111111101011000010110010011 #
b00000000000000000000000000010100 $
b00000000000000000000000000011000 %
b00011111 *
b00001011 ,
b0010011 -
b000 .
b00000000000000000000000000010100 0
b001 1
b000 3
14
b00000000000000000000000011111110 5
b00 6
b11111111111111111111111111111111 7
b00 8
b11111111111111111111111111111111 9
b00000000000000000000000011111110 :
b000000000011111110 ;
b000 <
b00000000000000000000000000011000 =
1>
b00000000000000000000000000010011 D
#12
0>
#13
b00010000000001011000000000100011 #
b00000000000000000000000000011000 $
b00000000000000000000000000011100 %
b00000000000000000000000011111110 &
b00000000 *
b00000000 ,
b0100011 -
0/
b00000000000000000000000000011000 0
b000 1
b11 2
b00000000000000000000000111111110 5
b00000000000000000000000100000000 7
b00000000000000000000000100000000 9
b00000000000000000000000111111110 :
b000000000111111110 ;
b001 <
b00000000000000000000000000011100 =
1>
b00000000000000000000000100011000 D
#14
0>
#15
b11111110000001011001110011100011 #
b00000000000000000000000000011100 $
b00000000000000000000000000100000 %
b00011001 ,
b1100011 -
b001 .
1/
b00000000000000000000000000011100 0
b00 2
b001 3
04
b00000000000000000000000011111110 5
b01 6
b11111111111111111111111111111000 7
b01 8
b00000000000000000000000000000000 9
b00000000000000000000000000000000 :
b000000000011111110 ;
b010 <
b00000000000000000000000000010100 =
1>
b00000000000000000000000000010100 D
#16
0>
#17
b11111111111101011000010110010011 #
b00000000000000000000000000010100 $
b00000000000000000000000000011000 %
b00011111 *
b00001011 ,
b0010011 -
b000 .
b00000000000000000000000000010100 0
b001 1
b000 3
14
b00000000000000000000000011111101 5
b00 6
b11111111111111111111111111111111 7
b00 8
b11111111111111111111111111111111 9
b00000000000000000000000011111101 :
b000000000011111101 ;
b000 <
b00000000000000000000000000011000 =
1>
b00000000000000000000000000010011 D
#18
0>
#19
b00010000000001011000000000100011 #
b00000000000000000000000000011000 $
b00000000000000000000000000011100 %
b00000000000000000000000011111101 &
b00000000 *
b00000000 ,
b0100011 -
0/
b00000000000000000000000000011000 0
b000 1
b11 2
b00000000000000000000000111111101 5
b00000000000000000000000100000000 7
b00000000000000000000000100000000 9
b00000000000000000000000111111101 :
b000000000111111101 ;
b001 <
b00000000000000000000000000011100 =
1>
b00000000000000000000000100011000 D
#20
0>
#21
b11111110000001011001110011100011 #
b00000000000000000000000000011100 $
b00000000000000000000000000100000 %
b00011001 ,
b1100011 -
b001 .
1/
b00000000000000000000000000011100 0
b00 2
b001 3
04
b00000000000000000000000011111101 5
b01 6
b11111111111111111111111111111000 7
b01 8
b00000000000000000000000000000000 9
b00000000000000000000000000000000 :
b000000000011111101 ;
b010 <
b00000000000000000000000000010100 =
1>
b00000000000000000000000000010100 D
#22
0>
#23
b11111111111101011000010110010011 #
b00000000000000000000000000010100 $
b00000000000000000000000000011000 %
b00011111 *
b00001011 ,
b0010011 -
b000 .
b00000000000000000000000000010100 0
b001 1
b000 3
14
b00000000000000000000000011111100 5
b00 6
b11111111111111111111111111111111 7
b00 8
b11111111111111111111111111111111 9
b00000000000000000000000011111100 :
b000000000011111100 ;
b000 <
b00000000000000000000000000011000 =
1>
b00000000000000000000000000010011 D
#24
0>
#25
b00010000000001011000000000100011 #
b00000000000000000000000000011000 $
b00000000000000000000000000011100 %
b00000000000000000000000011111100 &
b00000000 *
b00000000 ,
b0100011 -
0/
b00000000000000000000000000011000 0
b000 1
b11 2
b00000000000000000000000111111100 5
b00000000000000000000000100000000 7
b00000000000000000000000100000000 9
b00000000000000000000000111111100 :
b000000000111111100 ;
b001 <
b00000000000000000000000000011100 =
1>
b00000000000000000000000100011000 D
#26
0>
#27
b11111110000001011001110011100011 #
b00000000000000000000000000011100 $
b00000000000000000000000000100000 %
b00011001 ,
b1100011 -
b001 .
1/
b00000000000000000000000000011100 0
b00 2
b001 3
04
b00000000000000000000000011111100 5
b01 6
b11111111111111111111111111111000 7
b01 8
b00000000000000000000000000000000 9
b00000000000000000000000000000000 :
b000000000011111100 ;
b010 <
b00000000000000000000000000010100 =
1>
b00000000000000000000000000010100 D
#28
0>
#29
b11111111111101011000010110010011 #
b00000000000000000000000000010100 $
b00000000000000000000000000011000 %
b00011111 *
b00001011 ,
b0010011 -
b000 .
b00000000000000000000000000010100 0
b001 1
b000 3
14
b00000000000000000000000011111011 5
b00 6
b11111111111111111111111111111111 7
b00 8
b11111111111111111111111111111111 9
b00000000000000000000000011111011 :
b000000000011111011 ;
b000 <
b00000000000000000000000000011000 =
1>
b00000000000000000000000000010011 D
#30
0>
#31
b00010000000001011000000000100011 #
b00000000000000000000000000011000 $
b00000000000000000000000000011100 %
b00000000000000000000000011111011 &
b00000000 *
b00000000 ,
b0100011 -
0/
b00000000000000000000000000011000 0
b000 1
b11 2
b00000000000000000000000111111011 5
b00000000000000000000000100000000 7
b00000000000000000000000100000000 9
b00000000000000000000000111111011 :
b000000000111111011 ;
b001 <
b00000000000000000000000000011100 =
1>
b00000000000000000000000100011000 D
#32
0>
#33
b11111110000001011001110011100011 #
b00000000000000000000000000011100 $
b00000000000000000000000000100000 %
b00011001 ,
b1100011 -
b001 .
1/
b00000000000000000000000000011100 0
b00 2
b001 3
04
b00000000000000000000000011111011 5
b01 6
b11111111111111111111111111111000 7
b01 8
b00000000000000000000000000000000 9
b00000000000000000000000000000000 :
b000000000011111011 ;
b010 <
b00000000000000000000000000010100 =
1>
b00000000000000000000000000010100 D
#34
0>
#35
b11111111111101011000010110010011 #
b00000000000000000000000000010100 $
b00000000000000000000000000011000 %
b00011111 *
b00001011 ,
b0010011 -
b000 .
b00000000000000000000000000010100 0
b001 1
b000 3
14
b00000000000000000000000011111010 5
b00 6
b11111111111111111111111111111111 7
b00 8
b11111111111111111111111111111111 9
b00000000000000000000000011111010 :
b000000000011111010 ;
b000 <
b00000000000000000000000000011000 =
1>
b00000000000000000000000000010011 D
#36
0>
#37
b00010000000001011000000000100011 #
b00000000000000000000000000011000 $
b00000000000000000000000000011100 %
b00000000000000000000000011111010 &
b00000000 *
b00000000 ,
b0100011 -
0/
b00000000000000000000000000011000 0
b000 1
b11 2
b00000000000000000000000111111010 5
b00000000000000000000000100000000 7
b00000000000000000000000100000000 9
b00000000000000000000000111111010 :
b000000000111111010 ;
b001 <
b00000000000000000000000000011100 =
1>
b00000000000000000000000100011000 D
#38
0>
#39
b11111110000001011001110011100011 #
b00000000000000000000000000011100 $
b00000000000000000000000000100000 %
b00011001 ,
b1100011 -
b001 .
1/
b00000000000000000000000000011100 0
b00 2
b001 3
04
b00000000000000000000000011111010 5
b01 6
b11111111111111111111111111111000 7
b01 8
b00000000000000000000000000000000 9
b00000000000000000000000000000000 :
b000000000011111010 ;
b010 <
b00000000000000000000000000010100 =
1>
b00000000000000000000000000010100 D
#40
0>
#41
b11111111111101011000010110010011 #
b00000000000000000000000000010100 $
b00000000000000000000000000011000 %
b00011111 *
b00001011 ,
b0010011 -
b000 .
b00000000000000000000000000010100 0
b001 1
b000 3
14
b00000000000000000000000011111001 5
b00 6
b11111111111111111111111111111111 7
b00 8
b11111111111111111111111111111111 9
b00000000000000000000000011111001 :
b000000000011111001 ;
b000 <
b00000000000000000000000000011000 =
1>
b00000000000000000000000000010011 D
#42
0>
#43
b00010000000001011000000000100011 #
b00000000000000000000000000011000 $
b00000000000000000000000000011100 %
b00000000000000000000000011111001 &
b00000000 *
b00000000 ,
b0100011 -
0/
b00000000000000000000000000011000 0
b000 1
b11 2
b00000000000000000000000111111001 5
b00000000000000000000000100000000 7
b00000000000000000000000100000000 9
b00000000000000000000000111111001 :
b000000000111111001 ;
b001 <
b00000000000000000000000000011100 =
1>
b00000000000000000000000100011000 D
#44
0>
#45
b11111110000001011001110011100011 #
b00000000000000000000000000011100 $
b00000000000000000000000000100000 %
b00011001 ,
b1100011 -
b001 .
1/
b00000000000000000000000000011100 0
b00 2
b001 3
04
b00000000000000000000000011111001 5
b01 6
b11111111111111111111111111111000 7
b01 8
b00000000000000000000000000000000 9
b00000000000000000000000000000000 :
b000000000011111001 ;
b010 <
b00000000000000000000000000010100 =
1>
b00000000000000000000000000010100 D
#46
0>
#47
b11111111111101011000010110010011 #
b00000000000000000000000000010100 $
b00000000000000000000000000011000 %
b00011111 *
b00001011 ,
b0010011 -
b000 .
b00000000000000000000000000010100 0
b001 1
b000 3
14
b00000000000000000000000011111000 5
b00 6
b11111111111111111111111111111111 7
b00 8
b11111111111111111111111111111111 9
b00000000000000000000000011111000 :
b000000000011111000 ;
b000 <
b00000000000000000000000000011000 =
1>
b00000000000000000000000000010011 D
#48
0>
#49
b00010000000001011000000000100011 #
b00000000000000000000000000011000 $
b00000000000000000000000000011100 %
b00000000000000000000000011111000 &
b00000000 *
b00000000 ,
b0100011 -
0/
b00000000000000000000000000011000 0
b000 1
b11 2
b00000000000000000000000111111000 5
b00000000000000000000000100000000 7
b00000000000000000000000100000000 9
b00000000000000000000000111111000 :
b000000000111111000 ;
b001 <
b00000000000000000000000000011100 =
1>
b00000000000000000000000100011000 D
#50
0>
#51
b11111110000001011001110011100011 #
b00000000000000000000000000011100 $
b00000000000000000000000000100000 %
b00011001 ,
b1100011 -
b001 .
1/
b00000000000000000000000000011100 0
b00 2
b001 3
04
b00000000000000000000000011111000 5
b01 6
b11111111111111111111111111111000 7
b01 8
b00000000000000000000000000000000 9
b00000000000000000000000000000000 :
b000000000011111000 ;
b010 <
b00000000000000000000000000010100 =
1>
b00000000000000000000000000010100 D
#52
0>
#53
b11111111111101011000010110010011 #
b00000000000000000000000000010100 $
b00000000000000000000000000011000 %
b00011111 *
b00001011 ,
b0010011 -
b000 .
b00000000000000000000000000010100 0
b001 1
b000 3
14
b00000000000000000000000011110111 5
b00 6
b11111111111111111111111111111111 7
b00 8
b11111111111111111111111111111111 9
b00000000000000000000000011110111 :
b000000000011110111 ;
b000 <
b00000000000000000000000000011000 =
1>
b00000000000000000000000000010011 D
#54
0>
#55
b00010000000001011000000000100011 #
b00000000000000000000000000011000 $
b00000000000000000000000000011100 %
b00000000000000000000000011110111 &
b00000000 *
b00000000 ,
b0100011 -
0/
b00000000000000000000000000011000 0
b000 1
b11 2
b00000000000000000000000111110111 5
b00000000000000000000000100000000 7
b00000000000000000000000100000000 9
b00000000000000000000000111110111 :
b000000000111110111 ;
b001 <
b00000000000000000000000000011100 =
1>
b00000000000000000000000100011000 D
#56
0>
#57
b11111110000001011001110011100011 #
b00000000000000000000000000011100 $
b00000000000000000000000000100000 %
b00011001 ,
b1100011 -
b001 .
1/
b00000000000000000000000000011100 0
b00 2
b001 3
04
b00000000000000000000000011110111 5
b01 6
b11111111111111111111111111111000 7
b01 8
b00000000000000000000000000000000 9
b00000000000000000000000000000000 :
b000000000011110111 ;
b010 <
b00000000000000000000000000010100 =
1>
b00000000000000000000000000010100 D
#58
0>
#59
b11111111111101011000010110010011 #
b00000000000000000000000000010100 $
b00000000000000000000000000011000 %
b00011111 *
b00001011 ,
b0010011 -
b000 .
b00000000000000000000000000010100 0
b001 1
b000 3
14
b00000000000000000000000011110110 5
b00 6
b11111111111111111111111111111111 7
b00 8
b11111111111111111111111111111111 9
b00000000000000000000000011110110 :
b000000000011110110 ;
b000 <
b00000000000000000000000000011000 =
1>
b00000000000000000000000000010011 D
#60
0>
#61
b00010000000001011000000000100011 #
b00000000000000000000000000011000 $
b00000000000000000000000000011100 %
b00000000000000000000000011110110 &
b00000000 *
b00000000 ,
b0100011 -
0/
b00000000000000000000000000011000 0
b000 1
b11 2
b00000000000000000000000111110110 5
b00000000000000000000000100000000 7
b00000000000000000000000100000000 9
b00000000000000000000000111110110 :
b000000000111110110 ;
b001 <
b00000000000000000000000000011100 =
1>
b00000000000000000000000100011000 D
#62
0>
#63
b11111110000001011001110011100011 #
b00000000000000000000000000011100 $
b00000000000000000000000000100000 %
b00011001 ,
b1100011 -
b001 .
1/
b00000000000000000000000000011100 0
b00 2
b001 3
04
b00000000000000000000000011110110 5
b01 6
b11111111111111111111111111111000 7
b01 8
b00000000000000000000000000000000 9
b00000000000000000000000000000000 :
b000000000011110110 ;
b010 <
b00000000000000000000000000010100 =
1>
b00000000000000000000000000010100 D
#64
0>
#65
b11111111111101011000010110010011 #
b00000000000000000000000000010100 $
b00000000000000000000000000011000 %
b00011111 *
b00001011 ,
b0010011 -
b000 .
b00000000000000000000000000010100 0
b001 1
b000 3
14
b00000000000000000000000011110101 5
b00 6
b11111111111111111111111111111111 7
b00 8
b11111111111111111111111111111111 9
b00000000000000000000000011110101 :
b000000000011110101 ;
b000 <
b00000000000000000000000000011000 =
1>
b00000000000000000000000000010011 D
#66
0>
#67
b00010000000001011000000000100011 #
b00000000000000000000000000011000 $
b00000000000000000000000000011100 %
b00000000000000000000000011110101 &
b00000000 *
b00000000 ,
b0100011 -
0/
b00000000000000000000000000011000 0
b000 1
b11 2
b00000000000000000000000111110101 5
b00000000000000000000000100000000 7
b00000000000000000000000100000000 9
b00000000000000000000000111110101 :
b000000000111110101 ;
b001 <
b00000000000000000000000000011100 =
1>
b00000000000000000000000100011000 D
#68
0>
#69
b11111110000001011001110011100011 #
b00000000000000000000000000011100 $
b00000000000000000000000000100000 %
b00011001 ,
b1100011 -
b001 .
1/
b00000000000000000000000000011100 0
b00 2
b001 3
04
b00000000000000000000000011110101 5
b01 6
b11111111111111111111111111111000 7
b01 8
b00000000000000000000000000000000 9
b00000000000000000000000000000000 :
b000000000011110101 ;
b010 <
b00000000000000000000000000010100 =
1>
b00000000000000000000000000010100 D
#70
0>
#71
b11111111111101011000010110010011 #
b00000000000000000000000000010100 $
b00000000000000000000000000011000 %
b00011111 *
b00001011 ,
b0010011 -
b000 .
b00000000000000000000000000010100 0
b001 1
b000 3
14
b00000000000000000000000011110100 5
b00 6
b11111111111111111111111111111111 7
b00 8
b11111111111111111111111111111111 9
b00000000000000000000000011110100 :
b000000000011110100 ;
b000 <
b00000000000000000000000000011000 =
1>
b00000000000000000000000000010011 D
#72
0>
#73
b00010000000001011000000000100011 #
b00000000000000000000000000011000 $
b00000000000000000000000000011100 %
b00000000000000000000000011110100 &
b00000000 *
b00000000 ,
b0100011 -
0/
b00000000000000000000000000011000 0
b000 1
b11 2
b00000000000000000000000111110100 5
b00000000000000000000000100000000 7
b00000000000000000000000100000000 9
b00000000000000000000000111110100 :
b000000000111110100 ;
b001 <
b00000000000000000000000000011100 =
1>
b00000000000000000000000100011000 D
#74
0>
#75
b11111110000001011001110011100011 #
b00000000000000000000000000011100 $
b00000000000000000000000000100000 %
b00011001 ,
b1100011 -
b001 .
1/
b00000000000000000000000000011100 0
b00 2
b001 3
04
b00000000000000000000000011110100 5
b01 6
b11111111111111111111111111111000 7
b01 8
b00000000000000000000000000000000 9
b00000000000000000000000000000000 :
b000000000011110100 ;
b010 <
b00000000000000000000000000010100 =
1>
b00000000000000000000000000010100 D
#76
0>
#77
b11111111111101011000010110010011 #
b00000000000000000000000000010100 $
b00000000000000000000000000011000 %
b00011111 *
b00001011 ,
b0010011 -
b000 .
b00000000000000000000000000010100 0
b001 1
b000 3
14
b00000000000000000000000011110011 5
b00 6
b11111111111111111111111111111111 7
b00 8
b11111111111111111111111111111111 9
b00000000000000000000000011110011 :
b000000000011110011 ;
b000 <
b00000000000000000000000000011000 =
1>
b00000000000000000000000000010011 D
#78
0>
#79
b00010000000001011000000000100011 #
b00000000000000000000000000011000 $
b00000000000000000000000000011100 %
b00000000000000000000000011110011 &
b00000000 *
b00000000 ,
b0100011 -
0/
b00000000000000000000000000011000 0
b000 1
b11 2
b00000000000000000000000111110011 5
b00000000000000000000000100000000 7
b00000000000000000000000100000000 9
b00000000000000000000000111110011 :
b000000000111110011 ;
b001 <
b00000000000000000000000000011100 =
1>
b00000000000000000000000100011000 D
#80
0>
#81
b11111110000001011001110011100011 #
b00000000000000000000000000011100 $
b00000000000000000000000000100000 %
b00011001 ,
b1100011 -
b001 .
1/
b00000000000000000000000000011100 0
b00 2
b001 3
04
b00000000000000000000000011110011 5
b01 6
b11111111111111111111111111111000 7
b01 8
b00000000000000000000000000000000 9
b00000000000000000000000000000000 :
b000000000011110011 ;
b010 <
b00000000000000000000000000010100 =
1>
b00000000000000000000000000010100 D
#82
0>
#83
b11111111111101011000010110010011 #
b00000000000000000000000000010100 $
b00000000000000000000000000011000 %
b00011111 *
b00001011 ,
b0010011 -
b000 .
b00000000000000000000000000010100 0
b001 1
b000 3
14
b00000000000000000000000011110010 5
b00 6
b11111111111111111111111111111111 7
b00 8
b11111111111111111111111111111111 9
b00000000000000000000000011110010 :
b000000000011110010 ;
b000 <
b00000000000000000000000000011000 =
1>
b00000000000000000000000000010011 D
#84
0>
#85
b00010000000001011000000000100011 #
b00000000000000000000000000011000 $
b00000000000000000000000000011100 %
b00000000000000000000000011110010 &
b00000000 *
b00000000 ,
b0100011 -
0/
b00000000000000000000000000011000 0
b000 1
b11 2
b00000000000000000000000111110010 5
b00000000000000000000000100000000 7
b00000000000000000000000100000000 9
b00000000000000000000000111110010 :
b000000000111110010 ;
b001 <
b00000000000000000000000000011100 =
1>
b00000000000000000000000100011000 D
#86
0>
#87
b11111110000001011001110011100011 #
b00000000000000000000000000011100 $
b00000000000000000000000000100000 %
b00011001 ,
b1100011 -
b001 .
1/
b00000000000000000000000000011100 0
b00 2
b001 3
04
b00000000000000000000000011110010 5
b01 6
b11111111111111111111111111111000 7
b01 8
b00000000000000000000000000000000 9
b00000000000000000000000000000000 :
b000000000011110010 ;
b010 <
b00000000000000000000000000010100 =
1>
b00000000000000000000000000010100 D
#88
0>
#89
b11111111111101011000010110010011 #
b00000000000000000000000000010100 $
b00000000000000000000000000011000 %
b00011111 *
b00001011 ,
b0010011 -
b000 .
b00000000000000000000000000010100 0
b001 1
b000 3
14
b00000000000000000000000011110001 5
b00 6
b11111111111111111111111111111111 7
b00 8
b11111111111111111111111111111111 9
b00000000000000000000000011110001 :
b000000000011110001 ;
b000 <
b00000000000000000000000000011000 =
1>
b00000000000000000000000000010011 D
#90
0>
#91
b00010000000001011000000000100011 #
b00000000000000000000000000011000 $
b00000000000000000000000000011100 %
b00000000000000000000000011110001 &
b00000000 *
b00000000 ,
b0100011 -
0/
b00000000000000000000000000011000 0
b000 1
b11 2
b00000000000000000000000111110001 5
b00000000000000000000000100000000 7
b00000000000000000000000100000000 9
b00000000000000000000000111110001 :
b000000000111110001 ;
b001 <
b00000000000000000000000000011100 =
1>
b00000000000000000000000100011000 D
#92
0>
#93
b11111110000001011001110011100011 #
b00000000000000000000000000011100 $
b00000000000000000000000000100000 %
b00011001 ,
b1100011 -
b001 .
1/
b00000000000000000000000000011100 0
b00 2
b001 3
04
b00000000000000000000000011110001 5
b01 6
b11111111111111111111111111111000 7
b01 8
b00000000000000000000000000000000 9
b00000000000000000000000000000000 :
b000000000011110001 ;
b010 <
b00000000000000000000000000010100 =
1>
b00000000000000000000000000010100 D
#94
0>
#95
b11111111111101011000010110010011 #
b00000000000000000000000000010100 $
b00000000000000000000000000011000 %
b00011111 *
b00001011 ,
b0010011 -
b000 .
b00000000000000000000000000010100 0
b001 1
b000 3
14
b00000000000000000000000011110000 5
b00 6
b11111111111111111111111111111111 7
b00 8
b11111111111111111111111111111111 9
b00000000000000000000000011110000 :
b000000000011110000 ;
b000 <
b00000000000000000000000000011000 =
1>
b00000000000000000000000000010011 D
#96
0>
