test/cpu.vcd
$version Generated by VerilatedVcd $end
$date Fri Dec  8 15:17:10 2023 $end
$timescale 1ps $end

 $scope module TOP $end
  $var wire 32 = a0 [31:0] $end
  $var wire  1 ; clk $end
  $var wire  1 < rst $end
  $scope module cpu $end
   $var wire 32 A ADDRESS_WIDTH [31:0] $end
   $var wire 32 3 ALUResult_o [31:0] $end
   $var wire  3 1 ALUctrl [2:0] $end
   $var wire  1 2 ALUsrc $end
   $var wire 32 C CONTROL_WIDTH [31:0] $end
   $var wire 32 B DATA_WIDTH [31:0] $end
   $var wire 32 D IMM_WIDTH [31:0] $end
   $var wire 32 5 ImmOp [31:0] $end
   $var wire 32 # Instr [31:0] $end
   $var wire  2 0 MemWrite [1:0] $end
   $var wire 32 $ PC [31:0] $end
   $var wire 32 % PCPlus4 [31:0] $end
   $var wire  2 6 PCsrc [1:0] $end
   $var wire  3 / RegWrite [2:0] $end
   $var wire 32 E Result [31:0] $end
   $var wire  2 4 Resultsrc [1:0] $end
   $var wire  1 > Zero $end
   $var wire 32 = a0 [31:0] $end
   $var wire  1 ; clk $end
   $var wire  1 < rst $end
   $scope module alu $end
    $var wire 32 3 ALUResult_o [31:0] $end
    $var wire  3 1 ALUctrl_i [2:0] $end
    $var wire  1 2 ALUsrc_i $end
    $var wire 32 C CONTROL_WIDTH [31:0] $end
    $var wire 32 B DATA_WIDTH [31:0] $end
    $var wire 32 5 ImmOp_i [31:0] $end
    $var wire 32 # Instr_i [31:0] $end
    $var wire  2 0 MemWrite_i [1:0] $end
    $var wire 32 % PCPlus4_i [31:0] $end
    $var wire 32 ? ReadData [31:0] $end
    $var wire  3 / RegWrite_i [2:0] $end
    $var wire 32 8 Result [31:0] $end
    $var wire  2 4 ResultSrc_i [1:0] $end
    $var wire 32 & SrcA [31:0] $end
    $var wire 32 7 SrcB [31:0] $end
    $var wire  1 > Zero_o $end
    $var wire 32 = a0 [31:0] $end
    $var wire  1 ; clk $end
    $var wire 32 ' regOp2 [31:0] $end
    $scope module ALU $end
     $var wire 32 3 ALUResult [31:0] $end
     $var wire  3 1 ALUctrl [2:0] $end
     $var wire 32 C CONTROL_WIDTH [31:0] $end
     $var wire 32 B DATA_WIDTH [31:0] $end
     $var wire 32 & SrcA [31:0] $end
     $var wire 32 7 SrcB [31:0] $end
     $var wire  1 > Zero $end
    $upscope $end
    $scope module ALUMux $end
     $var wire 32 B DATA_WIDTH [31:0] $end
     $var wire  1 2 control $end
     $var wire 32 ' input0 [31:0] $end
     $var wire 32 5 input1 [31:0] $end
     $var wire 32 7 out [31:0] $end
    $upscope $end
    $scope module data $end
     $var wire 32 3 A [31:0] $end
     $var wire 32 A ADDRESS_WIDTH [31:0] $end
     $var wire 32 B DATA_WIDTH [31:0] $end
     $var wire 32 ? RD [31:0] $end
     $var wire 32 ' WD [31:0] $end
     $var wire  2 0 WE [1:0] $end
     $var wire  1 ; clk $end
    $upscope $end
    $scope module register $end
     $var wire  8 ) A1 [7:0] $end
     $var wire  8 ( A2 [7:0] $end
     $var wire  8 * A3 [7:0] $end
     $var wire 32 A ADDRESS_WIDTH [31:0] $end
     $var wire 32 B DATA_WIDTH [31:0] $end
     $var wire 32 # Instr [31:0] $end
     $var wire 32 & RD1 [31:0] $end
     $var wire 32 ' RD2 [31:0] $end
     $var wire 32 8 WD3 [31:0] $end
     $var wire  3 / WE3 [2:0] $end
     $var wire 32 = a0 [31:0] $end
     $var wire  1 ; clk $end
    $upscope $end
    $scope module resultMux $end
     $var wire 32 D CONTROL_WIDTH [31:0] $end
     $var wire 32 B DATA_WIDTH [31:0] $end
     $var wire  2 4 control [1:0] $end
     $var wire 32 3 input0 [31:0] $end
     $var wire 32 ? input1 [31:0] $end
     $var wire 32 % input2 [31:0] $end
     $var wire 32 F input3 [31:0] $end
     $var wire 32 8 out [31:0] $end
    $upscope $end
   $upscope $end
   $scope module control $end
    $var wire 32 A ADDRESS_WIDTH [31:0] $end
    $var wire  3 1 ALUctrl_o [2:0] $end
    $var wire  1 2 ALUsrc_o $end
    $var wire 32 C CONTROL_WIDTH [31:0] $end
    $var wire 32 B DATA_WIDTH [31:0] $end
    $var wire 32 D IMM_WIDTH [31:0] $end
    $var wire 32 5 ImmOp_o [31:0] $end
    $var wire  2 9 ImmSrc [1:0] $end
    $var wire  2 0 MemWrite_o [1:0] $end
    $var wire 32 $ PC_i [31:0] $end
    $var wire  2 6 PCsrc_o [1:0] $end
    $var wire  3 / RegWrite_o [2:0] $end
    $var wire  2 4 Resultsrc_o [1:0] $end
    $var wire  1 > Zero_i $end
    $var wire 32 # instr_o [31:0] $end
    $scope module ControlUnit $end
     $var wire  3 1 ALUctrl_o [2:0] $end
     $var wire  1 2 ALUsrc_o $end
     $var wire 32 C CONTROL_WIDTH [31:0] $end
     $var wire 32 B DATA_WIDTH [31:0] $end
     $var wire 32 D IMM_WIDTH [31:0] $end
     $var wire  2 9 ImmSrc_o [1:0] $end
     $var wire  2 0 MemWrite_o [1:0] $end
     $var wire  2 6 PCsrc_o [1:0] $end
     $var wire  3 / RegWrite_o [2:0] $end
     $var wire  2 4 Resultsrc_o [1:0] $end
     $var wire  1 > Zero_i $end
     $var wire  3 , funct3 [2:0] $end
     $var wire  1 - funct7 $end
     $var wire 32 # instr_i [31:0] $end
     $var wire  7 + opcode [6:0] $end
    $upscope $end
    $scope module InstrMem $end
     $var wire 32 A ADDRESS_WIDTH [31:0] $end
     $var wire 32 B DATA_WIDTH [31:0] $end
     $var wire 32 # Instr_o [31:0] $end
     $var wire 32 $ addr_i [31:0] $end
    $upscope $end
    $scope module MySignExtend $end
     $var wire 32 B DATA_WIDTH [31:0] $end
     $var wire 32 D IMM_WIDTH [31:0] $end
     $var wire 32 5 ImmOp_o [31:0] $end
     $var wire  2 9 ImmSrc_i [1:0] $end
     $var wire 32 # instr_i [31:0] $end
    $upscope $end
   $upscope $end
   $scope module pc $end
    $var wire 32 3 ALUResult_i [31:0] $end
    $var wire 32 5 ImmOp_i [31:0] $end
    $var wire 32 . PC [31:0] $end
    $var wire 32 % PCPlus4_o [31:0] $end
    $var wire 32 @ PCTarget [31:0] $end
    $var wire  2 6 PCsrc_i [1:0] $end
    $var wire 32 B WIDTH [31:0] $end
    $var wire  1 ; clk $end
    $var wire 32 : next_PC [31:0] $end
    $var wire 32 $ pc_out [31:0] $end
    $var wire  1 < rst $end
    $scope module pc_mux $end
     $var wire 32 D CONTROL_WIDTH [31:0] $end
     $var wire 32 B DATA_WIDTH [31:0] $end
     $var wire  2 6 control [1:0] $end
     $var wire 32 % input0 [31:0] $end
     $var wire 32 @ input1 [31:0] $end
     $var wire 32 3 input2 [31:0] $end
     $var wire 32 G input3 [31:0] $end
     $var wire 32 : out [31:0] $end
    $upscope $end
    $scope module pc_reg $end
     $var wire 32 B WIDTH [31:0] $end
     $var wire 32 $ another_pc [31:0] $end
     $var wire  1 ; clk $end
     $var wire 32 : next_PC [31:0] $end
     $var wire 32 . pc [31:0] $end
     $var wire  1 < rst $end
    $upscope $end
   $upscope $end
  $upscope $end
 $upscope $end
$enddefinitions $end


#0
b00000000000000000000000000000000 #
b00000000000000000000000000000000 $
b00000000000000000000000000000100 %
b00000000000000000000000000000000 &
b00000000000000000000000000000000 '
b00000000 (
b00000000 )
b00000000 *
b0000000 +
b000 ,
0-
b00000000000000000000000000000000 .
b000 /
b00 0
b000 1
02
b00000000000000000000000000000000 3
b00 4
b00000000000000000000000000000000 5
b00 6
b00000000000000000000000000000000 7
b00000000000000000000000000000000 8
b00 9
b00000000000000000000000000000000 :
0;
0<
b00000000000000000000000000000000 =
1>
b00000000000000000000000000000000 ?
b00000000000000000000000000000000 @
b00000000000000000000000000001000 A
b00000000000000000000000000100000 B
b00000000000000000000000000000011 C
b00000000000000000000000000000010 D
b00000000000000000000000000000000 E
b00000000000000000000000000000000 F
b00000000000000000000000000000000 G
#1
b00000000110000000000000011101111 #
b00001100 (
b00000001 *
b1101111 +
b001 /
12
b00000000000000000000000000001100 3
b10 4
b00000000000000000000000000001100 5
b01 6
b00000000000000000000000000001100 7
b00000000000000000000000000000100 8
b11 9
b00000000000000000000000000001100 :
1;
0>
b00000000000000000000000011111000 ?
b00000000000000000000000000001100 @
#2
0;
#3
b00001111111100000000001010010011 #
b00000000000000000000000000001100 $
b00000000000000000000000000010000 %
b00011111 (
b00000101 *
b0010011 +
b00000000000000000000000000001100 .
b00000000000000000000000011111111 3
b00 4
b00000000000000000000000011111111 5
b00 6
b00000000000000000000000011111111 7
b00000000000000000000000011111111 8
b00 9
b00000000000000000000000000010000 :
1;
b00000000000000000000000000000000 ?
b00000000000000000000000100001011 @
#4
0;
#5
b00000000000000001000000001100111 #
b00000000000000000000000000010000 $
b00000000000000000000000000010100 %
b00000000000000000000000000000100 &
b00000000 (
b00000001 )
b00000000 *
b1100111 +
b00000000000000000000000000010000 .
b000 /
b00000000000000000000000000000100 3
b10 4
b00000000000000000000000000000000 5
b10 6
b00000000000000000000000000000000 7
b00000000000000000000000000010100 8
b00000000000000000000000000000100 :
1;
b00000000000000000000000011111101 ?
b00000000000000000000000000010000 @
#6
0;
#7
b00000001000000000000000011101111 #
b00000000000000000000000000000100 $
b00000000000000000000000000001000 %
b00000000000000000000000000000000 &
b00010000 (
b00000000 )
b00000001 *
b1101111 +
b00000000000000000000000000000100 .
b001 /
b00000000000000000000000000010000 3
b00000000000000000000000000010000 5
b01 6
b00000000000000000000000000010000 7
b00000000000000000000000000001000 8
b11 9
b00000000000000000000000000010100 :
1;
b00000000000000000000000011110100 ?
b00000000000000000000000000010100 @
#8
0;
#9
b00000000000000000000010100010011 #
b00000000000000000000000000010100 $
b00000000000000000000000000011000 %
b00000000 (
b00001010 *
b0010011 +
b00000000000000000000000000010100 .
b00000000000000000000000000000000 3
b00 4
b00000000000000000000000000000000 5
b00 6
b00000000000000000000000000000000 7
b00000000000000000000000000000000 8
b00 9
b00000000000000000000000000011000 :
1;
1>
b00000000000000000000000011111110 ?
#10
0;
#11
b00000000000000000000001100010011 #
b00000000000000000000000000011000 $
b00000000000000000000000000011100 %
b00000110 *
b00000000000000000000000000011000 .
b00000000000000000000000000011100 :
1;
b00000000000000000000000000011000 @
#12
0;
#13
b00000000000100110001001100010011 #
b00000000000000000000000000011100 $
b00000000000000000000000000100000 %
b00000000000000000000000000001000 '
b00000001 (
b00000110 )
b001 ,
b00000000000000000000000000011100 .
b101 1
b00000000000000000000000000000001 5
b00000000000000000000000000000001 7
b00000000000000000000000000100000 :
1;
0>
b00000000000000000000000000011101 @
#14
0;
#15
b00000000000100110000001100010011 #
b00000000000000000000000000100000 $
b00000000000000000000000000100100 %
b000 ,
b00000000000000000000000000100000 .
b000 1
b00000000000000000000000000000001 3
b00000000000000000000000000000001 8
b00000000000000000000000000100100 :
1;
b00000000000000000000000011111101 ?
b00000000000000000000000000100001 @
#16
0;
#17
b00000000000000110000010100010011 #
b00000000000000000000000000100100 $
b00000000000000000000000000101000 %
b00000000000000000000000000000001 &
b00000000000000000000000000000000 '
b00000000 (
b00001010 *
b00000000000000000000000000100100 .
b00000000000000000000000000000000 5
b00000000000000000000000000000000 7
b00000000000000000000000000101000 :
1;
b00000000000000000000000000100100 @
#18
0;
#19
b11111110010101010001101011100011 #
b00000000000000000000000000101000 $
b00000000000000000000000000101100 %
b00000000000000000000000011111111 '
b00000101 (
b00001010 )
b00010101 *
b1100011 +
b001 ,
1-
b00000000000000000000000000101000 .
b000 /
b001 1
02
b11111111111111111111111100000010 3
b01 4
b11111111111111111111111111110100 5
b01 6
b00000000000000000000000011111111 7
b00000000000000000000000011111101 8
b10 9
b00000000000000000000000000011100 :
1;
b00000000000000000000000000000001 =
b00000000000000000000000000011100 @
#20
0;
#21
b00000000000100110001001100010011 #
b00000000000000000000000000011100 $
b00000000000000000000000000100000 %
b00000000000000000000000000001000 '
b00000001 (
b00000110 )
b00000110 *
b0010011 +
0-
b00000000000000000000000000011100 .
b001 /
b101 1
12
b00000000000000000000000000000010 3
b00 4
b00000000000000000000000000000001 5
b00 6
b00000000000000000000000000000001 7
b00000000000000000000000000000010 8
b00 9
b00000000000000000000000000100000 :
1;
1>
b00000000000000000000000000011101 @
#22
0;
#23
b00000000000100110000001100010011 #
b00000000000000000000000000100000 $
b00000000000000000000000000100100 %
b00000000000000000000000000000010 &
b000 ,
b00000000000000000000000000100000 .
b000 1
b00000000000000000000000000000011 3
b00000000000000000000000000000011 8
b00000000000000000000000000100100 :
1;
0>
b00000000000000000000000000100001 @
#24
0;
#25
b00000000000000110000010100010011 #
b00000000000000000000000000100100 $
b00000000000000000000000000101000 %
b00000000000000000000000000000011 &
b00000000000000000000000000000000 '
b00000000 (
b00001010 *
b00000000000000000000000000100100 .
b00000000000000000000000000000000 5
b00000000000000000000000000000000 7
b00000000000000000000000000101000 :
1;
b00000000000000000000000000100100 @
#26
0;
#27
b11111110010101010001101011100011 #
b00000000000000000000000000101000 $
b00000000000000000000000000101100 %
b00000000000000000000000011111111 '
b00000101 (
b00001010 )
b00010101 *
b1100011 +
b001 ,
1-
b00000000000000000000000000101000 .
b000 /
b001 1
02
b11111111111111111111111100000100 3
b01 4
b11111111111111111111111111110100 5
b01 6
b00000000000000000000000011111111 7
b00000000000000000000000011111101 8
b10 9
b00000000000000000000000000011100 :
1;
b00000000000000000000000000000011 =
b00000000000000000000000000011100 @
#28
0;
#29
b00000000000100110001001100010011 #
b00000000000000000000000000011100 $
b00000000000000000000000000100000 %
b00000000000000000000000000001000 '
b00000001 (
b00000110 )
b00000110 *
b0010011 +
0-
b00000000000000000000000000011100 .
b001 /
b101 1
12
b00000000000000000000000000000110 3
b00 4
b00000000000000000000000000000001 5
b00 6
b00000000000000000000000000000001 7
b00000000000000000000000000000110 8
b00 9
b00000000000000000000000000100000 :
1;
b00000000000000000000000011111100 ?
b00000000000000000000000000011101 @
#30
0;
#31
b00000000000100110000001100010011 #
b00000000000000000000000000100000 $
b00000000000000000000000000100100 %
b00000000000000000000000000000110 &
b000 ,
b00000000000000000000000000100000 .
b000 1
b00000000000000000000000000000111 3
b00000000000000000000000000000111 8
b00000000000000000000000000100100 :
1;
b00000000000000000000000000100001 @
#32
0;
#33
b00000000000000110000010100010011 #
b00000000000000000000000000100100 $
b00000000000000000000000000101000 %
b00000000000000000000000000000111 &
b00000000000000000000000000000000 '
b00000000 (
b00001010 *
b00000000000000000000000000100100 .
b00000000000000000000000000000000 5
b00000000000000000000000000000000 7
b00000000000000000000000000101000 :
1;
b00000000000000000000000000100100 @
#34
0;
#35
b11111110010101010001101011100011 #
b00000000000000000000000000101000 $
b00000000000000000000000000101100 %
b00000000000000000000000011111111 '
b00000101 (
b00001010 )
b00010101 *
b1100011 +
b001 ,
1-
b00000000000000000000000000101000 .
b000 /
b001 1
02
b11111111111111111111111100001000 3
b01 4
b11111111111111111111111111110100 5
b01 6
b00000000000000000000000011111111 7
b00000000000000000000000011111011 8
b10 9
b00000000000000000000000000011100 :
1;
b00000000000000000000000000000111 =
b00000000000000000000000011111011 ?
b00000000000000000000000000011100 @
#36
0;
#37
b00000000000100110001001100010011 #
b00000000000000000000000000011100 $
b00000000000000000000000000100000 %
b00000000000000000000000000001000 '
b00000001 (
b00000110 )
b00000110 *
b0010011 +
0-
b00000000000000000000000000011100 .
b001 /
b101 1
12
b00000000000000000000000000001110 3
b00 4
b00000000000000000000000000000001 5
b00 6
b00000000000000000000000000000001 7
b00000000000000000000000000001110 8
b00 9
b00000000000000000000000000100000 :
1;
b00000000000000000000000011110110 ?
b00000000000000000000000000011101 @
#38
0;
#39
b00000000000100110000001100010011 #
b00000000000000000000000000100000 $
b00000000000000000000000000100100 %
b00000000000000000000000000001110 &
b000 ,
b00000000000000000000000000100000 .
b000 1
b00000000000000000000000000001111 3
b00000000000000000000000000001111 8
b00000000000000000000000000100100 :
1;
b00000000000000000000000011110101 ?
b00000000000000000000000000100001 @
#40
0;
#41
b00000000000000110000010100010011 #
b00000000000000000000000000100100 $
b00000000000000000000000000101000 %
b00000000000000000000000000001111 &
b00000000000000000000000000000000 '
b00000000 (
b00001010 *
b00000000000000000000000000100100 .
b00000000000000000000000000000000 5
b00000000000000000000000000000000 7
b00000000000000000000000000101000 :
1;
b00000000000000000000000000100100 @
#42
0;
#43
b11111110010101010001101011100011 #
b00000000000000000000000000101000 $
b00000000000000000000000000101100 %
b00000000000000000000000011111111 '
b00000101 (
b00001010 )
b00010101 *
b1100011 +
b001 ,
1-
b00000000000000000000000000101000 .
b000 /
b001 1
02
b11111111111111111111111100010000 3
b01 4
b11111111111111111111111111110100 5
b01 6
b00000000000000000000000011111111 7
b00000000000000000000000011110100 8
b10 9
b00000000000000000000000000011100 :
1;
b00000000000000000000000000001111 =
b00000000000000000000000011110100 ?
b00000000000000000000000000011100 @
#44
0;
#45
b00000000000100110001001100010011 #
b00000000000000000000000000011100 $
b00000000000000000000000000100000 %
b00000000000000000000000000001000 '
b00000001 (
b00000110 )
b00000110 *
b0010011 +
0-
b00000000000000000000000000011100 .
b001 /
b101 1
12
b00000000000000000000000000011110 3
b00 4
b00000000000000000000000000000001 5
b00 6
b00000000000000000000000000000001 7
b00000000000000000000000000011110 8
b00 9
b00000000000000000000000000100000 :
1;
b00000000000000000000000011011101 ?
b00000000000000000000000000011101 @
#46
0;
#47
b00000000000100110000001100010011 #
b00000000000000000000000000100000 $
b00000000000000000000000000100100 %
b00000000000000000000000000011110 &
b000 ,
b00000000000000000000000000100000 .
b000 1
b00000000000000000000000000011111 3
b00000000000000000000000000011111 8
b00000000000000000000000000100100 :
1;
b00000000000000000000000011011010 ?
b00000000000000000000000000100001 @
#48
0;
#49
b00000000000000110000010100010011 #
b00000000000000000000000000100100 $
b00000000000000000000000000101000 %
b00000000000000000000000000011111 &
b00000000000000000000000000000000 '
b00000000 (
b00001010 *
b00000000000000000000000000100100 .
b00000000000000000000000000000000 5
b00000000000000000000000000000000 7
b00000000000000000000000000101000 :
1;
b00000000000000000000000000100100 @
#50
0;
#51
b11111110010101010001101011100011 #
b00000000000000000000000000101000 $
b00000000000000000000000000101100 %
b00000000000000000000000011111111 '
b00000101 (
b00001010 )
b00010101 *
b1100011 +
b001 ,
1-
b00000000000000000000000000101000 .
b000 /
b001 1
02
b11111111111111111111111100100000 3
b01 4
b11111111111111111111111111110100 5
b01 6
b00000000000000000000000011111111 7
b00000000000000000000000011011000 8
b10 9
b00000000000000000000000000011100 :
1;
b00000000000000000000000000011111 =
b00000000000000000000000011011000 ?
b00000000000000000000000000011100 @
#52
0;
#53
b00000000000100110001001100010011 #
b00000000000000000000000000011100 $
b00000000000000000000000000100000 %
b00000000000000000000000000001000 '
b00000001 (
b00000110 )
b00000110 *
b0010011 +
0-
b00000000000000000000000000011100 .
b001 /
b101 1
12
b00000000000000000000000000111110 3
b00 4
b00000000000000000000000000000001 5
b00 6
b00000000000000000000000000000001 7
b00000000000000000000000000111110 8
b00 9
b00000000000000000000000000100000 :
1;
b00000000000000000000000010000101 ?
b00000000000000000000000000011101 @
#54
0;
#55
b00000000000100110000001100010011 #
b00000000000000000000000000100000 $
b00000000000000000000000000100100 %
b00000000000000000000000000111110 &
b000 ,
b00000000000000000000000000100000 .
b000 1
b00000000000000000000000000111111 3
b00000000000000000000000000111111 8
b00000000000000000000000000100100 :
1;
b00000000000000000000000010000010 ?
b00000000000000000000000000100001 @
#56
0;
#57
b00000000000000110000010100010011 #
b00000000000000000000000000100100 $
b00000000000000000000000000101000 %
b00000000000000000000000000111111 &
b00000000000000000000000000000000 '
b00000000 (
b00001010 *
b00000000000000000000000000100100 .
b00000000000000000000000000000000 5
b00000000000000000000000000000000 7
b00000000000000000000000000101000 :
1;
b00000000000000000000000000100100 @
#58
0;
#59
b11111110010101010001101011100011 #
b00000000000000000000000000101000 $
b00000000000000000000000000101100 %
b00000000000000000000000011111111 '
b00000101 (
b00001010 )
b00010101 *
b1100011 +
b001 ,
1-
b00000000000000000000000000101000 .
b000 /
b001 1
02
b11111111111111111111111101000000 3
b01 4
b11111111111111111111111111110100 5
b01 6
b00000000000000000000000011111111 7
b00000000000000000000000001111110 8
b10 9
b00000000000000000000000000011100 :
1;
b00000000000000000000000000111111 =
b00000000000000000000000001111110 ?
b00000000000000000000000000011100 @
#60
0;
#61
b00000000000100110001001100010011 #
b00000000000000000000000000011100 $
b00000000000000000000000000100000 %
b00000000000000000000000000001000 '
b00000001 (
b00000110 )
b00000110 *
b0010011 +
0-
b00000000000000000000000000011100 .
b001 /
b101 1
12
b00000000000000000000000001111110 3
b00 4
b00000000000000000000000000000001 5
b00 6
b00000000000000000000000000000001 7
b00 9
b00000000000000000000000000100000 :
1;
b00000000000000000000000000000000 ?
b00000000000000000000000000011101 @
#62
0;
#63
b00000000000100110000001100010011 #
b00000000000000000000000000100000 $
b00000000000000000000000000100100 %
b00000000000000000000000001111110 &
b000 ,
b00000000000000000000000000100000 .
b000 1
b00000000000000000000000001111111 3
b00000000000000000000000001111111 8
b00000000000000000000000000100100 :
1;
b00000000000000000000000000100001 @
#64
0;
#65
b00000000000000110000010100010011 #
b00000000000000000000000000100100 $
b00000000000000000000000000101000 %
b00000000000000000000000001111111 &
b00000000000000000000000000000000 '
b00000000 (
b00001010 *
b00000000000000000000000000100100 .
b00000000000000000000000000000000 5
b00000000000000000000000000000000 7
b00000000000000000000000000101000 :
1;
b00000000000000000000000000100100 @
#66
0;
#67
b11111110010101010001101011100011 #
b00000000000000000000000000101000 $
b00000000000000000000000000101100 %
b00000000000000000000000011111111 '
b00000101 (
b00001010 )
b00010101 *
b1100011 +
b001 ,
1-
b00000000000000000000000000101000 .
b000 /
b001 1
02
b11111111111111111111111110000000 3
b01 4
b11111111111111111111111111110100 5
b01 6
b00000000000000000000000011111111 7
b00000000000000000000000000000000 8
b10 9
b00000000000000000000000000011100 :
1;
b00000000000000000000000001111111 =
b00000000000000000000000000011100 @
#68
0;
#69
b00000000000100110001001100010011 #
b00000000000000000000000000011100 $
b00000000000000000000000000100000 %
b00000000000000000000000000001000 '
b00000001 (
b00000110 )
b00000110 *
b0010011 +
0-
b00000000000000000000000000011100 .
b001 /
b101 1
12
b00000000000000000000000011111110 3
b00 4
b00000000000000000000000000000001 5
b00 6
b00000000000000000000000000000001 7
b00000000000000000000000011111110 8
b00 9
b00000000000000000000000000100000 :
1;
b00000000000000000000000011111101 ?
b00000000000000000000000000011101 @
#70
0;
#71
b00000000000100110000001100010011 #
b00000000000000000000000000100000 $
b00000000000000000000000000100100 %
b00000000000000000000000011111110 &
b000 ,
b00000000000000000000000000100000 .
b000 1
b00000000000000000000000011111111 3
b00000000000000000000000011111111 8
b00000000000000000000000000100100 :
1;
b00000000000000000000000000000000 ?
b00000000000000000000000000100001 @
#72
0;
#73
b00000000000000110000010100010011 #
b00000000000000000000000000100100 $
b00000000000000000000000000101000 %
b00000000000000000000000011111111 &
b00000000000000000000000000000000 '
b00000000 (
b00001010 *
b00000000000000000000000000100100 .
b00000000000000000000000000000000 5
b00000000000000000000000000000000 7
b00000000000000000000000000101000 :
1;
b00000000000000000000000000100100 @
#74
0;
#75
b11111110010101010001101011100011 #
b00000000000000000000000000101000 $
b00000000000000000000000000101100 %
b00000000000000000000000011111111 '
b00000101 (
b00001010 )
b00010101 *
b1100011 +
b001 ,
1-
b00000000000000000000000000101000 .
b000 /
b001 1
02
b00000000000000000000000000000000 3
b01 4
b11111111111111111111111111110100 5
b00000000000000000000000011111111 7
b00000000000000000000000011111110 8
b10 9
b00000000000000000000000000101100 :
1;
b00000000000000000000000011111111 =
1>
b00000000000000000000000011111110 ?
b00000000000000000000000000011100 @
#76
0;
#77
b00000000000000001000000001100111 #
b00000000000000000000000000101100 $
b00000000000000000000000000110000 %
b00000000000000000000000000001000 &
b00000000000000000000000000000000 '
b00000000 (
b00000001 )
b00000000 *
b1100111 +
b000 ,
0-
b00000000000000000000000000101100 .
b000 1
12
b00000000000000000000000000001000 3
b10 4
b00000000000000000000000000000000 5
b10 6
b00000000000000000000000000000000 7
b00000000000000000000000000110000 8
b00 9
b00000000000000000000000000001000 :
1;
0>
b00000000000000000000000011111011 ?
b00000000000000000000000000101100 @
#78
0;
#79
b11111111110111111111000011101111 #
b00000000000000000000000000001000 $
b00000000000000000000000000001100 %
b00000000000000000000000000000000 &
b00011101 (
b00011111 )
b00000001 *
b1101111 +
b111 ,
1-
b00000000000000000000000000001000 .
b001 /
b11111111111111111111111111111100 3
b11111111111111111111111111111100 5
b01 6
b11111111111111111111111111111100 7
b00000000000000000000000000001100 8
b11 9
b00000000000000000000000000000100 :
1;
b00000000000000000000000011111101 ?
b00000000000000000000000000000100 @
#80
0;
#81
b00000001000000000000000011101111 #
b00000000000000000000000000000100 $
b00000000000000000000000000001000 %
b00010000 (
b00000000 )
b000 ,
0-
b00000000000000000000000000000100 .
b00000000000000000000000000010000 3
b00000000000000000000000000010000 5
b00000000000000000000000000010000 7
b00000000000000000000000000001000 8
b00000000000000000000000000010100 :
1;
b00000000000000000000000011110100 ?
b00000000000000000000000000010100 @
#82
0;
#83
b00000000000000000000010100010011 #
b00000000000000000000000000010100 $
b00000000000000000000000000011000 %
b00000000 (
b00001010 *
b0010011 +
b00000000000000000000000000010100 .
b00000000000000000000000000000000 3
b00 4
b00000000000000000000000000000000 5
b00 6
b00000000000000000000000000000000 7
b00000000000000000000000000000000 8
b00 9
b00000000000000000000000000011000 :
1;
1>
b00000000000000000000000011111110 ?
#84
0;
#85
b00000000000000000000001100010011 #
b00000000000000000000000000011000 $
b00000000000000000000000000011100 %
b00000110 *
b00000000000000000000000000011000 .
b00000000000000000000000000011100 :
1;
b00000000000000000000000000000000 =
b00000000000000000000000000011000 @
#86
0;
#87
b00000000000100110001001100010011 #
b00000000000000000000000000011100 $
b00000000000000000000000000100000 %
b00000000000000000000000000001000 '
b00000001 (
b00000110 )
b001 ,
b00000000000000000000000000011100 .
b101 1
b00000000000000000000000000000001 5
b00000000000000000000000000000001 7
b00000000000000000000000000100000 :
1;
0>
b00000000000000000000000000011101 @
#88
0;
#89
b00000000000100110000001100010011 #
b00000000000000000000000000100000 $
b00000000000000000000000000100100 %
b000 ,
b00000000000000000000000000100000 .
b000 1
b00000000000000000000000000000001 3
b00000000000000000000000000000001 8
b00000000000000000000000000100100 :
1;
b00000000000000000000000011111101 ?
b00000000000000000000000000100001 @
#90
0;
#91
b00000000000000110000010100010011 #
b00000000000000000000000000100100 $
b00000000000000000000000000101000 %
b00000000000000000000000000000001 &
b00000000000000000000000000000000 '
b00000000 (
b00001010 *
b00000000000000000000000000100100 .
b00000000000000000000000000000000 5
b00000000000000000000000000000000 7
b00000000000000000000000000101000 :
1;
b00000000000000000000000000100100 @
#92
0;
#93
b11111110010101010001101011100011 #
b00000000000000000000000000101000 $
b00000000000000000000000000101100 %
b00000000000000000000000011111111 '
b00000101 (
b00001010 )
b00010101 *
b1100011 +
b001 ,
1-
b00000000000000000000000000101000 .
b000 /
b001 1
02
b11111111111111111111111100000010 3
b01 4
b11111111111111111111111111110100 5
b01 6
b00000000000000000000000011111111 7
b00000000000000000000000011111101 8
b10 9
b00000000000000000000000000011100 :
1;
b00000000000000000000000000000001 =
b00000000000000000000000000011100 @
#94
0;
#95
b00000000000100110001001100010011 #
b00000000000000000000000000011100 $
b00000000000000000000000000100000 %
b00000000000000000000000000001000 '
b00000001 (
b00000110 )
b00000110 *
b0010011 +
0-
b00000000000000000000000000011100 .
b001 /
b101 1
12
b00000000000000000000000000000010 3
b00 4
b00000000000000000000000000000001 5
b00 6
b00000000000000000000000000000001 7
b00000000000000000000000000000010 8
b00 9
b00000000000000000000000000100000 :
1;
1>
b00000000000000000000000000011101 @
#96
0;
#97
b00000000000100110000001100010011 #
b00000000000000000000000000100000 $
b00000000000000000000000000100100 %
b00000000000000000000000000000010 &
b000 ,
b00000000000000000000000000100000 .
b000 1
b00000000000000000000000000000011 3
b00000000000000000000000000000011 8
b00000000000000000000000000100100 :
1;
0>
b00000000000000000000000000100001 @
#98
0;
#99
b00000000000000110000010100010011 #
b00000000000000000000000000100100 $
b00000000000000000000000000101000 %
b00000000000000000000000000000011 &
b00000000000000000000000000000000 '
b00000000 (
b00001010 *
b00000000000000000000000000100100 .
b00000000000000000000000000000000 5
b00000000000000000000000000000000 7
b00000000000000000000000000101000 :
1;
b00000000000000000000000000100100 @
#100
0;
#101
b11111110010101010001101011100011 #
b00000000000000000000000000101000 $
b00000000000000000000000000101100 %
b00000000000000000000000011111111 '
b00000101 (
b00001010 )
b00010101 *
b1100011 +
b001 ,
1-
b00000000000000000000000000101000 .
b000 /
b001 1
02
b11111111111111111111111100000100 3
b01 4
b11111111111111111111111111110100 5
b01 6
b00000000000000000000000011111111 7
b00000000000000000000000011111101 8
b10 9
b00000000000000000000000000011100 :
1;
b00000000000000000000000000000011 =
b00000000000000000000000000011100 @
#102
0;
#103
b00000000000100110001001100010011 #
b00000000000000000000000000011100 $
b00000000000000000000000000100000 %
b00000000000000000000000000001000 '
b00000001 (
b00000110 )
b00000110 *
b0010011 +
0-
b00000000000000000000000000011100 .
b001 /
b101 1
12
b00000000000000000000000000000110 3
b00 4
b00000000000000000000000000000001 5
b00 6
b00000000000000000000000000000001 7
b00000000000000000000000000000110 8
b00 9
b00000000000000000000000000100000 :
1;
b00000000000000000000000011111100 ?
b00000000000000000000000000011101 @
#104
0;
#105
b00000000000100110000001100010011 #
b00000000000000000000000000100000 $
b00000000000000000000000000100100 %
b00000000000000000000000000000110 &
b000 ,
b00000000000000000000000000100000 .
b000 1
b00000000000000000000000000000111 3
b00000000000000000000000000000111 8
b00000000000000000000000000100100 :
1;
b00000000000000000000000000100001 @
#106
0;
