single_cycle/test/cpu.vcd
$version Generated by VerilatedVcd $end
$date Wed Dec  6 17:25:32 2023 $end
$timescale 1ps $end

 $scope module TOP $end
  $var wire 32 ? a0 [31:0] $end
  $var wire  1 = clk $end
  $var wire  1 > rst $end
  $scope module cpu $end
   $var wire 32 D ADDRESS_WIDTH [31:0] $end
   $var wire 32 3 ALUResult_o [31:0] $end
   $var wire  3 1 ALUctrl [2:0] $end
   $var wire  1 2 ALUsrc $end
   $var wire 32 F CONTROL_WIDTH [31:0] $end
   $var wire 32 E DATA_WIDTH [31:0] $end
   $var wire 32 G IMM_WIDTH [31:0] $end
   $var wire 32 5 ImmOp [31:0] $end
   $var wire 32 # Instr [31:0] $end
   $var wire  2 0 MemWrite [1:0] $end
   $var wire  8 $ PC [7:0] $end
   $var wire 32 % PCPlus4 [31:0] $end
   $var wire  2 6 PCsrc [1:0] $end
   $var wire  2 / RegWrite [1:0] $end
   $var wire 32 H Result [31:0] $end
   $var wire  2 4 Resultsrc [1:0] $end
   $var wire  1 @ Zero $end
   $var wire 32 ? a0 [31:0] $end
   $var wire  1 = clk $end
   $var wire  1 > rst $end
   $scope module alu $end
    $var wire 32 3 ALUResult_o [31:0] $end
    $var wire  3 1 ALUctrl_i [2:0] $end
    $var wire  1 2 ALUsrc_i $end
    $var wire 32 F CONTROL_WIDTH [31:0] $end
    $var wire 32 E DATA_WIDTH [31:0] $end
    $var wire 32 5 ImmOp_i [31:0] $end
    $var wire 32 # Instr_i [31:0] $end
    $var wire  1 8 MemWrite_i $end
    $var wire 32 % PCPlus4_i [31:0] $end
    $var wire 32 B ReadData [31:0] $end
    $var wire  1 7 RegWrite_i $end
    $var wire 32 A Result [31:0] $end
    $var wire  2 4 ResultSrc_i [1:0] $end
    $var wire 32 & SrcA [31:0] $end
    $var wire 32 9 SrcB [31:0] $end
    $var wire  1 @ Zero_o $end
    $var wire 32 ? a0 [31:0] $end
    $var wire  1 = clk $end
    $var wire 32 ' regOp2 [31:0] $end
    $scope module ALU $end
     $var wire 32 3 ALUResult [31:0] $end
     $var wire  3 1 ALUctrl [2:0] $end
     $var wire 32 F CONTROL_WIDTH [31:0] $end
     $var wire 32 E DATA_WIDTH [31:0] $end
     $var wire 32 & SrcA [31:0] $end
     $var wire 32 9 SrcB [31:0] $end
     $var wire  1 @ Zero $end
    $upscope $end
    $scope module ALUMux $end
     $var wire 32 E DATA_WIDTH [31:0] $end
     $var wire  1 2 control $end
     $var wire 32 ' input0 [31:0] $end
     $var wire 32 5 input1 [31:0] $end
     $var wire 32 9 out [31:0] $end
    $upscope $end
    $scope module data $end
     $var wire  8 : A [7:0] $end
     $var wire 32 D ADDRESS_WIDTH [31:0] $end
     $var wire 32 E DATA_WIDTH [31:0] $end
     $var wire 32 B RD [31:0] $end
     $var wire 32 ' WD [31:0] $end
     $var wire  1 8 WE $end
     $var wire  1 = clk $end
    $upscope $end
    $scope module register $end
     $var wire  5 ) A1 [4:0] $end
     $var wire  5 ( A2 [4:0] $end
     $var wire  5 * A3 [4:0] $end
     $var wire 32 D ADDRESS_WIDTH [31:0] $end
     $var wire 32 E DATA_WIDTH [31:0] $end
     $var wire 32 # Instr [31:0] $end
     $var wire 32 & RD1 [31:0] $end
     $var wire 32 ' RD2 [31:0] $end
     $var wire 32 A WD3 [31:0] $end
     $var wire  1 7 WE3 $end
     $var wire 32 ? a0 [31:0] $end
     $var wire  1 = clk $end
    $upscope $end
    $scope module resultMux $end
     $var wire 32 G CONTROL_WIDTH [31:0] $end
     $var wire 32 E DATA_WIDTH [31:0] $end
     $var wire  2 4 control [1:0] $end
     $var wire 32 3 input0 [31:0] $end
     $var wire 32 B input1 [31:0] $end
     $var wire 32 % input2 [31:0] $end
     $var wire 32 I input3 [31:0] $end
     $var wire 32 A out [31:0] $end
    $upscope $end
   $upscope $end
   $scope module control $end
    $var wire 32 D ADDRESS_WIDTH [31:0] $end
    $var wire  3 1 ALUctrl_o [2:0] $end
    $var wire  1 2 ALUsrc_o $end
    $var wire 32 F CONTROL_WIDTH [31:0] $end
    $var wire 32 E DATA_WIDTH [31:0] $end
    $var wire 32 G IMM_WIDTH [31:0] $end
    $var wire 32 5 ImmOp_o [31:0] $end
    $var wire  2 ; ImmSrc [1:0] $end
    $var wire  1 8 MemWrite_o $end
    $var wire  8 $ PC_i [7:0] $end
    $var wire  2 6 PCsrc_o [1:0] $end
    $var wire  1 7 RegWrite_o $end
    $var wire  2 4 Resultsrc_o [1:0] $end
    $var wire  1 @ Zero_i $end
    $var wire 32 # instr_o [31:0] $end
    $scope module ControlUnit $end
     $var wire  3 1 ALUctrl_o [2:0] $end
     $var wire  1 2 ALUsrc_o $end
     $var wire 32 F CONTROL_WIDTH [31:0] $end
     $var wire 32 E DATA_WIDTH [31:0] $end
     $var wire 32 G IMM_WIDTH [31:0] $end
     $var wire  2 ; ImmSrc_o [1:0] $end
     $var wire  1 8 MemWrite_o $end
     $var wire  2 6 PCsrc_o [1:0] $end
     $var wire  1 7 RegWrite_o $end
     $var wire  2 4 Resultsrc_o [1:0] $end
     $var wire  1 @ Zero_i $end
     $var wire  3 , funct3 [2:0] $end
     $var wire 32 # instr_i [31:0] $end
     $var wire  7 + opcode [6:0] $end
    $upscope $end
    $scope module InstrMem $end
     $var wire 32 D ADDRESS_WIDTH [31:0] $end
     $var wire 32 E DATA_WIDTH [31:0] $end
     $var wire 32 # Instr_o [31:0] $end
     $var wire  8 $ addr_i [7:0] $end
    $upscope $end
    $scope module MySignExtend $end
     $var wire 32 E DATA_WIDTH [31:0] $end
     $var wire 32 G IMM_WIDTH [31:0] $end
     $var wire 32 5 ImmOp_o [31:0] $end
     $var wire  2 ; ImmSrc_i [1:0] $end
     $var wire 32 # instr_i [31:0] $end
    $upscope $end
   $upscope $end
   $scope module pc $end
    $var wire 32 3 ALUResult_i [31:0] $end
    $var wire 32 5 ImmOp_i [31:0] $end
    $var wire 32 . PC [31:0] $end
    $var wire 32 % PCPlus4_o [31:0] $end
    $var wire 32 C PCTarget [31:0] $end
    $var wire  2 6 PCsrc_i [1:0] $end
    $var wire 32 E WIDTH [31:0] $end
    $var wire  1 = clk $end
    $var wire 32 < next_PC [31:0] $end
    $var wire 32 - pc_out [31:0] $end
    $var wire  1 > rst $end
    $scope module pc_mux $end
     $var wire 32 G CONTROL_WIDTH [31:0] $end
     $var wire 32 E DATA_WIDTH [31:0] $end
     $var wire  2 6 control [1:0] $end
     $var wire 32 % input0 [31:0] $end
     $var wire 32 C input1 [31:0] $end
     $var wire 32 3 input2 [31:0] $end
     $var wire 32 J input3 [31:0] $end
     $var wire 32 < out [31:0] $end
    $upscope $end
    $scope module pc_reg $end
     $var wire 32 E WIDTH [31:0] $end
     $var wire 32 - another_pc [31:0] $end
     $var wire  1 = clk $end
     $var wire 32 < next_PC [31:0] $end
     $var wire 32 . pc [31:0] $end
     $var wire  1 > rst $end
    $upscope $end
   $upscope $end
  $upscope $end
 $upscope $end
$enddefinitions $end


#0
b00000000000000000000000000000000 #
b00000000 $
b00000000000000000000000000000100 %
b00000000000000000000000000000000 &
b00000000000000000000000000000000 '
b00000 (
b00000 )
b00000 *
b0000000 +
b000 ,
b00000000000000000000000000000000 -
b00000000000000000000000000000000 .
b00 /
b00 0
b000 1
02
b00000000000000000000000000000000 3
b00 4
b00000000000000000000000000000000 5
b00 6
07
08
b00000000000000000000000000000000 9
b00000000 :
b00 ;
b00000000000000000000000000000000 <
0=
0>
b00000000000000000000000000000000 ?
1@
b00000000000000000000000000000000 A
b00000000000000000000000000000000 B
b00000000000000000000000000000000 C
b00000000000000000000000000001000 D
b00000000000000000000000000100000 E
b00000000000000000000000000000011 F
b00000000000000000000000000000010 G
b00000000000000000000000000000000 H
b00000000000000000000000000000000 I
b00000000000000000000000000000000 J
#1
b00000001000000000000000011101111 #
b10000 (
b00001 *
b1101111 +
b01 /
12
b00000000000000000000000000010000 3
b10 4
b00000000000000000000000000010000 5
b01 6
17
b00000000000000000000000000010000 9
b00010000 :
b10 ;
b00000000000000000000000000010000 <
1=
0@
b00000000000000000000000000000100 A
b00000000000000000000000011110100 B
b00000000000000000000000000010000 C
#2
0=
#3
b00010000000000000000010110010011 #
b00010000 $
b00000000000000000000000000010100 %
b00000 (
b01011 *
b0010011 +
b00000000000000000000000000010000 -
b00000000000000000000000000010000 .
b00000000000000000000000100000000 3
b00 4
b00000000000000000000000100000000 5
b00 6
b00000000000000000000000100000000 9
b00000000 :
b01 ;
b00000000000000000000000000010100 <
1=
b00000000000000000000000100000000 A
b00000000000000000000000011111110 B
b00000000000000000000000100010000 C
#4
0=
#5
b11111111111101011000010110010011 #
b00010100 $
b00000000000000000000000000011000 %
b00000000000000000000000100000000 &
b11111 (
b01011 )
b00000000000000000000000000010100 -
b00000000000000000000000000010100 .
b00000000000000000000000011111111 3
b11111111111111111111111111111111 5
b11111111111111111111111111111111 9
b11111111 :
b00000000000000000000000000011000 <
1=
b00000000000000000000000100000000 ?
b00000000000000000000000011111111 A
b00000000000000000000000000000000 B
b00000000000000000000000000010011 C
#6
0=
#7
b00010000000001011000000000100011 #
b00011000 $
b00000000000000000000000000011100 %
b00000000000000000000000011111111 &
b00000 (
b00000 *
b0100011 +
b00000000000000000000000000011000 -
b00000000000000000000000000011000 .
b00000000000000000000000111111111 3
b00000000000000000000000100000000 5
b00000000000000000000000100000000 9
b00000000000000000000000000011100 <
1=
b00000000000000000000000011111111 ?
b00000000000000000000000111111111 A
b00000000000000000000000100011000 C
#8
0=
#9
b11111110000001011001110011100011 #
b00011100 $
b00000000000000000000000000100000 %
b11001 *
b1100011 +
b001 ,
b00000000000000000000000000011100 -
b00000000000000000000000000011100 .
b00 /
02
b00000000000000000000000011111111 3
b01 4
b11111111111111111111111111111000 5
b01 6
07
b00000000000000000000000000000000 9
b11 ;
b00000000000000000000000000010100 <
1=
b00000000000000000000000000000000 A
b00000000000000000000000000010100 C
#10
0=
#11
b11111111111101011000010110010011 #
b00010100 $
b00000000000000000000000000011000 %
b11111 (
b01011 *
b0010011 +
b000 ,
b00000000000000000000000000010100 -
b00000000000000000000000000010100 .
b01 /
12
b00000000000000000000000011111110 3
b00 4
b11111111111111111111111111111111 5
b00 6
17
b11111111111111111111111111111111 9
b11111110 :
b01 ;
b00000000000000000000000000011000 <
1=
b00000000000000000000000011111110 A
b00000000000000000000000011111101 B
b00000000000000000000000000010011 C
#12
0=
#13
b00010000000001011000000000100011 #
b00011000 $
b00000000000000000000000000011100 %
b00000000000000000000000011111110 &
b00000 (
b00000 *
b0100011 +
b00000000000000000000000000011000 -
b00000000000000000000000000011000 .
b00000000000000000000000111111110 3
b00000000000000000000000100000000 5
b00000000000000000000000100000000 9
b00000000000000000000000000011100 <
1=
b00000000000000000000000011111110 ?
b00000000000000000000000111111110 A
b00000000000000000000000100011000 C
#14
0=
#15
b11111110000001011001110011100011 #
b00011100 $
b00000000000000000000000000100000 %
b11001 *
b1100011 +
b001 ,
b00000000000000000000000000011100 -
b00000000000000000000000000011100 .
b00 /
02
b00000000000000000000000011111110 3
b01 4
b11111111111111111111111111111000 5
b01 6
07
b00000000000000000000000000000000 9
b11 ;
b00000000000000000000000000010100 <
1=
b00000000000000000000000011111101 A
b00000000000000000000000000010100 C
#16
0=
#17
b11111111111101011000010110010011 #
b00010100 $
b00000000000000000000000000011000 %
b11111 (
b01011 *
b0010011 +
b000 ,
b00000000000000000000000000010100 -
b00000000000000000000000000010100 .
b01 /
12
b00000000000000000000000011111101 3
b00 4
b11111111111111111111111111111111 5
b00 6
17
b11111111111111111111111111111111 9
b11111101 :
b01 ;
b00000000000000000000000000011000 <
1=
b00000000000000000000000000010011 C
#18
0=
#19
b00010000000001011000000000100011 #
b00011000 $
b00000000000000000000000000011100 %
b00000000000000000000000011111101 &
b00000 (
b00000 *
b0100011 +
b00000000000000000000000000011000 -
b00000000000000000000000000011000 .
b00000000000000000000000111111101 3
b00000000000000000000000100000000 5
b00000000000000000000000100000000 9
b00000000000000000000000000011100 <
1=
b00000000000000000000000011111101 ?
b00000000000000000000000111111101 A
b00000000000000000000000100011000 C
#20
0=
#21
b11111110000001011001110011100011 #
b00011100 $
b00000000000000000000000000100000 %
b11001 *
b1100011 +
b001 ,
b00000000000000000000000000011100 -
b00000000000000000000000000011100 .
b00 /
02
b00000000000000000000000011111101 3
b01 4
b11111111111111111111111111111000 5
b01 6
07
b00000000000000000000000000000000 9
b11 ;
b00000000000000000000000000010100 <
1=
b00000000000000000000000011111101 A
b00000000000000000000000000010100 C
#22
0=
#23
b11111111111101011000010110010011 #
b00010100 $
b00000000000000000000000000011000 %
b11111 (
b01011 *
b0010011 +
b000 ,
b00000000000000000000000000010100 -
b00000000000000000000000000010100 .
b01 /
12
b00000000000000000000000011111100 3
b00 4
b11111111111111111111111111111111 5
b00 6
17
b11111111111111111111111111111111 9
b11111100 :
b01 ;
b00000000000000000000000000011000 <
1=
b00000000000000000000000011111100 A
b00000000000000000000000000010011 C
#24
0=
#25
b00010000000001011000000000100011 #
b00011000 $
b00000000000000000000000000011100 %
b00000000000000000000000011111100 &
b00000 (
b00000 *
b0100011 +
b00000000000000000000000000011000 -
b00000000000000000000000000011000 .
b00000000000000000000000111111100 3
b00000000000000000000000100000000 5
b00000000000000000000000100000000 9
b00000000000000000000000000011100 <
1=
b00000000000000000000000011111100 ?
b00000000000000000000000111111100 A
b00000000000000000000000100011000 C
#26
0=
#27
b11111110000001011001110011100011 #
b00011100 $
b00000000000000000000000000100000 %
b11001 *
b1100011 +
b001 ,
b00000000000000000000000000011100 -
b00000000000000000000000000011100 .
b00 /
02
b00000000000000000000000011111100 3
b01 4
b11111111111111111111111111111000 5
b01 6
07
b00000000000000000000000000000000 9
b11 ;
b00000000000000000000000000010100 <
1=
b00000000000000000000000011111101 A
b00000000000000000000000000010100 C
#28
0=
#29
b11111111111101011000010110010011 #
b00010100 $
b00000000000000000000000000011000 %
b11111 (
b01011 *
b0010011 +
b000 ,
b00000000000000000000000000010100 -
b00000000000000000000000000010100 .
b01 /
12
b00000000000000000000000011111011 3
b00 4
b11111111111111111111111111111111 5
b00 6
17
b11111111111111111111111111111111 9
b11111011 :
b01 ;
b00000000000000000000000000011000 <
1=
b00000000000000000000000011111011 A
b00000000000000000000000000010011 C
#30
0=
#31
b00010000000001011000000000100011 #
b00011000 $
b00000000000000000000000000011100 %
b00000000000000000000000011111011 &
b00000 (
b00000 *
b0100011 +
b00000000000000000000000000011000 -
b00000000000000000000000000011000 .
b00000000000000000000000111111011 3
b00000000000000000000000100000000 5
b00000000000000000000000100000000 9
b00000000000000000000000000011100 <
1=
b00000000000000000000000011111011 ?
b00000000000000000000000111111011 A
b00000000000000000000000100011000 C
#32
0=
#33
b11111110000001011001110011100011 #
b00011100 $
b00000000000000000000000000100000 %
b11001 *
b1100011 +
b001 ,
b00000000000000000000000000011100 -
b00000000000000000000000000011100 .
b00 /
02
b00000000000000000000000011111011 3
b01 4
b11111111111111111111111111111000 5
b01 6
07
b00000000000000000000000000000000 9
b11 ;
b00000000000000000000000000010100 <
1=
b00000000000000000000000011111101 A
b00000000000000000000000000010100 C
#34
0=
#35
b11111111111101011000010110010011 #
b00010100 $
b00000000000000000000000000011000 %
b11111 (
b01011 *
b0010011 +
b000 ,
b00000000000000000000000000010100 -
b00000000000000000000000000010100 .
b01 /
12
b00000000000000000000000011111010 3
b00 4
b11111111111111111111111111111111 5
b00 6
17
b11111111111111111111111111111111 9
b11111010 :
b01 ;
b00000000000000000000000000011000 <
1=
b00000000000000000000000011111010 A
b00000000000000000000000011111100 B
b00000000000000000000000000010011 C
#36
0=
#37
b00010000000001011000000000100011 #
b00011000 $
b00000000000000000000000000011100 %
b00000000000000000000000011111010 &
b00000 (
b00000 *
b0100011 +
b00000000000000000000000000011000 -
b00000000000000000000000000011000 .
b00000000000000000000000111111010 3
b00000000000000000000000100000000 5
b00000000000000000000000100000000 9
b00000000000000000000000000011100 <
1=
b00000000000000000000000011111010 ?
b00000000000000000000000111111010 A
b00000000000000000000000100011000 C
#38
0=
#39
b11111110000001011001110011100011 #
b00011100 $
b00000000000000000000000000100000 %
b11001 *
b1100011 +
b001 ,
b00000000000000000000000000011100 -
b00000000000000000000000000011100 .
b00 /
02
b00000000000000000000000011111010 3
b01 4
b11111111111111111111111111111000 5
b01 6
07
b00000000000000000000000000000000 9
b11 ;
b00000000000000000000000000010100 <
1=
b00000000000000000000000011111100 A
b00000000000000000000000000010100 C
#40
0=
#41
b11111111111101011000010110010011 #
b00010100 $
b00000000000000000000000000011000 %
b11111 (
b01011 *
b0010011 +
b000 ,
b00000000000000000000000000010100 -
b00000000000000000000000000010100 .
b01 /
12
b00000000000000000000000011111001 3
b00 4
b11111111111111111111111111111111 5
b00 6
17
b11111111111111111111111111111111 9
b11111001 :
b01 ;
b00000000000000000000000000011000 <
1=
b00000000000000000000000011111001 A
b00000000000000000000000000010011 C
#42
0=
#43
b00010000000001011000000000100011 #
b00011000 $
b00000000000000000000000000011100 %
b00000000000000000000000011111001 &
b00000 (
b00000 *
b0100011 +
b00000000000000000000000000011000 -
b00000000000000000000000000011000 .
b00000000000000000000000111111001 3
b00000000000000000000000100000000 5
b00000000000000000000000100000000 9
b00000000000000000000000000011100 <
1=
b00000000000000000000000011111001 ?
b00000000000000000000000111111001 A
b00000000000000000000000100011000 C
#44
0=
#45
b11111110000001011001110011100011 #
b00011100 $
b00000000000000000000000000100000 %
b11001 *
b1100011 +
b001 ,
b00000000000000000000000000011100 -
b00000000000000000000000000011100 .
b00 /
02
b00000000000000000000000011111001 3
b01 4
b11111111111111111111111111111000 5
b01 6
07
b00000000000000000000000000000000 9
b11 ;
b00000000000000000000000000010100 <
1=
b00000000000000000000000011111100 A
b00000000000000000000000000010100 C
#46
0=
#47
b11111111111101011000010110010011 #
b00010100 $
b00000000000000000000000000011000 %
b11111 (
b01011 *
b0010011 +
b000 ,
b00000000000000000000000000010100 -
b00000000000000000000000000010100 .
b01 /
12
b00000000000000000000000011111000 3
b00 4
b11111111111111111111111111111111 5
b00 6
17
b11111111111111111111111111111111 9
b11111000 :
b01 ;
b00000000000000000000000000011000 <
1=
b00000000000000000000000011111000 A
b00000000000000000000000011111011 B
b00000000000000000000000000010011 C
#48
0=
#49
b00010000000001011000000000100011 #
b00011000 $
b00000000000000000000000000011100 %
b00000000000000000000000011111000 &
b00000 (
b00000 *
b0100011 +
b00000000000000000000000000011000 -
b00000000000000000000000000011000 .
b00000000000000000000000111111000 3
b00000000000000000000000100000000 5
b00000000000000000000000100000000 9
b00000000000000000000000000011100 <
1=
b00000000000000000000000011111000 ?
b00000000000000000000000111111000 A
b00000000000000000000000100011000 C
#50
0=
#51
b11111110000001011001110011100011 #
b00011100 $
b00000000000000000000000000100000 %
b11001 *
b1100011 +
b001 ,
b00000000000000000000000000011100 -
b00000000000000000000000000011100 .
b00 /
02
b00000000000000000000000011111000 3
b01 4
b11111111111111111111111111111000 5
b01 6
07
b00000000000000000000000000000000 9
b11 ;
b00000000000000000000000000010100 <
1=
b00000000000000000000000011111011 A
b00000000000000000000000000010100 C
#52
0=
#53
b11111111111101011000010110010011 #
b00010100 $
b00000000000000000000000000011000 %
b11111 (
b01011 *
b0010011 +
b000 ,
b00000000000000000000000000010100 -
b00000000000000000000000000010100 .
b01 /
12
b00000000000000000000000011110111 3
b00 4
b11111111111111111111111111111111 5
b00 6
17
b11111111111111111111111111111111 9
b11110111 :
b01 ;
b00000000000000000000000000011000 <
1=
b00000000000000000000000011110111 A
b00000000000000000000000011111010 B
b00000000000000000000000000010011 C
#54
0=
#55
b00010000000001011000000000100011 #
b00011000 $
b00000000000000000000000000011100 %
b00000000000000000000000011110111 &
b00000 (
b00000 *
b0100011 +
b00000000000000000000000000011000 -
b00000000000000000000000000011000 .
b00000000000000000000000111110111 3
b00000000000000000000000100000000 5
b00000000000000000000000100000000 9
b00000000000000000000000000011100 <
1=
b00000000000000000000000011110111 ?
b00000000000000000000000111110111 A
b00000000000000000000000100011000 C
#56
0=
#57
b11111110000001011001110011100011 #
b00011100 $
b00000000000000000000000000100000 %
b11001 *
b1100011 +
b001 ,
b00000000000000000000000000011100 -
b00000000000000000000000000011100 .
b00 /
02
b00000000000000000000000011110111 3
b01 4
b11111111111111111111111111111000 5
b01 6
07
b00000000000000000000000000000000 9
b11 ;
b00000000000000000000000000010100 <
1=
b00000000000000000000000011111010 A
b00000000000000000000000000010100 C
#58
0=
#59
b11111111111101011000010110010011 #
b00010100 $
b00000000000000000000000000011000 %
b11111 (
b01011 *
b0010011 +
b000 ,
b00000000000000000000000000010100 -
b00000000000000000000000000010100 .
b01 /
12
b00000000000000000000000011110110 3
b00 4
b11111111111111111111111111111111 5
b00 6
17
b11111111111111111111111111111111 9
b11110110 :
b01 ;
b00000000000000000000000000011000 <
1=
b00000000000000000000000011110110 A
b00000000000000000000000000010011 C
#60
0=
#61
b00010000000001011000000000100011 #
b00011000 $
b00000000000000000000000000011100 %
b00000000000000000000000011110110 &
b00000 (
b00000 *
b0100011 +
b00000000000000000000000000011000 -
b00000000000000000000000000011000 .
b00000000000000000000000111110110 3
b00000000000000000000000100000000 5
b00000000000000000000000100000000 9
b00000000000000000000000000011100 <
1=
b00000000000000000000000011110110 ?
b00000000000000000000000111110110 A
b00000000000000000000000100011000 C
#62
0=
#63
b11111110000001011001110011100011 #
b00011100 $
b00000000000000000000000000100000 %
b11001 *
b1100011 +
b001 ,
b00000000000000000000000000011100 -
b00000000000000000000000000011100 .
b00 /
02
b00000000000000000000000011110110 3
b01 4
b11111111111111111111111111111000 5
b01 6
07
b00000000000000000000000000000000 9
b11 ;
b00000000000000000000000000010100 <
1=
b00000000000000000000000011111010 A
b00000000000000000000000000010100 C
#64
0=
#65
b11111111111101011000010110010011 #
b00010100 $
b00000000000000000000000000011000 %
b11111 (
b01011 *
b0010011 +
b000 ,
b00000000000000000000000000010100 -
b00000000000000000000000000010100 .
b01 /
12
b00000000000000000000000011110101 3
b00 4
b11111111111111111111111111111111 5
b00 6
17
b11111111111111111111111111111111 9
b11110101 :
b01 ;
b00000000000000000000000000011000 <
1=
b00000000000000000000000011110101 A
b00000000000000000000000011111001 B
b00000000000000000000000000010011 C
#66
0=
#67
b00010000000001011000000000100011 #
b00011000 $
b00000000000000000000000000011100 %
b00000000000000000000000011110101 &
b00000 (
b00000 *
b0100011 +
b00000000000000000000000000011000 -
b00000000000000000000000000011000 .
b00000000000000000000000111110101 3
b00000000000000000000000100000000 5
b00000000000000000000000100000000 9
b00000000000000000000000000011100 <
1=
b00000000000000000000000011110101 ?
b00000000000000000000000111110101 A
b00000000000000000000000100011000 C
#68
0=
#69
b11111110000001011001110011100011 #
b00011100 $
b00000000000000000000000000100000 %
b11001 *
b1100011 +
b001 ,
b00000000000000000000000000011100 -
b00000000000000000000000000011100 .
b00 /
02
b00000000000000000000000011110101 3
b01 4
b11111111111111111111111111111000 5
b01 6
07
b00000000000000000000000000000000 9
b11 ;
b00000000000000000000000000010100 <
1=
b00000000000000000000000011111001 A
b00000000000000000000000000010100 C
#70
0=
#71
b11111111111101011000010110010011 #
b00010100 $
b00000000000000000000000000011000 %
b11111 (
b01011 *
b0010011 +
b000 ,
b00000000000000000000000000010100 -
b00000000000000000000000000010100 .
b01 /
12
b00000000000000000000000011110100 3
b00 4
b11111111111111111111111111111111 5
b00 6
17
b11111111111111111111111111111111 9
b11110100 :
b01 ;
b00000000000000000000000000011000 <
1=
b00000000000000000000000011110100 A
b00000000000000000000000011111000 B
b00000000000000000000000000010011 C
#72
0=
#73
b00010000000001011000000000100011 #
b00011000 $
b00000000000000000000000000011100 %
b00000000000000000000000011110100 &
b00000 (
b00000 *
b0100011 +
b00000000000000000000000000011000 -
b00000000000000000000000000011000 .
b00000000000000000000000111110100 3
b00000000000000000000000100000000 5
b00000000000000000000000100000000 9
b00000000000000000000000000011100 <
1=
b00000000000000000000000011110100 ?
b00000000000000000000000111110100 A
b00000000000000000000000100011000 C
#74
0=
#75
b11111110000001011001110011100011 #
b00011100 $
b00000000000000000000000000100000 %
b11001 *
b1100011 +
b001 ,
b00000000000000000000000000011100 -
b00000000000000000000000000011100 .
b00 /
02
b00000000000000000000000011110100 3
b01 4
b11111111111111111111111111111000 5
b01 6
07
b00000000000000000000000000000000 9
b11 ;
b00000000000000000000000000010100 <
1=
b00000000000000000000000011111000 A
b00000000000000000000000000010100 C
#76
0=
#77
b11111111111101011000010110010011 #
b00010100 $
b00000000000000000000000000011000 %
b11111 (
b01011 *
b0010011 +
b000 ,
b00000000000000000000000000010100 -
b00000000000000000000000000010100 .
b01 /
12
b00000000000000000000000011110011 3
b00 4
b11111111111111111111111111111111 5
b00 6
17
b11111111111111111111111111111111 9
b11110011 :
b01 ;
b00000000000000000000000000011000 <
1=
b00000000000000000000000011110011 A
b00000000000000000000000011110111 B
b00000000000000000000000000010011 C
#78
0=
#79
b00010000000001011000000000100011 #
b00011000 $
b00000000000000000000000000011100 %
b00000000000000000000000011110011 &
b00000 (
b00000 *
b0100011 +
b00000000000000000000000000011000 -
b00000000000000000000000000011000 .
b00000000000000000000000111110011 3
b00000000000000000000000100000000 5
b00000000000000000000000100000000 9
b00000000000000000000000000011100 <
1=
b00000000000000000000000011110011 ?
b00000000000000000000000111110011 A
b00000000000000000000000100011000 C
#80
0=
#81
b11111110000001011001110011100011 #
b00011100 $
b00000000000000000000000000100000 %
b11001 *
b1100011 +
b001 ,
b00000000000000000000000000011100 -
b00000000000000000000000000011100 .
b00 /
02
b00000000000000000000000011110011 3
b01 4
b11111111111111111111111111111000 5
b01 6
07
b00000000000000000000000000000000 9
b11 ;
b00000000000000000000000000010100 <
1=
b00000000000000000000000011110111 A
b00000000000000000000000000010100 C
#82
0=
#83
b11111111111101011000010110010011 #
b00010100 $
b00000000000000000000000000011000 %
b11111 (
b01011 *
b0010011 +
b000 ,
b00000000000000000000000000010100 -
b00000000000000000000000000010100 .
b01 /
12
b00000000000000000000000011110010 3
b00 4
b11111111111111111111111111111111 5
b00 6
17
b11111111111111111111111111111111 9
b11110010 :
b01 ;
b00000000000000000000000000011000 <
1=
b00000000000000000000000011110010 A
b00000000000000000000000011110110 B
b00000000000000000000000000010011 C
#84
0=
#85
b00010000000001011000000000100011 #
b00011000 $
b00000000000000000000000000011100 %
b00000000000000000000000011110010 &
b00000 (
b00000 *
b0100011 +
b00000000000000000000000000011000 -
b00000000000000000000000000011000 .
b00000000000000000000000111110010 3
b00000000000000000000000100000000 5
b00000000000000000000000100000000 9
b00000000000000000000000000011100 <
1=
b00000000000000000000000011110010 ?
b00000000000000000000000111110010 A
b00000000000000000000000100011000 C
#86
0=
#87
b11111110000001011001110011100011 #
b00011100 $
b00000000000000000000000000100000 %
b11001 *
b1100011 +
b001 ,
b00000000000000000000000000011100 -
b00000000000000000000000000011100 .
b00 /
02
b00000000000000000000000011110010 3
b01 4
b11111111111111111111111111111000 5
b01 6
07
b00000000000000000000000000000000 9
b11 ;
b00000000000000000000000000010100 <
1=
b00000000000000000000000011110110 A
b00000000000000000000000000010100 C
#88
0=
#89
b11111111111101011000010110010011 #
b00010100 $
b00000000000000000000000000011000 %
b11111 (
b01011 *
b0010011 +
b000 ,
b00000000000000000000000000010100 -
b00000000000000000000000000010100 .
b01 /
12
b00000000000000000000000011110001 3
b00 4
b11111111111111111111111111111111 5
b00 6
17
b11111111111111111111111111111111 9
b11110001 :
b01 ;
b00000000000000000000000000011000 <
1=
b00000000000000000000000011110001 A
b00000000000000000000000011110101 B
b00000000000000000000000000010011 C
#90
0=
#91
b00010000000001011000000000100011 #
b00011000 $
b00000000000000000000000000011100 %
b00000000000000000000000011110001 &
b00000 (
b00000 *
b0100011 +
b00000000000000000000000000011000 -
b00000000000000000000000000011000 .
b00000000000000000000000111110001 3
b00000000000000000000000100000000 5
b00000000000000000000000100000000 9
b00000000000000000000000000011100 <
1=
b00000000000000000000000011110001 ?
b00000000000000000000000111110001 A
b00000000000000000000000100011000 C
#92
0=
#93
b11111110000001011001110011100011 #
b00011100 $
b00000000000000000000000000100000 %
b11001 *
b1100011 +
b001 ,
b00000000000000000000000000011100 -
b00000000000000000000000000011100 .
b00 /
02
b00000000000000000000000011110001 3
b01 4
b11111111111111111111111111111000 5
b01 6
07
b00000000000000000000000000000000 9
b11 ;
b00000000000000000000000000010100 <
1=
b00000000000000000000000011110101 A
b00000000000000000000000000010100 C
#94
0=
#95
b11111111111101011000010110010011 #
b00010100 $
b00000000000000000000000000011000 %
b11111 (
b01011 *
b0010011 +
b000 ,
b00000000000000000000000000010100 -
b00000000000000000000000000010100 .
b01 /
12
b00000000000000000000000011110000 3
b00 4
b11111111111111111111111111111111 5
b00 6
17
b11111111111111111111111111111111 9
b11110000 :
b01 ;
b00000000000000000000000000011000 <
1=
b00000000000000000000000011110000 A
b00000000000000000000000011110100 B
b00000000000000000000000000010011 C
#96
0=
#97
b00010000000001011000000000100011 #
b00011000 $
b00000000000000000000000000011100 %
b00000000000000000000000011110000 &
b00000 (
b00000 *
b0100011 +
b00000000000000000000000000011000 -
b00000000000000000000000000011000 .
b00000000000000000000000111110000 3
b00000000000000000000000100000000 5
b00000000000000000000000100000000 9
b00000000000000000000000000011100 <
1=
b00000000000000000000000011110000 ?
b00000000000000000000000111110000 A
b00000000000000000000000100011000 C
#98
0=
