single_cycle/test/cpu.vcd
$version Generated by VerilatedVcd $end
$date Tue Dec  5 15:44:42 2023 $end
$timescale 1ps $end

 $scope module TOP $end
  $var wire 32 C a0 [31:0] $end
  $var wire  1 A clk $end
  $var wire  1 B rst $end
  $scope module cpu $end
   $var wire 32 H ADDRESS_WIDTH [31:0] $end
   $var wire  1 : ALUResult_o $end
   $var wire  3 5 ALUctrl [2:0] $end
   $var wire  1 6 ALUsrc $end
   $var wire 32 J CONTROL_WIDTH [31:0] $end
   $var wire 32 I DATA_WIDTH [31:0] $end
   $var wire 32 K IMM_WIDTH [31:0] $end
   $var wire 32 8 ImmOp [31:0] $end
   $var wire 32 # Instr [31:0] $end
   $var wire  1 4 MemWrite $end
   $var wire  8 $ PC [7:0] $end
   $var wire 32 % PCPlus4 [31:0] $end
   $var wire  2 9 PCsrc [1:0] $end
   $var wire  1 3 RegWrite $end
   $var wire 32 L Result [31:0] $end
   $var wire  2 7 Resultsrc [1:0] $end
   $var wire  1 D Zero $end
   $var wire 32 C a0 [31:0] $end
   $var wire  1 A clk $end
   $var wire  1 B rst $end
   $scope module alu $end
    $var wire 32 ; ALUResult_o [31:0] $end
    $var wire  3 5 ALUctrl_i [2:0] $end
    $var wire  1 6 ALUsrc_i $end
    $var wire 32 J CONTROL_WIDTH [31:0] $end
    $var wire 32 I DATA_WIDTH [31:0] $end
    $var wire 32 8 ImmOp_i [31:0] $end
    $var wire 32 # Instr_i [31:0] $end
    $var wire  1 4 MemWrite_i $end
    $var wire 32 % PCPlus4_i [31:0] $end
    $var wire 32 F ReadData [31:0] $end
    $var wire  1 3 RegWrite_i $end
    $var wire 32 E Result [31:0] $end
    $var wire  2 7 ResultSrc_i [1:0] $end
    $var wire 32 & SrcA [31:0] $end
    $var wire 32 < SrcB [31:0] $end
    $var wire  1 D Zero_o $end
    $var wire 32 C a0 [31:0] $end
    $var wire  1 A clk $end
    $var wire 32 ' regOp2 [31:0] $end
    $scope module ALU $end
     $var wire 32 ; ALUResult [31:0] $end
     $var wire  3 5 ALUctrl [2:0] $end
     $var wire 32 J CONTROL_WIDTH [31:0] $end
     $var wire 32 I DATA_WIDTH [31:0] $end
     $var wire 32 & SrcA [31:0] $end
     $var wire 32 < SrcB [31:0] $end
     $var wire  1 D Zero $end
    $upscope $end
    $scope module ALUMux $end
     $var wire 32 I DATA_WIDTH [31:0] $end
     $var wire  1 6 control $end
     $var wire 32 ' input0 [31:0] $end
     $var wire 32 8 input1 [31:0] $end
     $var wire 32 < out [31:0] $end
    $upscope $end
    $scope module data $end
     $var wire  8 = A [7:0] $end
     $var wire 32 H ADDRESS_WIDTH [31:0] $end
     $var wire 32 I DATA_WIDTH [31:0] $end
     $var wire 32 F RD [31:0] $end
     $var wire 32 ' WD [31:0] $end
     $var wire  1 4 WE $end
     $var wire  1 A clk $end
    $upscope $end
    $scope module register $end
     $var wire  8 ) A1 [7:0] $end
     $var wire  8 ( A2 [7:0] $end
     $var wire  8 * A3 [7:0] $end
     $var wire 32 H ADDRESS_WIDTH [31:0] $end
     $var wire 32 I DATA_WIDTH [31:0] $end
     $var wire 32 # Instr [31:0] $end
     $var wire 32 & RD1 [31:0] $end
     $var wire 32 ' RD2 [31:0] $end
     $var wire 32 E WD3 [31:0] $end
     $var wire  1 3 WE3 $end
     $var wire 32 C a0 [31:0] $end
     $var wire  1 A clk $end
    $upscope $end
    $scope module resultMux $end
     $var wire 32 K CONTROL_WIDTH [31:0] $end
     $var wire 32 I DATA_WIDTH [31:0] $end
     $var wire  2 7 control [1:0] $end
     $var wire 32 ; input0 [31:0] $end
     $var wire 32 F input1 [31:0] $end
     $var wire 32 % input2 [31:0] $end
     $var wire 32 M input3 [31:0] $end
     $var wire 32 E out [31:0] $end
    $upscope $end
   $upscope $end
   $scope module control $end
    $var wire 32 H ADDRESS_WIDTH [31:0] $end
    $var wire  3 5 ALUctrl_o [2:0] $end
    $var wire  1 6 ALUsrc_o $end
    $var wire 32 J CONTROL_WIDTH [31:0] $end
    $var wire 32 I DATA_WIDTH [31:0] $end
    $var wire 32 K IMM_WIDTH [31:0] $end
    $var wire 32 8 ImmOp_o [31:0] $end
    $var wire  2 > ImmSrc [1:0] $end
    $var wire  1 4 MemWrite_o $end
    $var wire  8 $ PC_i [7:0] $end
    $var wire  2 9 PCsrc_o [1:0] $end
    $var wire  1 3 RegWrite_o $end
    $var wire  2 7 Resultsrc_o [1:0] $end
    $var wire  1 D Zero_i $end
    $var wire 32 # instr_o [31:0] $end
    $scope module ControlUnit $end
     $var wire  3 5 ALUctrl_o [2:0] $end
     $var wire  1 6 ALUsrc_o $end
     $var wire 32 J CONTROL_WIDTH [31:0] $end
     $var wire 32 I DATA_WIDTH [31:0] $end
     $var wire 32 K IMM_WIDTH [31:0] $end
     $var wire  2 > ImmSrc_o [1:0] $end
     $var wire  1 4 MemWrite_o $end
     $var wire  2 9 PCsrc_o [1:0] $end
     $var wire  1 3 RegWrite_o $end
     $var wire  2 7 Resultsrc_o [1:0] $end
     $var wire  1 D Zero_i $end
     $var wire  3 , funct3 [2:0] $end
     $var wire 32 # instr_i [31:0] $end
     $var wire  7 + opcode [6:0] $end
    $upscope $end
    $scope module InstrMem $end
     $var wire 32 H ADDRESS_WIDTH [31:0] $end
     $var wire 32 I DATA_WIDTH [31:0] $end
     $var wire 32 # Instr_o [31:0] $end
     $var wire  8 $ addr_i [7:0] $end
     $var wire  8 - rom_array0 [7:0] $end
     $var wire  8 . rom_array1 [7:0] $end
     $var wire  8 / rom_array2 [7:0] $end
     $var wire  8 0 rom_array3 [7:0] $end
    $upscope $end
    $scope module MySignExtend $end
     $var wire 32 I DATA_WIDTH [31:0] $end
     $var wire 32 K IMM_WIDTH [31:0] $end
     $var wire 32 8 ImmOp_o [31:0] $end
     $var wire  2 > ImmSrc_i [1:0] $end
     $var wire 32 # instr_i [31:0] $end
    $upscope $end
   $upscope $end
   $scope module pc $end
    $var wire 32 ? ALUResult_i [31:0] $end
    $var wire 32 8 ImmOp_i [31:0] $end
    $var wire 32 2 PC [31:0] $end
    $var wire 32 % PCPlus4_o [31:0] $end
    $var wire 32 G PCTarget [31:0] $end
    $var wire  2 9 PCsrc_i [1:0] $end
    $var wire 32 I WIDTH [31:0] $end
    $var wire  1 A clk $end
    $var wire 32 @ next_PC [31:0] $end
    $var wire 32 1 pc_out [31:0] $end
    $var wire  1 B rst $end
    $scope module pc_mux $end
     $var wire 32 K CONTROL_WIDTH [31:0] $end
     $var wire 32 I DATA_WIDTH [31:0] $end
     $var wire  2 9 control [1:0] $end
     $var wire 32 % input0 [31:0] $end
     $var wire 32 G input1 [31:0] $end
     $var wire 32 ? input2 [31:0] $end
     $var wire 32 N input3 [31:0] $end
     $var wire 32 @ out [31:0] $end
    $upscope $end
    $scope module pc_reg $end
     $var wire 32 I WIDTH [31:0] $end
     $var wire 32 1 another_pc [31:0] $end
     $var wire  1 A clk $end
     $var wire 32 @ next_PC [31:0] $end
     $var wire 32 2 pc [31:0] $end
     $var wire  1 B rst $end
    $upscope $end
   $upscope $end
  $upscope $end
 $upscope $end
$enddefinitions $end


#0
b00000000000000000000000000000000 #
b00000000 $
b00000000000000000000000000000100 %
b00000000000000000000000000000000 &
b00000000000000000000000000000000 '
b00000000 (
b00000000 )
b00000000 *
b0000000 +
b000 ,
b00000000 -
b00000000 .
b00000000 /
b00000000 0
b00000000000000000000000000000000 1
b00000000000000000000000000000000 2
03
04
b000 5
06
b00 7
b00000000000000000000000000000000 8
b00 9
0:
b00000000000000000000000000000000 ;
b00000000000000000000000000000000 <
b00000000 =
b00 >
b00000000000000000000000000000000 ?
b00000000000000000000000000000000 @
0A
0B
b00000000000000000000000000000000 C
1D
b00000000000000000000000000000000 E
b00000000000000000000000000000000 F
b00000000000000000000000000000000 G
b00000000000000000000000000001000 H
b00000000000000000000000000100000 I
b00000000000000000000000000000011 J
b00000000000000000000000000000010 K
b00000000000000000000000000000000 L
b00000000000000000000000000000000 M
b00000000000000000000000000000000 N
#1
b00000001000000000000000011101111 #
b00010000 (
b00000001 *
b1101111 +
b11101111 -
b00000001 0
13
16
b10 7
b00000000000000000000000000010000 8
b01 9
b00000000000000000000000000010000 ;
b00000000000000000000000000010000 <
b00010000 =
b10 >
b00000000000000000000000000010000 @
1A
0D
b00000000000000000000000000000100 E
b00000000000000000000000011110100 F
b00000000000000000000000000010000 G
#2
0A
#3
b00010000000000000000010110010011 #
b00010000 $
b00000000000000000000000000010100 %
b00000000 (
b00001011 *
b0010011 +
b10010011 -
b00000101 .
b00010000 0
b00000000000000000000000000010000 1
b00000000000000000000000000010000 2
b00 7
b00000000000000000000000100000000 8
b00 9
b00000000000000000000000100000000 ;
b00000000000000000000000100000000 <
b00000000 =
b01 >
b00000000000000000000000000010100 @
1A
b00000000000000000000000100000000 E
b00000000000000000000000011111110 F
b00000000000000000000000100010000 G
#4
0A
#5
b11111111111101011000010110010011 #
b00010100 $
b00000000000000000000000000011000 %
b00000000000000000000000100000000 &
b00011111 (
b00001011 )
b10000101 .
b11110101 /
b11111111 0
b00000000000000000000000000010100 1
b00000000000000000000000000010100 2
b11111111111111111111111111111111 8
1:
b00000000000000000000000011111111 ;
b11111111111111111111111111111111 <
b11111111 =
b00000000000000000000000000000001 ?
b00000000000000000000000000011000 @
1A
b00000000000000000000000011111111 E
b00000000000000000000000000000000 F
b00000000000000000000000000010011 G
#6
0A
#7
b00010000000001011000000000100011 #
b00011000 $
b00000000000000000000000000011100 %
b00000000000000000000000011111111 &
b00000000 (
b00000000 *
b0100011 +
b00100011 -
b10000000 .
b00000101 /
b00010000 0
b00000000000000000000000000011000 1
b00000000000000000000000000011000 2
b00000000000000000000000100000000 8
b00000000000000000000000111111111 ;
b00000000000000000000000100000000 <
b00000000000000000000000000011100 @
1A
b00000000000000000000000111111111 E
b00000000000000000000000100011000 G
#8
0A
#9
b11111110000001011001110011100011 #
b00011100 $
b00000000000000000000000000100000 %
b00000000000000000000000111111111 '
b00011001 *
b1100011 +
b001 ,
b11100011 -
b10011100 .
b11111110 0
b00000000000000000000000000011100 1
b00000000000000000000000000011100 2
03
06
b01 7
b11111111111111111111111111111000 8
b01 9
0:
b00000000000000000000001011111110 ;
b00000000000000000000000111111111 <
b11111110 =
b11 >
b00000000000000000000000000000000 ?
b00000000000000000000000000010100 @
1A
b00000000000000000000000011111101 E
b00000000000000000000000011111101 F
b00000000000000000000000000010100 G
#10
0A
#11
b11111111111101011000010110010011 #
b00010100 $
b00000000000000000000000000011000 %
b00000000000000000000000000000000 '
b00011111 (
b00001011 *
b0010011 +
b000 ,
b10010011 -
b10000101 .
b11110101 /
b11111111 0
b00000000000000000000000000010100 1
b00000000000000000000000000010100 2
13
16
b00 7
b11111111111111111111111111111111 8
b00 9
b00000000000000000000000011111110 ;
b11111111111111111111111111111111 <
b01 >
b00000000000000000000000000011000 @
1A
b00000000000000000000000011111110 E
b00000000000000000000000000010011 G
#12
0A
#13
b00010000000001011000000000100011 #
b00011000 $
b00000000000000000000000000011100 %
b00000000000000000000000011111110 &
b00000000000000000000000111111111 '
b00000000 (
b00000000 *
b0100011 +
b00100011 -
b10000000 .
b00000101 /
b00010000 0
b00000000000000000000000000011000 1
b00000000000000000000000000011000 2
b00000000000000000000000100000000 8
b00000000000000000000000111111110 ;
b00000000000000000000000100000000 <
b00000000000000000000000000011100 @
1A
b00000000000000000000000111111110 E
b00000000000000000000000100011000 G
#14
0A
#15
b11111110000001011001110011100011 #
b00011100 $
b00000000000000000000000000100000 %
b00000000000000000000000111111110 '
b00011001 *
b1100011 +
b001 ,
b11100011 -
b10011100 .
b11111110 0
b00000000000000000000000000011100 1
b00000000000000000000000000011100 2
03
06
b01 7
b11111111111111111111111111111000 8
b01 9
b00000000000000000000001011111100 ;
b00000000000000000000000111111110 <
b11111100 =
b11 >
b00000000000000000000000000010100 @
1A
b00000000000000000000000011111101 E
b00000000000000000000000000010100 G
#16
0A
#17
b11111111111101011000010110010011 #
b00010100 $
b00000000000000000000000000011000 %
b00000000000000000000000000000000 '
b00011111 (
b00001011 *
b0010011 +
b000 ,
b10010011 -
b10000101 .
b11110101 /
b11111111 0
b00000000000000000000000000010100 1
b00000000000000000000000000010100 2
13
16
b00 7
b11111111111111111111111111111111 8
b00 9
1:
b00000000000000000000000011111101 ;
b11111111111111111111111111111111 <
b11111101 =
b01 >
b00000000000000000000000000000001 ?
b00000000000000000000000000011000 @
1A
b00000000000000000000000000010011 G
#18
0A
#19
b00010000000001011000000000100011 #
b00011000 $
b00000000000000000000000000011100 %
b00000000000000000000000011111101 &
b00000000000000000000000111111110 '
b00000000 (
b00000000 *
b0100011 +
b00100011 -
b10000000 .
b00000101 /
b00010000 0
b00000000000000000000000000011000 1
b00000000000000000000000000011000 2
b00000000000000000000000100000000 8
b00000000000000000000000111111101 ;
b00000000000000000000000100000000 <
b00000000000000000000000000011100 @
1A
b00000000000000000000000111111101 E
b00000000000000000000000100011000 G
#20
0A
#21
b11111110000001011001110011100011 #
b00011100 $
b00000000000000000000000000100000 %
b00000000000000000000000111111101 '
b00011001 *
b1100011 +
b001 ,
b11100011 -
b10011100 .
b11111110 0
b00000000000000000000000000011100 1
b00000000000000000000000000011100 2
03
06
b01 7
b11111111111111111111111111111000 8
b01 9
0:
b00000000000000000000001011111010 ;
b00000000000000000000000111111101 <
b11111010 =
b11 >
b00000000000000000000000000000000 ?
b00000000000000000000000000010100 @
1A
b00000000000000000000000011111100 E
b00000000000000000000000011111100 F
b00000000000000000000000000010100 G
#22
0A
#23
b11111111111101011000010110010011 #
b00010100 $
b00000000000000000000000000011000 %
b00000000000000000000000000000000 '
b00011111 (
b00001011 *
b0010011 +
b000 ,
b10010011 -
b10000101 .
b11110101 /
b11111111 0
b00000000000000000000000000010100 1
b00000000000000000000000000010100 2
13
16
b00 7
b11111111111111111111111111111111 8
b00 9
b00000000000000000000000011111100 ;
b11111111111111111111111111111111 <
b11111100 =
b01 >
b00000000000000000000000000011000 @
1A
b00000000000000000000000011111101 F
b00000000000000000000000000010011 G
#24
0A
#25
b00010000000001011000000000100011 #
b00011000 $
b00000000000000000000000000011100 %
b00000000000000000000000011111100 &
b00000000000000000000000111111101 '
b00000000 (
b00000000 *
b0100011 +
b00100011 -
b10000000 .
b00000101 /
b00010000 0
b00000000000000000000000000011000 1
b00000000000000000000000000011000 2
b00000000000000000000000100000000 8
b00000000000000000000000111111100 ;
b00000000000000000000000100000000 <
b00000000000000000000000000011100 @
1A
b00000000000000000000000111111100 E
b00000000000000000000000100011000 G
#26
0A
#27
b11111110000001011001110011100011 #
b00011100 $
b00000000000000000000000000100000 %
b00000000000000000000000111111100 '
b00011001 *
b1100011 +
b001 ,
b11100011 -
b10011100 .
b11111110 0
b00000000000000000000000000011100 1
b00000000000000000000000000011100 2
03
06
b01 7
b11111111111111111111111111111000 8
b01 9
b00000000000000000000001011111000 ;
b00000000000000000000000111111100 <
b11111000 =
b11 >
b00000000000000000000000000010100 @
1A
b00000000000000000000000011111011 E
b00000000000000000000000011111011 F
b00000000000000000000000000010100 G
#28
0A
#29
b11111111111101011000010110010011 #
b00010100 $
b00000000000000000000000000011000 %
b00000000000000000000000000000000 '
b00011111 (
b00001011 *
b0010011 +
b000 ,
b10010011 -
b10000101 .
b11110101 /
b11111111 0
b00000000000000000000000000010100 1
b00000000000000000000000000010100 2
13
16
b00 7
b11111111111111111111111111111111 8
b00 9
1:
b00000000000000000000000011111011 ;
b11111111111111111111111111111111 <
b11111011 =
b01 >
b00000000000000000000000000000001 ?
b00000000000000000000000000011000 @
1A
b00000000000000000000000011111101 F
b00000000000000000000000000010011 G
#30
0A
#31
b00010000000001011000000000100011 #
b00011000 $
b00000000000000000000000000011100 %
b00000000000000000000000011111011 &
b00000000000000000000000111111100 '
b00000000 (
b00000000 *
b0100011 +
b00100011 -
b10000000 .
b00000101 /
b00010000 0
b00000000000000000000000000011000 1
b00000000000000000000000000011000 2
b00000000000000000000000100000000 8
b00000000000000000000000111111011 ;
b00000000000000000000000100000000 <
b00000000000000000000000000011100 @
1A
b00000000000000000000000111111011 E
b00000000000000000000000100011000 G
#32
0A
#33
b11111110000001011001110011100011 #
b00011100 $
b00000000000000000000000000100000 %
b00000000000000000000000111111011 '
b00011001 *
b1100011 +
b001 ,
b11100011 -
b10011100 .
b11111110 0
b00000000000000000000000000011100 1
b00000000000000000000000000011100 2
03
06
b01 7
b11111111111111111111111111111000 8
b01 9
0:
b00000000000000000000001011110110 ;
b00000000000000000000000111111011 <
b11110110 =
b11 >
b00000000000000000000000000000000 ?
b00000000000000000000000000010100 @
1A
b00000000000000000000000011111010 E
b00000000000000000000000011111010 F
b00000000000000000000000000010100 G
#34
0A
#35
b11111111111101011000010110010011 #
b00010100 $
b00000000000000000000000000011000 %
b00000000000000000000000000000000 '
b00011111 (
b00001011 *
b0010011 +
b000 ,
b10010011 -
b10000101 .
b11110101 /
b11111111 0
b00000000000000000000000000010100 1
b00000000000000000000000000010100 2
13
16
b00 7
b11111111111111111111111111111111 8
b00 9
b00000000000000000000000011111010 ;
b11111111111111111111111111111111 <
b11111010 =
b01 >
b00000000000000000000000000011000 @
1A
b00000000000000000000000011111100 F
b00000000000000000000000000010011 G
#36
0A
#37
b00010000000001011000000000100011 #
b00011000 $
b00000000000000000000000000011100 %
b00000000000000000000000011111010 &
b00000000000000000000000111111011 '
b00000000 (
b00000000 *
b0100011 +
b00100011 -
b10000000 .
b00000101 /
b00010000 0
b00000000000000000000000000011000 1
b00000000000000000000000000011000 2
b00000000000000000000000100000000 8
b00000000000000000000000111111010 ;
b00000000000000000000000100000000 <
b00000000000000000000000000011100 @
1A
b00000000000000000000000111111010 E
b00000000000000000000000100011000 G
#38
0A
#39
b11111110000001011001110011100011 #
b00011100 $
b00000000000000000000000000100000 %
b00000000000000000000000111111010 '
b00011001 *
b1100011 +
b001 ,
b11100011 -
b10011100 .
b11111110 0
b00000000000000000000000000011100 1
b00000000000000000000000000011100 2
03
06
b01 7
b11111111111111111111111111111000 8
b01 9
b00000000000000000000001011110100 ;
b00000000000000000000000111111010 <
b11110100 =
b11 >
b00000000000000000000000000010100 @
1A
b00000000000000000000000011111000 E
b00000000000000000000000011111000 F
b00000000000000000000000000010100 G
#40
0A
#41
b11111111111101011000010110010011 #
b00010100 $
b00000000000000000000000000011000 %
b00000000000000000000000000000000 '
b00011111 (
b00001011 *
b0010011 +
b000 ,
b10010011 -
b10000101 .
b11110101 /
b11111111 0
b00000000000000000000000000010100 1
b00000000000000000000000000010100 2
13
16
b00 7
b11111111111111111111111111111111 8
b00 9
1:
b00000000000000000000000011111001 ;
b11111111111111111111111111111111 <
b11111001 =
b01 >
b00000000000000000000000000000001 ?
b00000000000000000000000000011000 @
1A
b00000000000000000000000011111001 E
b00000000000000000000000011111100 F
b00000000000000000000000000010011 G
#42
0A
#43
b00010000000001011000000000100011 #
b00011000 $
b00000000000000000000000000011100 %
b00000000000000000000000011111001 &
b00000000000000000000000111111010 '
b00000000 (
b00000000 *
b0100011 +
b00100011 -
b10000000 .
b00000101 /
b00010000 0
b00000000000000000000000000011000 1
b00000000000000000000000000011000 2
b00000000000000000000000100000000 8
b00000000000000000000000111111001 ;
b00000000000000000000000100000000 <
b00000000000000000000000000011100 @
1A
b00000000000000000000000111111001 E
b00000000000000000000000100011000 G
#44
0A
#45
b11111110000001011001110011100011 #
b00011100 $
b00000000000000000000000000100000 %
b00000000000000000000000111111001 '
b00011001 *
b1100011 +
b001 ,
b11100011 -
b10011100 .
b11111110 0
b00000000000000000000000000011100 1
b00000000000000000000000000011100 2
03
06
b01 7
b11111111111111111111111111111000 8
b01 9
0:
b00000000000000000000001011110010 ;
b00000000000000000000000111111001 <
b11110010 =
b11 >
b00000000000000000000000000000000 ?
b00000000000000000000000000010100 @
1A
b00000000000000000000000011110110 E
b00000000000000000000000011110110 F
b00000000000000000000000000010100 G
#46
0A
#47
b11111111111101011000010110010011 #
b00010100 $
b00000000000000000000000000011000 %
b00000000000000000000000000000000 '
b00011111 (
b00001011 *
b0010011 +
b000 ,
b10010011 -
b10000101 .
b11110101 /
b11111111 0
b00000000000000000000000000010100 1
b00000000000000000000000000010100 2
13
16
b00 7
b11111111111111111111111111111111 8
b00 9
b00000000000000000000000011111000 ;
b11111111111111111111111111111111 <
b11111000 =
b01 >
b00000000000000000000000000011000 @
1A
b00000000000000000000000011111000 E
b00000000000000000000000011111011 F
b00000000000000000000000000010011 G
#48
0A
#49
b00010000000001011000000000100011 #
b00011000 $
b00000000000000000000000000011100 %
b00000000000000000000000011111000 &
b00000000000000000000000111111001 '
b00000000 (
b00000000 *
b0100011 +
b00100011 -
b10000000 .
b00000101 /
b00010000 0
b00000000000000000000000000011000 1
b00000000000000000000000000011000 2
b00000000000000000000000100000000 8
b00000000000000000000000111111000 ;
b00000000000000000000000100000000 <
b00000000000000000000000000011100 @
1A
b00000000000000000000000111111000 E
b00000000000000000000000100011000 G
#50
0A
#51
b11111110000001011001110011100011 #
b00011100 $
b00000000000000000000000000100000 %
b00000000000000000000000111111000 '
b00011001 *
b1100011 +
b001 ,
b11100011 -
b10011100 .
b11111110 0
b00000000000000000000000000011100 1
b00000000000000000000000000011100 2
03
06
b01 7
b11111111111111111111111111111000 8
b01 9
b00000000000000000000001011110000 ;
b00000000000000000000000111111000 <
b11110000 =
b11 >
b00000000000000000000000000010100 @
1A
b00000000000000000000000011110100 E
b00000000000000000000000011110100 F
b00000000000000000000000000010100 G
#52
0A
#53
b11111111111101011000010110010011 #
b00010100 $
b00000000000000000000000000011000 %
b00000000000000000000000000000000 '
b00011111 (
b00001011 *
b0010011 +
b000 ,
b10010011 -
b10000101 .
b11110101 /
b11111111 0
b00000000000000000000000000010100 1
b00000000000000000000000000010100 2
13
16
b00 7
b11111111111111111111111111111111 8
b00 9
1:
b00000000000000000000000011110111 ;
b11111111111111111111111111111111 <
b11110111 =
b01 >
b00000000000000000000000000000001 ?
b00000000000000000000000000011000 @
1A
b00000000000000000000000011110111 E
b00000000000000000000000011111010 F
b00000000000000000000000000010011 G
#54
0A
#55
b00010000000001011000000000100011 #
b00011000 $
b00000000000000000000000000011100 %
b00000000000000000000000011110111 &
b00000000000000000000000111111000 '
b00000000 (
b00000000 *
b0100011 +
b00100011 -
b10000000 .
b00000101 /
b00010000 0
b00000000000000000000000000011000 1
b00000000000000000000000000011000 2
b00000000000000000000000100000000 8
b00000000000000000000000111110111 ;
b00000000000000000000000100000000 <
b00000000000000000000000000011100 @
1A
b00000000000000000000000111110111 E
b00000000000000000000000100011000 G
#56
0A
#57
b11111110000001011001110011100011 #
b00011100 $
b00000000000000000000000000100000 %
b00000000000000000000000111110111 '
b00011001 *
b1100011 +
b001 ,
b11100011 -
b10011100 .
b11111110 0
b00000000000000000000000000011100 1
b00000000000000000000000000011100 2
03
06
b01 7
b11111111111111111111111111111000 8
b01 9
0:
b00000000000000000000001011101110 ;
b00000000000000000000000111110111 <
b11101110 =
b11 >
b00000000000000000000000000000000 ?
b00000000000000000000000000010100 @
1A
b00000000000000000000000011110001 E
b00000000000000000000000011110001 F
b00000000000000000000000000010100 G
#58
0A
#59
b11111111111101011000010110010011 #
b00010100 $
b00000000000000000000000000011000 %
b00000000000000000000000000000000 '
b00011111 (
b00001011 *
b0010011 +
b000 ,
b10010011 -
b10000101 .
b11110101 /
b11111111 0
b00000000000000000000000000010100 1
b00000000000000000000000000010100 2
13
16
b00 7
b11111111111111111111111111111111 8
b00 9
b00000000000000000000000011110110 ;
b11111111111111111111111111111111 <
b11110110 =
b01 >
b00000000000000000000000000011000 @
1A
b00000000000000000000000011110110 E
b00000000000000000000000011111010 F
b00000000000000000000000000010011 G
#60
0A
#61
b00010000000001011000000000100011 #
b00011000 $
b00000000000000000000000000011100 %
b00000000000000000000000011110110 &
b00000000000000000000000111110111 '
b00000000 (
b00000000 *
b0100011 +
b00100011 -
b10000000 .
b00000101 /
b00010000 0
b00000000000000000000000000011000 1
b00000000000000000000000000011000 2
b00000000000000000000000100000000 8
b00000000000000000000000111110110 ;
b00000000000000000000000100000000 <
b00000000000000000000000000011100 @
1A
b00000000000000000000000111110110 E
b00000000000000000000000100011000 G
#62
0A
#63
b11111110000001011001110011100011 #
b00011100 $
b00000000000000000000000000100000 %
b00000000000000000000000111110110 '
b00011001 *
b1100011 +
b001 ,
b11100011 -
b10011100 .
b11111110 0
b00000000000000000000000000011100 1
b00000000000000000000000000011100 2
03
06
b01 7
b11111111111111111111111111111000 8
b01 9
b00000000000000000000001011101100 ;
b00000000000000000000000111110110 <
b11101100 =
b11 >
b00000000000000000000000000010100 @
1A
b00000000000000000000000011101111 E
b00000000000000000000000011101111 F
b00000000000000000000000000010100 G
#64
0A
#65
b11111111111101011000010110010011 #
b00010100 $
b00000000000000000000000000011000 %
b00000000000000000000000000000000 '
b00011111 (
b00001011 *
b0010011 +
b000 ,
b10010011 -
b10000101 .
b11110101 /
b11111111 0
b00000000000000000000000000010100 1
b00000000000000000000000000010100 2
13
16
b00 7
b11111111111111111111111111111111 8
b00 9
1:
b00000000000000000000000011110101 ;
b11111111111111111111111111111111 <
b11110101 =
b01 >
b00000000000000000000000000000001 ?
b00000000000000000000000000011000 @
1A
b00000000000000000000000011110101 E
b00000000000000000000000011111001 F
b00000000000000000000000000010011 G
#66
0A
#67
b00010000000001011000000000100011 #
b00011000 $
b00000000000000000000000000011100 %
b00000000000000000000000011110101 &
b00000000000000000000000111110110 '
b00000000 (
b00000000 *
b0100011 +
b00100011 -
b10000000 .
b00000101 /
b00010000 0
b00000000000000000000000000011000 1
b00000000000000000000000000011000 2
b00000000000000000000000100000000 8
b00000000000000000000000111110101 ;
b00000000000000000000000100000000 <
b00000000000000000000000000011100 @
1A
b00000000000000000000000111110101 E
b00000000000000000000000100011000 G
#68
0A
#69
b11111110000001011001110011100011 #
b00011100 $
b00000000000000000000000000100000 %
b00000000000000000000000111110101 '
b00011001 *
b1100011 +
b001 ,
b11100011 -
b10011100 .
b11111110 0
b00000000000000000000000000011100 1
b00000000000000000000000000011100 2
03
06
b01 7
b11111111111111111111111111111000 8
b01 9
0:
b00000000000000000000001011101010 ;
b00000000000000000000000111110101 <
b11101010 =
b11 >
b00000000000000000000000000000000 ?
b00000000000000000000000000010100 @
1A
b00000000000000000000000011101011 E
b00000000000000000000000011101011 F
b00000000000000000000000000010100 G
#70
0A
#71
b11111111111101011000010110010011 #
b00010100 $
b00000000000000000000000000011000 %
b00000000000000000000000000000000 '
b00011111 (
b00001011 *
b0010011 +
b000 ,
b10010011 -
b10000101 .
b11110101 /
b11111111 0
b00000000000000000000000000010100 1
b00000000000000000000000000010100 2
13
16
b00 7
b11111111111111111111111111111111 8
b00 9
b00000000000000000000000011110100 ;
b11111111111111111111111111111111 <
b11110100 =
b01 >
b00000000000000000000000000011000 @
1A
b00000000000000000000000011110100 E
b00000000000000000000000011111000 F
b00000000000000000000000000010011 G
#72
0A
#73
b00010000000001011000000000100011 #
b00011000 $
b00000000000000000000000000011100 %
b00000000000000000000000011110100 &
b00000000000000000000000111110101 '
b00000000 (
b00000000 *
b0100011 +
b00100011 -
b10000000 .
b00000101 /
b00010000 0
b00000000000000000000000000011000 1
b00000000000000000000000000011000 2
b00000000000000000000000100000000 8
b00000000000000000000000111110100 ;
b00000000000000000000000100000000 <
b00000000000000000000000000011100 @
1A
b00000000000000000000000111110100 E
b00000000000000000000000100011000 G
#74
0A
#75
b11111110000001011001110011100011 #
b00011100 $
b00000000000000000000000000100000 %
b00000000000000000000000111110100 '
b00011001 *
b1100011 +
b001 ,
b11100011 -
b10011100 .
b11111110 0
b00000000000000000000000000011100 1
b00000000000000000000000000011100 2
03
06
b01 7
b11111111111111111111111111111000 8
b01 9
b00000000000000000000001011101000 ;
b00000000000000000000000111110100 <
b11101000 =
b11 >
b00000000000000000000000000010100 @
1A
b00000000000000000000000011101000 E
b00000000000000000000000011101000 F
b00000000000000000000000000010100 G
#76
0A
#77
b11111111111101011000010110010011 #
b00010100 $
b00000000000000000000000000011000 %
b00000000000000000000000000000000 '
b00011111 (
b00001011 *
b0010011 +
b000 ,
b10010011 -
b10000101 .
b11110101 /
b11111111 0
b00000000000000000000000000010100 1
b00000000000000000000000000010100 2
13
16
b00 7
b11111111111111111111111111111111 8
b00 9
1:
b00000000000000000000000011110011 ;
b11111111111111111111111111111111 <
b11110011 =
b01 >
b00000000000000000000000000000001 ?
b00000000000000000000000000011000 @
1A
b00000000000000000000000011110011 E
b00000000000000000000000011110111 F
b00000000000000000000000000010011 G
#78
0A
#79
b00010000000001011000000000100011 #
b00011000 $
b00000000000000000000000000011100 %
b00000000000000000000000011110011 &
b00000000000000000000000111110100 '
b00000000 (
b00000000 *
b0100011 +
b00100011 -
b10000000 .
b00000101 /
b00010000 0
b00000000000000000000000000011000 1
b00000000000000000000000000011000 2
b00000000000000000000000100000000 8
b00000000000000000000000111110011 ;
b00000000000000000000000100000000 <
b00000000000000000000000000011100 @
1A
b00000000000000000000000111110011 E
b00000000000000000000000100011000 G
#80
0A
#81
b11111110000001011001110011100011 #
b00011100 $
b00000000000000000000000000100000 %
b00000000000000000000000111110011 '
b00011001 *
b1100011 +
b001 ,
b11100011 -
b10011100 .
b11111110 0
b00000000000000000000000000011100 1
b00000000000000000000000000011100 2
03
06
b01 7
b11111111111111111111111111111000 8
b01 9
0:
b00000000000000000000001011100110 ;
b00000000000000000000000111110011 <
b11100110 =
b11 >
b00000000000000000000000000000000 ?
b00000000000000000000000000010100 @
1A
b00000000000000000000000011100101 E
b00000000000000000000000011100101 F
b00000000000000000000000000010100 G
#82
0A
