single_cycle/test/cpu.vcd
$version Generated by VerilatedVcd $end
$date Wed Dec  6 19:20:56 2023
 $end
$timescale   1ps $end

 $scope module TOP $end
  $var wire 32 < a0 [31:0] $end
  $var wire  1 : clk $end
  $var wire  1 ; rst $end
  $scope module cpu $end
   $var wire 32 @ ADDRESS_WIDTH [31:0] $end
   $var wire 32 2 ALUResult_o [31:0] $end
   $var wire  3 0 ALUctrl [2:0] $end
   $var wire  1 1 ALUsrc $end
   $var wire 32 B CONTROL_WIDTH [31:0] $end
   $var wire 32 A DATA_WIDTH [31:0] $end
   $var wire 32 C IMM_WIDTH [31:0] $end
   $var wire 32 4 ImmOp [31:0] $end
   $var wire 32 # Instr [31:0] $end
   $var wire  2 / MemWrite [1:0] $end
   $var wire 32 $ PC [31:0] $end
   $var wire 32 % PCPlus4 [31:0] $end
   $var wire  2 5 PCsrc [1:0] $end
   $var wire  2 . RegWrite [1:0] $end
   $var wire  2 3 Resultsrc [1:0] $end
   $var wire  1 = Zero $end
   $var wire 32 < a0 [31:0] $end
   $var wire  1 : clk $end
   $var wire  1 ; rst $end
   $scope module alu $end
    $var wire 32 2 ALUResult_o [31:0] $end
    $var wire  3 0 ALUctrl_i [2:0] $end
    $var wire  1 1 ALUsrc_i $end
    $var wire 32 B CONTROL_WIDTH [31:0] $end
    $var wire 32 A DATA_WIDTH [31:0] $end
    $var wire 32 4 ImmOp_i [31:0] $end
    $var wire 32 # Instr_i [31:0] $end
    $var wire  2 / MemWrite_i [1:0] $end
    $var wire 32 % PCPlus4_i [31:0] $end
    $var wire 32 ? ReadData [31:0] $end
    $var wire  2 . RegWrite_i [1:0] $end
    $var wire 32 9 Result [31:0] $end
    $var wire  2 3 ResultSrc_i [1:0] $end
    $var wire 32 ) SrcA [31:0] $end
    $var wire 32 8 SrcB [31:0] $end
    $var wire  1 = Zero_o $end
    $var wire 32 < a0 [31:0] $end
    $var wire  1 : clk $end
    $var wire 32 * regOp2 [31:0] $end
    $scope module ALU $end
     $var wire 32 2 ALUResult [31:0] $end
     $var wire  3 0 ALUctrl [2:0] $end
     $var wire 32 B CONTROL_WIDTH [31:0] $end
     $var wire 32 A DATA_WIDTH [31:0] $end
     $var wire 32 ) SrcA [31:0] $end
     $var wire 32 8 SrcB [31:0] $end
     $var wire  1 = Zero $end
    $upscope $end
    $scope module ALUMux $end
     $var wire 32 A DATA_WIDTH [31:0] $end
     $var wire  1 1 control $end
     $var wire 32 * input0 [31:0] $end
     $var wire 32 4 input1 [31:0] $end
     $var wire 32 8 out [31:0] $end
    $upscope $end
    $scope module data $end
     $var wire 32 2 A [31:0] $end
     $var wire 32 @ ADDRESS_WIDTH [31:0] $end
     $var wire 32 A DATA_WIDTH [31:0] $end
     $var wire 32 ? RD [31:0] $end
     $var wire 32 * WD [31:0] $end
     $var wire  2 / WE [1:0] $end
     $var wire  1 : clk $end
    $upscope $end
    $scope module register $end
     $var wire  8 , A1 [7:0] $end
     $var wire  8 + A2 [7:0] $end
     $var wire  8 - A3 [7:0] $end
     $var wire 32 @ ADDRESS_WIDTH [31:0] $end
     $var wire 32 A DATA_WIDTH [31:0] $end
     $var wire 32 # Instr [31:0] $end
     $var wire 32 ) RD1 [31:0] $end
     $var wire 32 * RD2 [31:0] $end
     $var wire 32 9 WD3 [31:0] $end
     $var wire  2 . WE3 [1:0] $end
     $var wire 32 < a0 [31:0] $end
     $var wire  1 : clk $end
    $upscope $end
    $scope module resultMux $end
     $var wire 32 C CONTROL_WIDTH [31:0] $end
     $var wire 32 A DATA_WIDTH [31:0] $end
     $var wire  2 3 control [1:0] $end
     $var wire 32 2 input0 [31:0] $end
     $var wire 32 ? input1 [31:0] $end
     $var wire 32 % input2 [31:0] $end
     $var wire 32 E input3 [31:0] $end
     $var wire 32 9 out [31:0] $end
    $upscope $end
   $upscope $end
   $scope module control $end
    $var wire 32 @ ADDRESS_WIDTH [31:0] $end
    $var wire  3 0 ALUctrl_o [2:0] $end
    $var wire  1 1 ALUsrc_o $end
    $var wire 32 B CONTROL_WIDTH [31:0] $end
    $var wire 32 A DATA_WIDTH [31:0] $end
    $var wire 32 C IMM_WIDTH [31:0] $end
    $var wire 32 4 ImmOp_o [31:0] $end
    $var wire  2 7 ImmSrc [1:0] $end
    $var wire  2 / MemWrite_o [1:0] $end
    $var wire 32 $ PC_i [31:0] $end
    $var wire  2 5 PCsrc_o [1:0] $end
    $var wire  2 . RegWrite_o [1:0] $end
    $var wire  2 3 Resultsrc_o [1:0] $end
    $var wire  1 = Zero_i $end
    $var wire 32 # instr_o [31:0] $end
    $scope module ControlUnit $end
     $var wire  3 0 ALUctrl_o [2:0] $end
     $var wire  1 1 ALUsrc_o $end
     $var wire 32 B CONTROL_WIDTH [31:0] $end
     $var wire 32 A DATA_WIDTH [31:0] $end
     $var wire 32 C IMM_WIDTH [31:0] $end
     $var wire  2 7 ImmSrc_o [1:0] $end
     $var wire  2 / MemWrite_o [1:0] $end
     $var wire  2 5 PCsrc_o [1:0] $end
     $var wire  2 . RegWrite_o [1:0] $end
     $var wire  2 3 Resultsrc_o [1:0] $end
     $var wire  1 = Zero_i $end
     $var wire  3 ( funct3 [2:0] $end
     $var wire 32 # instr_i [31:0] $end
     $var wire  7 ' opcode [6:0] $end
    $upscope $end
    $scope module InstrMem $end
     $var wire 32 @ ADDRESS_WIDTH [31:0] $end
     $var wire 32 A DATA_WIDTH [31:0] $end
     $var wire 32 # Instr_o [31:0] $end
     $var wire 32 $ addr_i [31:0] $end
    $upscope $end
    $scope module MySignExtend $end
     $var wire 32 A DATA_WIDTH [31:0] $end
     $var wire 32 C IMM_WIDTH [31:0] $end
     $var wire 32 4 ImmOp_o [31:0] $end
     $var wire  2 7 ImmSrc_i [1:0] $end
     $var wire 32 # instr_i [31:0] $end
    $upscope $end
   $upscope $end
   $scope module pc $end
    $var wire 32 2 ALUResult_i [31:0] $end
    $var wire 32 4 ImmOp_i [31:0] $end
    $var wire 32 & PC [31:0] $end
    $var wire 32 % PCPlus4_o [31:0] $end
    $var wire 32 > PCTarget [31:0] $end
    $var wire  2 5 PCsrc_i [1:0] $end
    $var wire 32 A WIDTH [31:0] $end
    $var wire  1 : clk $end
    $var wire 32 6 next_PC [31:0] $end
    $var wire 32 $ pc_out [31:0] $end
    $var wire  1 ; rst $end
    $scope module pc_mux $end
     $var wire 32 C CONTROL_WIDTH [31:0] $end
     $var wire 32 A DATA_WIDTH [31:0] $end
     $var wire  2 5 control [1:0] $end
     $var wire 32 % input0 [31:0] $end
     $var wire 32 > input1 [31:0] $end
     $var wire 32 2 input2 [31:0] $end
     $var wire 32 D input3 [31:0] $end
     $var wire 32 6 out [31:0] $end
    $upscope $end
    $scope module pc_reg $end
     $var wire 32 A WIDTH [31:0] $end
     $var wire 32 $ another_pc [31:0] $end
     $var wire  1 : clk $end
     $var wire 32 6 next_PC [31:0] $end
     $var wire 32 & pc [31:0] $end
     $var wire  1 ; rst $end
    $upscope $end
   $upscope $end
  $upscope $end
 $upscope $end
$enddefinitions $end


#0
b00000000000000000000000000000000 #
b00000000000000000000000000000000 $
b00000000000000000000000000000100 %
b00000000000000000000000000000000 &
b0000000 '
b000 (
b00000000000000000000000000000000 )
b00000000000000000000000000000000 *
b00000000 +
b00000000 ,
b00000000 -
b00 .
b00 /
b000 0
01
b00000000000000000000000000000000 2
b00 3
b00000000000000000000000000000000 4
b00 5
b00000000000000000000000000000000 6
b00 7
b00000000000000000000000000000000 8
b00000000000000000000000000000000 9
0:
0;
b00000000000000000000000000000000 <
1=
b00000000000000000000000000000000 >
b00000000000000000000000000000000 ?
b00000000000000000000000000001000 @
b00000000000000000000000000100000 A
b00000000000000000000000000000011 B
b00000000000000000000000000000010 C
b00000000000000000000000000000000 D
b00000000000000000000000000000000 E
#1
b00000001000000000000000011101111 #
b1101111 '
b00010000 +
b00000001 -
b01 .
11
b00000000000000000000000000010000 2
b10 3
b00000000000000000000000000010000 4
b01 5
b00000000000000000000000000010000 6
b11 7
b00000000000000000000000000010000 8
b00000000000000000000000000000100 9
1:
0=
b00000000000000000000000000010000 >
b00000000000000000000000011110100 ?
#2
0:
#3
b00010000000000000000010110010011 #
b00000000000000000000000000010000 $
b00000000000000000000000000010100 %
b00000000000000000000000000010000 &
b0010011 '
b00000000 +
b00001011 -
b00000000000000000000000100000000 2
b00 3
b00000000000000000000000100000000 4
b00 5
b00000000000000000000000000010100 6
b00 7
b00000000000000000000000100000000 8
b00000000000000000000000100000000 9
1:
b00000000000000000000000100010000 >
b00000000000000000000000011111110 ?
#4
0:
#5
b11111111111101011000010110010011 #
b00000000000000000000000000010100 $
b00000000000000000000000000011000 %
b00000000000000000000000000010100 &
b00000000000000000000000100000000 )
b00011111 +
b00001011 ,
b00000000000000000000000011111111 2
b11111111111111111111111111111111 4
b00000000000000000000000000011000 6
b11111111111111111111111111111111 8
b00000000000000000000000011111111 9
1:
b00000000000000000000000000010011 >
b00000000000000000000000000000000 ?
#6
0:
#7
b00010000000001011000000000100011 #
b00000000000000000000000000011000 $
b00000000000000000000000000011100 %
b00000000000000000000000000011000 &
b0100011 '
b00000000000000000000000011111111 )
b00000000 +
b00000000 -
b00 .
b11 /
b00000000000000000000000111111111 2
b00000000000000000000000100000000 4
b00000000000000000000000000011100 6
b01 7
b00000000000000000000000100000000 8
b00000000000000000000000111111111 9
1:
b00000000000000000000000100011000 >
#8
0:
#9
b11111110000001011001110011100011 #
b00000000000000000000000000011100 $
b00000000000000000000000000100000 %
b00000000000000000000000000011100 &
b1100011 '
b001 (
b00011001 -
b00 /
b001 0
01
b00000000000000000000000011111111 2
b01 3
b11111111111111111111111111111000 4
b01 5
b00000000000000000000000000010100 6
b10 7
b00000000000000000000000000000000 8
b00000000000000000000000000000000 9
1:
b00000000000000000000000000010100 >
#10
0:
#11
b11111111111101011000010110010011 #
b00000000000000000000000000010100 $
b00000000000000000000000000011000 %
b00000000000000000000000000010100 &
b0010011 '
b000 (
b00011111 +
b00001011 -
b01 .
b000 0
11
b00000000000000000000000011111110 2
b00 3
b11111111111111111111111111111111 4
b00 5
b00000000000000000000000000011000 6
b00 7
b11111111111111111111111111111111 8
b00000000000000000000000011111110 9
1:
b00000000000000000000000000010011 >
b00000000000000000000000011111101 ?
#12
0:
#13
b00010000000001011000000000100011 #
b00000000000000000000000000011000 $
b00000000000000000000000000011100 %
b00000000000000000000000000011000 &
b0100011 '
b00000000000000000000000011111110 )
b00000000 +
b00000000 -
b00 .
b11 /
b00000000000000000000000111111110 2
b00000000000000000000000100000000 4
b00000000000000000000000000011100 6
b01 7
b00000000000000000000000100000000 8
b00000000000000000000000111111110 9
1:
b00000000000000000000000100011000 >
#14
0:
#15
b11111110000001011001110011100011 #
b00000000000000000000000000011100 $
b00000000000000000000000000100000 %
b00000000000000000000000000011100 &
b1100011 '
b001 (
b00011001 -
b00 /
b001 0
01
b00000000000000000000000011111110 2
b01 3
b11111111111111111111111111111000 4
b01 5
b00000000000000000000000000010100 6
b10 7
b00000000000000000000000000000000 8
b00000000000000000000000000000000 9
1:
b00000000000000000000000000010100 >
b00000000000000000000000000000000 ?
#16
0:
#17
b11111111111101011000010110010011 #
b00000000000000000000000000010100 $
b00000000000000000000000000011000 %
b00000000000000000000000000010100 &
b0010011 '
b000 (
b00011111 +
b00001011 -
b01 .
b000 0
11
b00000000000000000000000011111101 2
b00 3
b11111111111111111111111111111111 4
b00 5
b00000000000000000000000000011000 6
b00 7
b11111111111111111111111111111111 8
b00000000000000000000000011111101 9
1:
b00000000000000000000000000010011 >
b00000000000000000000000011111101 ?
#18
0:
#19
b00010000000001011000000000100011 #
b00000000000000000000000000011000 $
b00000000000000000000000000011100 %
b00000000000000000000000000011000 &
b0100011 '
b00000000000000000000000011111101 )
b00000000 +
b00000000 -
b00 .
b11 /
b00000000000000000000000111111101 2
b00000000000000000000000100000000 4
b00000000000000000000000000011100 6
b01 7
b00000000000000000000000100000000 8
b00000000000000000000000111111101 9
1:
b00000000000000000000000100011000 >
#20
0:
#21
b11111110000001011001110011100011 #
b00000000000000000000000000011100 $
b00000000000000000000000000100000 %
b00000000000000000000000000011100 &
b1100011 '
b001 (
b00011001 -
b00 /
b001 0
01
b00000000000000000000000011111101 2
b01 3
b11111111111111111111111111111000 4
b01 5
b00000000000000000000000000010100 6
b10 7
b00000000000000000000000000000000 8
b00000000000000000000000000000000 9
1:
b00000000000000000000000000010100 >
b00000000000000000000000000000000 ?
#22
0:
#23
b11111111111101011000010110010011 #
b00000000000000000000000000010100 $
b00000000000000000000000000011000 %
b00000000000000000000000000010100 &
b0010011 '
b000 (
b00011111 +
b00001011 -
b01 .
b000 0
11
b00000000000000000000000011111100 2
b00 3
b11111111111111111111111111111111 4
b00 5
b00000000000000000000000000011000 6
b00 7
b11111111111111111111111111111111 8
b00000000000000000000000011111100 9
1:
b00000000000000000000000000010011 >
b00000000000000000000000011111101 ?
#24
0:
#25
b00010000000001011000000000100011 #
b00000000000000000000000000011000 $
b00000000000000000000000000011100 %
b00000000000000000000000000011000 &
b0100011 '
b00000000000000000000000011111100 )
b00000000 +
b00000000 -
b00 .
b11 /
b00000000000000000000000111111100 2
b00000000000000000000000100000000 4
b00000000000000000000000000011100 6
b01 7
b00000000000000000000000100000000 8
b00000000000000000000000111111100 9
1:
b00000000000000000000000100011000 >
#26
0:
#27
b11111110000001011001110011100011 #
b00000000000000000000000000011100 $
b00000000000000000000000000100000 %
b00000000000000000000000000011100 &
b1100011 '
b001 (
b00011001 -
b00 /
b001 0
01
b00000000000000000000000011111100 2
b01 3
b11111111111111111111111111111000 4
b01 5
b00000000000000000000000000010100 6
b10 7
b00000000000000000000000000000000 8
b00000000000000000000000000000000 9
1:
b00000000000000000000000000010100 >
b00000000000000000000000000000000 ?
#28
0:
#29
b11111111111101011000010110010011 #
b00000000000000000000000000010100 $
b00000000000000000000000000011000 %
b00000000000000000000000000010100 &
b0010011 '
b000 (
b00011111 +
b00001011 -
b01 .
b000 0
11
b00000000000000000000000011111011 2
b00 3
b11111111111111111111111111111111 4
b00 5
b00000000000000000000000000011000 6
b00 7
b11111111111111111111111111111111 8
b00000000000000000000000011111011 9
1:
b00000000000000000000000000010011 >
b00000000000000000000000011111101 ?
#30
0:
#31
b00010000000001011000000000100011 #
b00000000000000000000000000011000 $
b00000000000000000000000000011100 %
b00000000000000000000000000011000 &
b0100011 '
b00000000000000000000000011111011 )
b00000000 +
b00000000 -
b00 .
b11 /
b00000000000000000000000111111011 2
b00000000000000000000000100000000 4
b00000000000000000000000000011100 6
b01 7
b00000000000000000000000100000000 8
b00000000000000000000000111111011 9
1:
b00000000000000000000000100011000 >
#32
0:
#33
b11111110000001011001110011100011 #
b00000000000000000000000000011100 $
b00000000000000000000000000100000 %
b00000000000000000000000000011100 &
b1100011 '
b001 (
b00011001 -
b00 /
b001 0
01
b00000000000000000000000011111011 2
b01 3
b11111111111111111111111111111000 4
b01 5
b00000000000000000000000000010100 6
b10 7
b00000000000000000000000000000000 8
b00000000000000000000000000000000 9
1:
b00000000000000000000000000010100 >
b00000000000000000000000000000000 ?
#34
0:
#35
b11111111111101011000010110010011 #
b00000000000000000000000000010100 $
b00000000000000000000000000011000 %
b00000000000000000000000000010100 &
b0010011 '
b000 (
b00011111 +
b00001011 -
b01 .
b000 0
11
b00000000000000000000000011111010 2
b00 3
b11111111111111111111111111111111 4
b00 5
b00000000000000000000000000011000 6
b00 7
b11111111111111111111111111111111 8
b00000000000000000000000011111010 9
1:
b00000000000000000000000000010011 >
b00000000000000000000000011111100 ?
#36
0:
#37
b00010000000001011000000000100011 #
b00000000000000000000000000011000 $
b00000000000000000000000000011100 %
b00000000000000000000000000011000 &
b0100011 '
b00000000000000000000000011111010 )
b00000000 +
b00000000 -
b00 .
b11 /
b00000000000000000000000111111010 2
b00000000000000000000000100000000 4
b00000000000000000000000000011100 6
b01 7
b00000000000000000000000100000000 8
b00000000000000000000000111111010 9
1:
b00000000000000000000000100011000 >
#38
0:
#39
b11111110000001011001110011100011 #
b00000000000000000000000000011100 $
b00000000000000000000000000100000 %
b00000000000000000000000000011100 &
b1100011 '
b001 (
b00011001 -
b00 /
b001 0
01
b00000000000000000000000011111010 2
b01 3
b11111111111111111111111111111000 4
b01 5
b00000000000000000000000000010100 6
b10 7
b00000000000000000000000000000000 8
b00000000000000000000000000000000 9
1:
b00000000000000000000000000010100 >
b00000000000000000000000000000000 ?
#40
0:
#41
b11111111111101011000010110010011 #
b00000000000000000000000000010100 $
b00000000000000000000000000011000 %
b00000000000000000000000000010100 &
b0010011 '
b000 (
b00011111 +
b00001011 -
b01 .
b000 0
11
b00000000000000000000000011111001 2
b00 3
b11111111111111111111111111111111 4
b00 5
b00000000000000000000000000011000 6
b00 7
b11111111111111111111111111111111 8
b00000000000000000000000011111001 9
1:
b00000000000000000000000000010011 >
b00000000000000000000000011111100 ?
#42
0:
#43
b00010000000001011000000000100011 #
b00000000000000000000000000011000 $
b00000000000000000000000000011100 %
b00000000000000000000000000011000 &
b0100011 '
b00000000000000000000000011111001 )
b00000000 +
b00000000 -
b00 .
b11 /
b00000000000000000000000111111001 2
b00000000000000000000000100000000 4
b00000000000000000000000000011100 6
b01 7
b00000000000000000000000100000000 8
b00000000000000000000000111111001 9
1:
b00000000000000000000000100011000 >
#44
0:
#45
b11111110000001011001110011100011 #
b00000000000000000000000000011100 $
b00000000000000000000000000100000 %
b00000000000000000000000000011100 &
b1100011 '
b001 (
b00011001 -
b00 /
b001 0
01
b00000000000000000000000011111001 2
b01 3
b11111111111111111111111111111000 4
b01 5
b00000000000000000000000000010100 6
b10 7
b00000000000000000000000000000000 8
b00000000000000000000000000000000 9
1:
b00000000000000000000000000010100 >
b00000000000000000000000000000000 ?
#46
0:
#47
b11111111111101011000010110010011 #
b00000000000000000000000000010100 $
b00000000000000000000000000011000 %
b00000000000000000000000000010100 &
b0010011 '
b000 (
b00011111 +
b00001011 -
b01 .
b000 0
11
b00000000000000000000000011111000 2
b00 3
b11111111111111111111111111111111 4
b00 5
b00000000000000000000000000011000 6
b00 7
b11111111111111111111111111111111 8
b00000000000000000000000011111000 9
1:
b00000000000000000000000000010011 >
b00000000000000000000000011111011 ?
#48
0:
#49
b00010000000001011000000000100011 #
b00000000000000000000000000011000 $
b00000000000000000000000000011100 %
b00000000000000000000000000011000 &
b0100011 '
b00000000000000000000000011111000 )
b00000000 +
b00000000 -
b00 .
b11 /
b00000000000000000000000111111000 2
b00000000000000000000000100000000 4
b00000000000000000000000000011100 6
b01 7
b00000000000000000000000100000000 8
b00000000000000000000000111111000 9
1:
b00000000000000000000000100011000 >
#50
0:
#51
b11111110000001011001110011100011 #
b00000000000000000000000000011100 $
b00000000000000000000000000100000 %
b00000000000000000000000000011100 &
b1100011 '
b001 (
b00011001 -
b00 /
b001 0
01
b00000000000000000000000011111000 2
b01 3
b11111111111111111111111111111000 4
b01 5
b00000000000000000000000000010100 6
b10 7
b00000000000000000000000000000000 8
b00000000000000000000000000000000 9
1:
b00000000000000000000000000010100 >
b00000000000000000000000000000000 ?
#52
0:
#53
b11111111111101011000010110010011 #
b00000000000000000000000000010100 $
b00000000000000000000000000011000 %
b00000000000000000000000000010100 &
b0010011 '
b000 (
b00011111 +
b00001011 -
b01 .
b000 0
11
b00000000000000000000000011110111 2
b00 3
b11111111111111111111111111111111 4
b00 5
b00000000000000000000000000011000 6
b00 7
b11111111111111111111111111111111 8
b00000000000000000000000011110111 9
1:
b00000000000000000000000000010011 >
b00000000000000000000000011111010 ?
#54
0:
#55
b00010000000001011000000000100011 #
b00000000000000000000000000011000 $
b00000000000000000000000000011100 %
b00000000000000000000000000011000 &
b0100011 '
b00000000000000000000000011110111 )
b00000000 +
b00000000 -
b00 .
b11 /
b00000000000000000000000111110111 2
b00000000000000000000000100000000 4
b00000000000000000000000000011100 6
b01 7
b00000000000000000000000100000000 8
b00000000000000000000000111110111 9
1:
b00000000000000000000000100011000 >
#56
0:
#57
b11111110000001011001110011100011 #
b00000000000000000000000000011100 $
b00000000000000000000000000100000 %
b00000000000000000000000000011100 &
b1100011 '
b001 (
b00011001 -
b00 /
b001 0
01
b00000000000000000000000011110111 2
b01 3
b11111111111111111111111111111000 4
b01 5
b00000000000000000000000000010100 6
b10 7
b00000000000000000000000000000000 8
b00000000000000000000000000000000 9
1:
b00000000000000000000000000010100 >
b00000000000000000000000000000000 ?
#58
0:
#59
b11111111111101011000010110010011 #
b00000000000000000000000000010100 $
b00000000000000000000000000011000 %
b00000000000000000000000000010100 &
b0010011 '
b000 (
b00011111 +
b00001011 -
b01 .
b000 0
11
b00000000000000000000000011110110 2
b00 3
b11111111111111111111111111111111 4
b00 5
b00000000000000000000000000011000 6
b00 7
b11111111111111111111111111111111 8
b00000000000000000000000011110110 9
1:
b00000000000000000000000000010011 >
b00000000000000000000000011111010 ?
#60
0:
#61
b00010000000001011000000000100011 #
b00000000000000000000000000011000 $
b00000000000000000000000000011100 %
b00000000000000000000000000011000 &
b0100011 '
b00000000000000000000000011110110 )
b00000000 +
b00000000 -
b00 .
b11 /
b00000000000000000000000111110110 2
b00000000000000000000000100000000 4
b00000000000000000000000000011100 6
b01 7
b00000000000000000000000100000000 8
b00000000000000000000000111110110 9
1:
b00000000000000000000000100011000 >
#62
0:
#63
b11111110000001011001110011100011 #
b00000000000000000000000000011100 $
b00000000000000000000000000100000 %
b00000000000000000000000000011100 &
b1100011 '
b001 (
b00011001 -
b00 /
b001 0
01
b00000000000000000000000011110110 2
b01 3
b11111111111111111111111111111000 4
b01 5
b00000000000000000000000000010100 6
b10 7
b00000000000000000000000000000000 8
b00000000000000000000000000000000 9
1:
b00000000000000000000000000010100 >
b00000000000000000000000000000000 ?
#64
0:
#65
b11111111111101011000010110010011 #
b00000000000000000000000000010100 $
b00000000000000000000000000011000 %
b00000000000000000000000000010100 &
b0010011 '
b000 (
b00011111 +
b00001011 -
b01 .
b000 0
11
b00000000000000000000000011110101 2
b00 3
b11111111111111111111111111111111 4
b00 5
b00000000000000000000000000011000 6
b00 7
b11111111111111111111111111111111 8
b00000000000000000000000011110101 9
1:
b00000000000000000000000000010011 >
b00000000000000000000000011111001 ?
#66
0:
#67
b00010000000001011000000000100011 #
b00000000000000000000000000011000 $
b00000000000000000000000000011100 %
b00000000000000000000000000011000 &
b0100011 '
b00000000000000000000000011110101 )
b00000000 +
b00000000 -
b00 .
b11 /
b00000000000000000000000111110101 2
b00000000000000000000000100000000 4
b00000000000000000000000000011100 6
b01 7
b00000000000000000000000100000000 8
b00000000000000000000000111110101 9
1:
b00000000000000000000000100011000 >
#68
0:
#69
b11111110000001011001110011100011 #
b00000000000000000000000000011100 $
b00000000000000000000000000100000 %
b00000000000000000000000000011100 &
b1100011 '
b001 (
b00011001 -
b00 /
b001 0
01
b00000000000000000000000011110101 2
b01 3
b11111111111111111111111111111000 4
b01 5
b00000000000000000000000000010100 6
b10 7
b00000000000000000000000000000000 8
b00000000000000000000000000000000 9
1:
b00000000000000000000000000010100 >
b00000000000000000000000000000000 ?
#70
0:
#71
b11111111111101011000010110010011 #
b00000000000000000000000000010100 $
b00000000000000000000000000011000 %
b00000000000000000000000000010100 &
b0010011 '
b000 (
b00011111 +
b00001011 -
b01 .
b000 0
11
b00000000000000000000000011110100 2
b00 3
b11111111111111111111111111111111 4
b00 5
b00000000000000000000000000011000 6
b00 7
b11111111111111111111111111111111 8
b00000000000000000000000011110100 9
1:
b00000000000000000000000000010011 >
b00000000000000000000000011111000 ?
#72
0:
#73
b00010000000001011000000000100011 #
b00000000000000000000000000011000 $
b00000000000000000000000000011100 %
b00000000000000000000000000011000 &
b0100011 '
b00000000000000000000000011110100 )
b00000000 +
b00000000 -
b00 .
b11 /
b00000000000000000000000111110100 2
b00000000000000000000000100000000 4
b00000000000000000000000000011100 6
b01 7
b00000000000000000000000100000000 8
b00000000000000000000000111110100 9
1:
b00000000000000000000000100011000 >
#74
0:
#75
b11111110000001011001110011100011 #
b00000000000000000000000000011100 $
b00000000000000000000000000100000 %
b00000000000000000000000000011100 &
b1100011 '
b001 (
b00011001 -
b00 /
b001 0
01
b00000000000000000000000011110100 2
b01 3
b11111111111111111111111111111000 4
b01 5
b00000000000000000000000000010100 6
b10 7
b00000000000000000000000000000000 8
b00000000000000000000000000000000 9
1:
b00000000000000000000000000010100 >
b00000000000000000000000000000000 ?
#76
0:
#77
b11111111111101011000010110010011 #
b00000000000000000000000000010100 $
b00000000000000000000000000011000 %
b00000000000000000000000000010100 &
b0010011 '
b000 (
b00011111 +
b00001011 -
b01 .
b000 0
11
b00000000000000000000000011110011 2
b00 3
b11111111111111111111111111111111 4
b00 5
b00000000000000000000000000011000 6
b00 7
b11111111111111111111111111111111 8
b00000000000000000000000011110011 9
1:
b00000000000000000000000000010011 >
b00000000000000000000000011110111 ?
#78
0:
#79
b00010000000001011000000000100011 #
b00000000000000000000000000011000 $
b00000000000000000000000000011100 %
b00000000000000000000000000011000 &
b0100011 '
b00000000000000000000000011110011 )
b00000000 +
b00000000 -
b00 .
b11 /
b00000000000000000000000111110011 2
b00000000000000000000000100000000 4
b00000000000000000000000000011100 6
b01 7
b00000000000000000000000100000000 8
b00000000000000000000000111110011 9
1:
b00000000000000000000000100011000 >
#80
0:
#81
b11111110000001011001110011100011 #
b00000000000000000000000000011100 $
b00000000000000000000000000100000 %
b00000000000000000000000000011100 &
b1100011 '
b001 (
b00011001 -
b00 /
b001 0
01
b00000000000000000000000011110011 2
b01 3
b11111111111111111111111111111000 4
b01 5
b00000000000000000000000000010100 6
b10 7
b00000000000000000000000000000000 8
b00000000000000000000000000000000 9
1:
b00000000000000000000000000010100 >
b00000000000000000000000000000000 ?
#82
0:
#83
b11111111111101011000010110010011 #
b00000000000000000000000000010100 $
b00000000000000000000000000011000 %
b00000000000000000000000000010100 &
b0010011 '
b000 (
b00011111 +
b00001011 -
b01 .
b000 0
11
b00000000000000000000000011110010 2
b00 3
b11111111111111111111111111111111 4
b00 5
b00000000000000000000000000011000 6
b00 7
b11111111111111111111111111111111 8
b00000000000000000000000011110010 9
1:
b00000000000000000000000000010011 >
b00000000000000000000000011110110 ?
#84
0:
#85
b00010000000001011000000000100011 #
b00000000000000000000000000011000 $
b00000000000000000000000000011100 %
b00000000000000000000000000011000 &
b0100011 '
b00000000000000000000000011110010 )
b00000000 +
b00000000 -
b00 .
b11 /
b00000000000000000000000111110010 2
b00000000000000000000000100000000 4
b00000000000000000000000000011100 6
b01 7
b00000000000000000000000100000000 8
b00000000000000000000000111110010 9
1:
b00000000000000000000000100011000 >
#86
0:
#87
b11111110000001011001110011100011 #
b00000000000000000000000000011100 $
b00000000000000000000000000100000 %
b00000000000000000000000000011100 &
b1100011 '
b001 (
b00011001 -
b00 /
b001 0
01
b00000000000000000000000011110010 2
b01 3
b11111111111111111111111111111000 4
b01 5
b00000000000000000000000000010100 6
b10 7
b00000000000000000000000000000000 8
b00000000000000000000000000000000 9
1:
b00000000000000000000000000010100 >
b00000000000000000000000000000000 ?
#88
0:
#89
b11111111111101011000010110010011 #
b00000000000000000000000000010100 $
b00000000000000000000000000011000 %
b00000000000000000000000000010100 &
b0010011 '
b000 (
b00011111 +
b00001011 -
b01 .
b000 0
11
b00000000000000000000000011110001 2
b00 3
b11111111111111111111111111111111 4
b00 5
b00000000000000000000000000011000 6
b00 7
b11111111111111111111111111111111 8
b00000000000000000000000011110001 9
1:
b00000000000000000000000000010011 >
b00000000000000000000000011110101 ?
#90
0:
#91
b00010000000001011000000000100011 #
b00000000000000000000000000011000 $
b00000000000000000000000000011100 %
b00000000000000000000000000011000 &
b0100011 '
b00000000000000000000000011110001 )
b00000000 +
b00000000 -
b00 .
b11 /
b00000000000000000000000111110001 2
b00000000000000000000000100000000 4
b00000000000000000000000000011100 6
b01 7
b00000000000000000000000100000000 8
b00000000000000000000000111110001 9
1:
b00000000000000000000000100011000 >
#92
0:
#93
b11111110000001011001110011100011 #
b00000000000000000000000000011100 $
b00000000000000000000000000100000 %
b00000000000000000000000000011100 &
b1100011 '
b001 (
b00011001 -
b00 /
b001 0
01
b00000000000000000000000011110001 2
b01 3
b11111111111111111111111111111000 4
b01 5
b00000000000000000000000000010100 6
b10 7
b00000000000000000000000000000000 8
b00000000000000000000000000000000 9
1:
b00000000000000000000000000010100 >
b00000000000000000000000000000000 ?
#94
0:
#95
b11111111111101011000010110010011 #
b00000000000000000000000000010100 $
b00000000000000000000000000011000 %
b00000000000000000000000000010100 &
b0010011 '
b000 (
b00011111 +
b00001011 -
b01 .
b000 0
11
b00000000000000000000000011110000 2
b00 3
b11111111111111111111111111111111 4
b00 5
b00000000000000000000000000011000 6
b00 7
b11111111111111111111111111111111 8
b00000000000000000000000011110000 9
1:
b00000000000000000000000000010011 >
b00000000000000000000000011110100 ?
#96
0:
#97
b00010000000001011000000000100011 #
b00000000000000000000000000011000 $
b00000000000000000000000000011100 %
b00000000000000000000000000011000 &
b0100011 '
b00000000000000000000000011110000 )
b00000000 +
b00000000 -
b00 .
b11 /
b00000000000000000000000111110000 2
b00000000000000000000000100000000 4
b00000000000000000000000000011100 6
b01 7
b00000000000000000000000100000000 8
b00000000000000000000000111110000 9
1:
b00000000000000000000000100011000 >
#98
0:
#99
b11111110000001011001110011100011 #
b00000000000000000000000000011100 $
b00000000000000000000000000100000 %
b00000000000000000000000000011100 &
b1100011 '
b001 (
b00011001 -
b00 /
b001 0
01
b00000000000000000000000011110000 2
b01 3
b11111111111111111111111111111000 4
b01 5
b00000000000000000000000000010100 6
b10 7
b00000000000000000000000000000000 8
b00000000000000000000000000000000 9
1:
b00000000000000000000000000010100 >
b00000000000000000000000000000000 ?
#100
0:
