single_cycle/test/cpu.vcd
$version Generated by VerilatedVcd $end
$date Wed Dec  6 18:45:34 2023
 $end
$timescale   1ps $end

 $scope module TOP $end
  $var wire 32 < a0 [31:0] $end
  $var wire  1 : clk $end
  $var wire  1 ; rst $end
  $scope module cpu $end
   $var wire 32 @ ADDRESS_WIDTH [31:0] $end
   $var wire 32 2 ALUResult_o [31:0] $end
   $var wire  3 0 ALUctrl [2:0] $end
   $var wire  1 1 ALUsrc $end
   $var wire 32 B CONTROL_WIDTH [31:0] $end
   $var wire 32 A DATA_WIDTH [31:0] $end
   $var wire 32 C IMM_WIDTH [31:0] $end
   $var wire 32 4 ImmOp [31:0] $end
   $var wire 32 # Instr [31:0] $end
   $var wire  2 / MemWrite [1:0] $end
   $var wire 32 $ PC [31:0] $end
   $var wire 32 % PCPlus4 [31:0] $end
   $var wire  2 5 PCsrc [1:0] $end
   $var wire  2 . RegWrite [1:0] $end
   $var wire  2 3 Resultsrc [1:0] $end
   $var wire  1 = Zero $end
   $var wire 32 < a0 [31:0] $end
   $var wire  1 : clk $end
   $var wire  1 ; rst $end
   $scope module alu $end
    $var wire 32 2 ALUResult_o [31:0] $end
    $var wire  3 0 ALUctrl_i [2:0] $end
    $var wire  1 1 ALUsrc_i $end
    $var wire 32 B CONTROL_WIDTH [31:0] $end
    $var wire 32 A DATA_WIDTH [31:0] $end
    $var wire 32 4 ImmOp_i [31:0] $end
    $var wire 32 # Instr_i [31:0] $end
    $var wire  2 / MemWrite_i [1:0] $end
    $var wire 32 % PCPlus4_i [31:0] $end
    $var wire 32 ? ReadData [31:0] $end
    $var wire  2 . RegWrite_i [1:0] $end
    $var wire 32 9 Result [31:0] $end
    $var wire  2 3 ResultSrc_i [1:0] $end
    $var wire 32 ) SrcA [31:0] $end
    $var wire 32 8 SrcB [31:0] $end
    $var wire  1 = Zero_o $end
    $var wire 32 < a0 [31:0] $end
    $var wire  1 : clk $end
    $var wire 32 * regOp2 [31:0] $end
    $scope module ALU $end
     $var wire 32 2 ALUResult [31:0] $end
     $var wire  3 0 ALUctrl [2:0] $end
     $var wire 32 B CONTROL_WIDTH [31:0] $end
     $var wire 32 A DATA_WIDTH [31:0] $end
     $var wire 32 ) SrcA [31:0] $end
     $var wire 32 8 SrcB [31:0] $end
     $var wire  1 = Zero $end
    $upscope $end
    $scope module ALUMux $end
     $var wire 32 A DATA_WIDTH [31:0] $end
     $var wire  1 1 control $end
     $var wire 32 * input0 [31:0] $end
     $var wire 32 4 input1 [31:0] $end
     $var wire 32 8 out [31:0] $end
    $upscope $end
    $scope module data $end
     $var wire 32 2 A [31:0] $end
     $var wire 32 @ ADDRESS_WIDTH [31:0] $end
     $var wire 32 A DATA_WIDTH [31:0] $end
     $var wire 32 ? RD [31:0] $end
     $var wire 32 * WD [31:0] $end
     $var wire  2 / WE [1:0] $end
     $var wire  1 : clk $end
    $upscope $end
    $scope module register $end
     $var wire  8 , A1 [7:0] $end
     $var wire  8 + A2 [7:0] $end
     $var wire  8 - A3 [7:0] $end
     $var wire 32 @ ADDRESS_WIDTH [31:0] $end
     $var wire 32 A DATA_WIDTH [31:0] $end
     $var wire 32 # Instr [31:0] $end
     $var wire 32 ) RD1 [31:0] $end
     $var wire 32 * RD2 [31:0] $end
     $var wire 32 9 WD3 [31:0] $end
     $var wire  2 . WE3 [1:0] $end
     $var wire 32 < a0 [31:0] $end
     $var wire  1 : clk $end
    $upscope $end
    $scope module resultMux $end
     $var wire 32 C CONTROL_WIDTH [31:0] $end
     $var wire 32 A DATA_WIDTH [31:0] $end
     $var wire  2 3 control [1:0] $end
     $var wire 32 2 input0 [31:0] $end
     $var wire 32 ? input1 [31:0] $end
     $var wire 32 % input2 [31:0] $end
     $var wire 32 E input3 [31:0] $end
     $var wire 32 9 out [31:0] $end
    $upscope $end
   $upscope $end
   $scope module control $end
    $var wire 32 @ ADDRESS_WIDTH [31:0] $end
    $var wire  3 0 ALUctrl_o [2:0] $end
    $var wire  1 1 ALUsrc_o $end
    $var wire 32 B CONTROL_WIDTH [31:0] $end
    $var wire 32 A DATA_WIDTH [31:0] $end
    $var wire 32 C IMM_WIDTH [31:0] $end
    $var wire 32 4 ImmOp_o [31:0] $end
    $var wire  2 7 ImmSrc [1:0] $end
    $var wire  2 / MemWrite_o [1:0] $end
    $var wire 32 $ PC_i [31:0] $end
    $var wire  2 5 PCsrc_o [1:0] $end
    $var wire  2 . RegWrite_o [1:0] $end
    $var wire  2 3 Resultsrc_o [1:0] $end
    $var wire  1 = Zero_i $end
    $var wire 32 # instr_o [31:0] $end
    $scope module ControlUnit $end
     $var wire  3 0 ALUctrl_o [2:0] $end
     $var wire  1 1 ALUsrc_o $end
     $var wire 32 B CONTROL_WIDTH [31:0] $end
     $var wire 32 A DATA_WIDTH [31:0] $end
     $var wire 32 C IMM_WIDTH [31:0] $end
     $var wire  2 7 ImmSrc_o [1:0] $end
     $var wire  2 / MemWrite_o [1:0] $end
     $var wire  2 5 PCsrc_o [1:0] $end
     $var wire  2 . RegWrite_o [1:0] $end
     $var wire  2 3 Resultsrc_o [1:0] $end
     $var wire  1 = Zero_i $end
     $var wire  3 ( funct3 [2:0] $end
     $var wire 32 # instr_i [31:0] $end
     $var wire  7 ' opcode [6:0] $end
    $upscope $end
    $scope module InstrMem $end
     $var wire 32 @ ADDRESS_WIDTH [31:0] $end
     $var wire 32 A DATA_WIDTH [31:0] $end
     $var wire 32 # Instr_o [31:0] $end
     $var wire 32 $ addr_i [31:0] $end
    $upscope $end
    $scope module MySignExtend $end
     $var wire 32 A DATA_WIDTH [31:0] $end
     $var wire 32 C IMM_WIDTH [31:0] $end
     $var wire 32 4 ImmOp_o [31:0] $end
     $var wire  2 7 ImmSrc_i [1:0] $end
     $var wire 32 # instr_i [31:0] $end
    $upscope $end
   $upscope $end
   $scope module pc $end
    $var wire 32 2 ALUResult_i [31:0] $end
    $var wire 32 4 ImmOp_i [31:0] $end
    $var wire 32 & PC [31:0] $end
    $var wire 32 % PCPlus4_o [31:0] $end
    $var wire 32 > PCTarget [31:0] $end
    $var wire  2 5 PCsrc_i [1:0] $end
    $var wire 32 A WIDTH [31:0] $end
    $var wire  1 : clk $end
    $var wire 32 6 next_PC [31:0] $end
    $var wire 32 $ pc_out [31:0] $end
    $var wire  1 ; rst $end
    $scope module pc_mux $end
     $var wire 32 C CONTROL_WIDTH [31:0] $end
     $var wire 32 A DATA_WIDTH [31:0] $end
     $var wire  2 5 control [1:0] $end
     $var wire 32 % input0 [31:0] $end
     $var wire 32 > input1 [31:0] $end
     $var wire 32 2 input2 [31:0] $end
     $var wire 32 D input3 [31:0] $end
     $var wire 32 6 out [31:0] $end
    $upscope $end
    $scope module pc_reg $end
     $var wire 32 A WIDTH [31:0] $end
     $var wire 32 $ another_pc [31:0] $end
     $var wire  1 : clk $end
     $var wire 32 6 next_PC [31:0] $end
     $var wire 32 & pc [31:0] $end
     $var wire  1 ; rst $end
    $upscope $end
   $upscope $end
  $upscope $end
 $upscope $end
$enddefinitions $end


#0
b00000000000000000000000000000000 #
b00000000000000000000000000000000 $
b00000000000000000000000000000100 %
b00000000000000000000000000000000 &
b0000000 '
b000 (
b00000000000000000000000000000000 )
b00000000000000000000000000000000 *
b00000000 +
b00000000 ,
b00000000 -
b00 .
b00 /
b000 0
01
b00000000000000000000000000000000 2
b00 3
b00000000000000000000000000000000 4
b00 5
b00000000000000000000000000000000 6
b00 7
b00000000000000000000000000000000 8
b00000000000000000000000000000000 9
0:
0;
b00000000000000000000000000000000 <
1=
b00000000000000000000000000000000 >
b00000000000000000000000000000000 ?
b00000000000000000000000000001000 @
b00000000000000000000000000100000 A
b00000000000000000000000000000011 B
b00000000000000000000000000000010 C
b00000000000000000000000000000000 D
b00000000000000000000000000000000 E
#1
b00000001000000000000000011101111 #
b1101111 '
b00010000 +
b00000001 -
b01 .
11
b00000000000000000000100000000000 2
b10 3
b00000000000000000000100000000000 4
b01 5
b00000000000000000000100000000000 6
b11 7
b00000000000000000000100000000000 8
b00000000000000000000000000000100 9
1:
0=
b00000000000000000000100000000000 >
b00000000000000000000000011111110 ?
#2
0:
#3
b00000000000000000000100000000000 $
b00000000000000000000100000000100 %
b00000000000000000000100000000000 &
b00000000000000000001000000000000 6
b00000000000000000000100000000100 9
1:
b00000000000000000001000000000000 >
#4
0:
#5
b00000000000000000001000000000000 $
b00000000000000000001000000000100 %
b00000000000000000001000000000000 &
b00000000000000000001100000000000 6
b00000000000000000001000000000100 9
1:
b00000000000000000001100000000000 >
#6
0:
#7
b00000000000000000001100000000000 $
b00000000000000000001100000000100 %
b00000000000000000001100000000000 &
b00000000000000000010000000000000 6
b00000000000000000001100000000100 9
1:
b00000000000000000010000000000000 >
#8
0:
#9
b00000000000000000010000000000000 $
b00000000000000000010000000000100 %
b00000000000000000010000000000000 &
b00000000000000000010100000000000 6
b00000000000000000010000000000100 9
1:
b00000000000000000010100000000000 >
#10
0:
#11
b00000000000000000010100000000000 $
b00000000000000000010100000000100 %
b00000000000000000010100000000000 &
b00000000000000000011000000000000 6
b00000000000000000010100000000100 9
1:
b00000000000000000011000000000000 >
#12
0:
#13
b00000000000000000011000000000000 $
b00000000000000000011000000000100 %
b00000000000000000011000000000000 &
b00000000000000000011100000000000 6
b00000000000000000011000000000100 9
1:
b00000000000000000011100000000000 >
#14
0:
#15
b00000000000000000011100000000000 $
b00000000000000000011100000000100 %
b00000000000000000011100000000000 &
b00000000000000000100000000000000 6
b00000000000000000011100000000100 9
1:
b00000000000000000100000000000000 >
#16
0:
#17
b00000000000000000100000000000000 $
b00000000000000000100000000000100 %
b00000000000000000100000000000000 &
b00000000000000000100100000000000 6
b00000000000000000100000000000100 9
1:
b00000000000000000100100000000000 >
#18
0:
#19
b00000000000000000100100000000000 $
b00000000000000000100100000000100 %
b00000000000000000100100000000000 &
b00000000000000000101000000000000 6
b00000000000000000100100000000100 9
1:
b00000000000000000101000000000000 >
#20
0:
#21
b00000000000000000101000000000000 $
b00000000000000000101000000000100 %
b00000000000000000101000000000000 &
b00000000000000000101100000000000 6
b00000000000000000101000000000100 9
1:
b00000000000000000101100000000000 >
#22
0:
#23
b00000000000000000101100000000000 $
b00000000000000000101100000000100 %
b00000000000000000101100000000000 &
b00000000000000000110000000000000 6
b00000000000000000101100000000100 9
1:
b00000000000000000110000000000000 >
#24
0:
#25
b00000000000000000110000000000000 $
b00000000000000000110000000000100 %
b00000000000000000110000000000000 &
b00000000000000000110100000000000 6
b00000000000000000110000000000100 9
1:
b00000000000000000110100000000000 >
#26
0:
#27
b00000000000000000110100000000000 $
b00000000000000000110100000000100 %
b00000000000000000110100000000000 &
b00000000000000000111000000000000 6
b00000000000000000110100000000100 9
1:
b00000000000000000111000000000000 >
#28
0:
#29
b00000000000000000111000000000000 $
b00000000000000000111000000000100 %
b00000000000000000111000000000000 &
b00000000000000000111100000000000 6
b00000000000000000111000000000100 9
1:
b00000000000000000111100000000000 >
#30
0:
#31
b00000000000000000111100000000000 $
b00000000000000000111100000000100 %
b00000000000000000111100000000000 &
b00000000000000001000000000000000 6
b00000000000000000111100000000100 9
1:
b00000000000000001000000000000000 >
#32
0:
#33
b00000000000000001000000000000000 $
b00000000000000001000000000000100 %
b00000000000000001000000000000000 &
b00000000000000001000100000000000 6
b00000000000000001000000000000100 9
1:
b00000000000000001000100000000000 >
#34
0:
#35
b00000000000000001000100000000000 $
b00000000000000001000100000000100 %
b00000000000000001000100000000000 &
b00000000000000001001000000000000 6
b00000000000000001000100000000100 9
1:
b00000000000000001001000000000000 >
#36
0:
#37
b00000000000000001001000000000000 $
b00000000000000001001000000000100 %
b00000000000000001001000000000000 &
b00000000000000001001100000000000 6
b00000000000000001001000000000100 9
1:
b00000000000000001001100000000000 >
#38
0:
#39
b00000000000000001001100000000000 $
b00000000000000001001100000000100 %
b00000000000000001001100000000000 &
b00000000000000001010000000000000 6
b00000000000000001001100000000100 9
1:
b00000000000000001010000000000000 >
#40
0:
#41
b00000000000000001010000000000000 $
b00000000000000001010000000000100 %
b00000000000000001010000000000000 &
b00000000000000001010100000000000 6
b00000000000000001010000000000100 9
1:
b00000000000000001010100000000000 >
#42
0:
#43
b00000000000000001010100000000000 $
b00000000000000001010100000000100 %
b00000000000000001010100000000000 &
b00000000000000001011000000000000 6
b00000000000000001010100000000100 9
1:
b00000000000000001011000000000000 >
#44
0:
#45
b00000000000000001011000000000000 $
b00000000000000001011000000000100 %
b00000000000000001011000000000000 &
b00000000000000001011100000000000 6
b00000000000000001011000000000100 9
1:
b00000000000000001011100000000000 >
#46
0:
#47
b00000000000000001011100000000000 $
b00000000000000001011100000000100 %
b00000000000000001011100000000000 &
b00000000000000001100000000000000 6
b00000000000000001011100000000100 9
1:
b00000000000000001100000000000000 >
#48
0:
#49
b00000000000000001100000000000000 $
b00000000000000001100000000000100 %
b00000000000000001100000000000000 &
b00000000000000001100100000000000 6
b00000000000000001100000000000100 9
1:
b00000000000000001100100000000000 >
#50
0:
#51
b00000000000000001100100000000000 $
b00000000000000001100100000000100 %
b00000000000000001100100000000000 &
b00000000000000001101000000000000 6
b00000000000000001100100000000100 9
1:
b00000000000000001101000000000000 >
#52
0:
#53
b00000000000000001101000000000000 $
b00000000000000001101000000000100 %
b00000000000000001101000000000000 &
b00000000000000001101100000000000 6
b00000000000000001101000000000100 9
1:
b00000000000000001101100000000000 >
#54
0:
#55
b00000000000000001101100000000000 $
b00000000000000001101100000000100 %
b00000000000000001101100000000000 &
b00000000000000001110000000000000 6
b00000000000000001101100000000100 9
1:
b00000000000000001110000000000000 >
#56
0:
#57
b00000000000000001110000000000000 $
b00000000000000001110000000000100 %
b00000000000000001110000000000000 &
b00000000000000001110100000000000 6
b00000000000000001110000000000100 9
1:
b00000000000000001110100000000000 >
#58
0:
#59
b00000000000000001110100000000000 $
b00000000000000001110100000000100 %
b00000000000000001110100000000000 &
b00000000000000001111000000000000 6
b00000000000000001110100000000100 9
1:
b00000000000000001111000000000000 >
#60
0:
#61
b00000000000000001111000000000000 $
b00000000000000001111000000000100 %
b00000000000000001111000000000000 &
b00000000000000001111100000000000 6
b00000000000000001111000000000100 9
1:
b00000000000000001111100000000000 >
#62
0:
#63
b00000000000000001111100000000000 $
b00000000000000001111100000000100 %
b00000000000000001111100000000000 &
b00000000000000010000000000000000 6
b00000000000000001111100000000100 9
1:
b00000000000000010000000000000000 >
#64
0:
#65
b00000000000000010000000000000000 $
b00000000000000010000000000000100 %
b00000000000000010000000000000000 &
b00000000000000010000100000000000 6
b00000000000000010000000000000100 9
1:
b00000000000000010000100000000000 >
#66
0:
#67
b00000000000000010000100000000000 $
b00000000000000010000100000000100 %
b00000000000000010000100000000000 &
b00000000000000010001000000000000 6
b00000000000000010000100000000100 9
1:
b00000000000000010001000000000000 >
#68
0:
#69
b00000000000000010001000000000000 $
b00000000000000010001000000000100 %
b00000000000000010001000000000000 &
b00000000000000010001100000000000 6
b00000000000000010001000000000100 9
1:
b00000000000000010001100000000000 >
#70
0:
#71
b00000000000000010001100000000000 $
b00000000000000010001100000000100 %
b00000000000000010001100000000000 &
b00000000000000010010000000000000 6
b00000000000000010001100000000100 9
1:
b00000000000000010010000000000000 >
#72
0:
#73
b00000000000000010010000000000000 $
b00000000000000010010000000000100 %
b00000000000000010010000000000000 &
b00000000000000010010100000000000 6
b00000000000000010010000000000100 9
1:
b00000000000000010010100000000000 >
#74
0:
#75
b00000000000000010010100000000000 $
b00000000000000010010100000000100 %
b00000000000000010010100000000000 &
b00000000000000010011000000000000 6
b00000000000000010010100000000100 9
1:
b00000000000000010011000000000000 >
#76
0:
#77
b00000000000000010011000000000000 $
b00000000000000010011000000000100 %
b00000000000000010011000000000000 &
b00000000000000010011100000000000 6
b00000000000000010011000000000100 9
1:
b00000000000000010011100000000000 >
#78
0:
#79
b00000000000000010011100000000000 $
b00000000000000010011100000000100 %
b00000000000000010011100000000000 &
b00000000000000010100000000000000 6
b00000000000000010011100000000100 9
1:
b00000000000000010100000000000000 >
#80
0:
#81
b00000000000000010100000000000000 $
b00000000000000010100000000000100 %
b00000000000000010100000000000000 &
b00000000000000010100100000000000 6
b00000000000000010100000000000100 9
1:
b00000000000000010100100000000000 >
#82
0:
#83
b00000000000000010100100000000000 $
b00000000000000010100100000000100 %
b00000000000000010100100000000000 &
b00000000000000010101000000000000 6
b00000000000000010100100000000100 9
1:
b00000000000000010101000000000000 >
#84
0:
#85
b00000000000000010101000000000000 $
b00000000000000010101000000000100 %
b00000000000000010101000000000000 &
b00000000000000010101100000000000 6
b00000000000000010101000000000100 9
1:
b00000000000000010101100000000000 >
#86
0:
#87
b00000000000000010101100000000000 $
b00000000000000010101100000000100 %
b00000000000000010101100000000000 &
b00000000000000010110000000000000 6
b00000000000000010101100000000100 9
1:
b00000000000000010110000000000000 >
#88
0:
#89
b00000000000000010110000000000000 $
b00000000000000010110000000000100 %
b00000000000000010110000000000000 &
b00000000000000010110100000000000 6
b00000000000000010110000000000100 9
1:
b00000000000000010110100000000000 >
#90
0:
#91
b00000000000000010110100000000000 $
b00000000000000010110100000000100 %
b00000000000000010110100000000000 &
b00000000000000010111000000000000 6
b00000000000000010110100000000100 9
1:
b00000000000000010111000000000000 >
#92
0:
#93
b00000000000000010111000000000000 $
b00000000000000010111000000000100 %
b00000000000000010111000000000000 &
b00000000000000010111100000000000 6
b00000000000000010111000000000100 9
1:
b00000000000000010111100000000000 >
#94
0:
#95
b00000000000000010111100000000000 $
b00000000000000010111100000000100 %
b00000000000000010111100000000000 &
b00000000000000011000000000000000 6
b00000000000000010111100000000100 9
1:
b00000000000000011000000000000000 >
#96
0:
#97
b00000000000000011000000000000000 $
b00000000000000011000000000000100 %
b00000000000000011000000000000000 &
b00000000000000011000100000000000 6
b00000000000000011000000000000100 9
1:
b00000000000000011000100000000000 >
#98
0:
#99
b00000000000000011000100000000000 $
b00000000000000011000100000000100 %
b00000000000000011000100000000000 &
b00000000000000011001000000000000 6
b00000000000000011000100000000100 9
1:
b00000000000000011001000000000000 >
#100
0:
#101
b00000000000000011001000000000000 $
b00000000000000011001000000000100 %
b00000000000000011001000000000000 &
b00000000000000011001100000000000 6
b00000000000000011001000000000100 9
1:
b00000000000000011001100000000000 >
#102
0:
#103
b00000000000000011001100000000000 $
b00000000000000011001100000000100 %
b00000000000000011001100000000000 &
b00000000000000011010000000000000 6
b00000000000000011001100000000100 9
1:
b00000000000000011010000000000000 >
#104
0:
#105
b00000000000000011010000000000000 $
b00000000000000011010000000000100 %
b00000000000000011010000000000000 &
b00000000000000011010100000000000 6
b00000000000000011010000000000100 9
1:
b00000000000000011010100000000000 >
#106
0:
#107
b00000000000000011010100000000000 $
b00000000000000011010100000000100 %
b00000000000000011010100000000000 &
b00000000000000011011000000000000 6
b00000000000000011010100000000100 9
1:
b00000000000000011011000000000000 >
#108
0:
#109
b00000000000000011011000000000000 $
b00000000000000011011000000000100 %
b00000000000000011011000000000000 &
b00000000000000011011100000000000 6
b00000000000000011011000000000100 9
1:
b00000000000000011011100000000000 >
#110
0:
#111
b00000000000000011011100000000000 $
b00000000000000011011100000000100 %
b00000000000000011011100000000000 &
b00000000000000011100000000000000 6
b00000000000000011011100000000100 9
1:
b00000000000000011100000000000000 >
#112
0:
#113
b00000000000000011100000000000000 $
b00000000000000011100000000000100 %
b00000000000000011100000000000000 &
b00000000000000011100100000000000 6
b00000000000000011100000000000100 9
1:
b00000000000000011100100000000000 >
#114
0:
#115
b00000000000000011100100000000000 $
b00000000000000011100100000000100 %
b00000000000000011100100000000000 &
b00000000000000011101000000000000 6
b00000000000000011100100000000100 9
1:
b00000000000000011101000000000000 >
#116
0:
#117
b00000000000000011101000000000000 $
b00000000000000011101000000000100 %
b00000000000000011101000000000000 &
b00000000000000011101100000000000 6
b00000000000000011101000000000100 9
1:
b00000000000000011101100000000000 >
#118
0:
#119
b00000000000000011101100000000000 $
b00000000000000011101100000000100 %
b00000000000000011101100000000000 &
b00000000000000011110000000000000 6
b00000000000000011101100000000100 9
1:
b00000000000000011110000000000000 >
#120
0:
#121
b00000000000000011110000000000000 $
b00000000000000011110000000000100 %
b00000000000000011110000000000000 &
b00000000000000011110100000000000 6
b00000000000000011110000000000100 9
1:
b00000000000000011110100000000000 >
#122
0:
#123
b00000000000000011110100000000000 $
b00000000000000011110100000000100 %
b00000000000000011110100000000000 &
b00000000000000011111000000000000 6
b00000000000000011110100000000100 9
1:
b00000000000000011111000000000000 >
#124
0:
#125
b00000000000000011111000000000000 $
b00000000000000011111000000000100 %
b00000000000000011111000000000000 &
b00000000000000011111100000000000 6
b00000000000000011111000000000100 9
1:
b00000000000000011111100000000000 >
#126
0:
#127
b00000000000000011111100000000000 $
b00000000000000011111100000000100 %
b00000000000000011111100000000000 &
b00000000000000100000000000000000 6
b00000000000000011111100000000100 9
1:
b00000000000000100000000000000000 >
#128
0:
#129
b00000000000000100000000000000000 $
b00000000000000100000000000000100 %
b00000000000000100000000000000000 &
b00000000000000100000100000000000 6
b00000000000000100000000000000100 9
1:
b00000000000000100000100000000000 >
#130
0:
#131
b00000000000000100000100000000000 $
b00000000000000100000100000000100 %
b00000000000000100000100000000000 &
b00000000000000100001000000000000 6
b00000000000000100000100000000100 9
1:
b00000000000000100001000000000000 >
#132
0:
#133
b00000000000000100001000000000000 $
b00000000000000100001000000000100 %
b00000000000000100001000000000000 &
b00000000000000100001100000000000 6
b00000000000000100001000000000100 9
1:
b00000000000000100001100000000000 >
#134
0:
#135
b00000000000000100001100000000000 $
b00000000000000100001100000000100 %
b00000000000000100001100000000000 &
b00000000000000100010000000000000 6
b00000000000000100001100000000100 9
1:
b00000000000000100010000000000000 >
#136
0:
#137
b00000000000000100010000000000000 $
b00000000000000100010000000000100 %
b00000000000000100010000000000000 &
b00000000000000100010100000000000 6
b00000000000000100010000000000100 9
1:
b00000000000000100010100000000000 >
#138
0:
#139
b00000000000000100010100000000000 $
b00000000000000100010100000000100 %
b00000000000000100010100000000000 &
b00000000000000100011000000000000 6
b00000000000000100010100000000100 9
1:
b00000000000000100011000000000000 >
#140
0:
#141
b00000000000000100011000000000000 $
b00000000000000100011000000000100 %
b00000000000000100011000000000000 &
b00000000000000100011100000000000 6
b00000000000000100011000000000100 9
1:
b00000000000000100011100000000000 >
#142
0:
#143
b00000000000000100011100000000000 $
b00000000000000100011100000000100 %
b00000000000000100011100000000000 &
b00000000000000100100000000000000 6
b00000000000000100011100000000100 9
1:
b00000000000000100100000000000000 >
#144
0:
#145
b00000000000000100100000000000000 $
b00000000000000100100000000000100 %
b00000000000000100100000000000000 &
b00000000000000100100100000000000 6
b00000000000000100100000000000100 9
1:
b00000000000000100100100000000000 >
#146
0:
#147
b00000000000000100100100000000000 $
b00000000000000100100100000000100 %
b00000000000000100100100000000000 &
b00000000000000100101000000000000 6
b00000000000000100100100000000100 9
1:
b00000000000000100101000000000000 >
#148
0:
#149
b00000000000000100101000000000000 $
b00000000000000100101000000000100 %
b00000000000000100101000000000000 &
b00000000000000100101100000000000 6
b00000000000000100101000000000100 9
1:
b00000000000000100101100000000000 >
#150
0:
#151
b00000000000000100101100000000000 $
b00000000000000100101100000000100 %
b00000000000000100101100000000000 &
b00000000000000100110000000000000 6
b00000000000000100101100000000100 9
1:
b00000000000000100110000000000000 >
#152
0:
#153
b00000000000000100110000000000000 $
b00000000000000100110000000000100 %
b00000000000000100110000000000000 &
b00000000000000100110100000000000 6
b00000000000000100110000000000100 9
1:
b00000000000000100110100000000000 >
#154
0:
#155
b00000000000000100110100000000000 $
b00000000000000100110100000000100 %
b00000000000000100110100000000000 &
b00000000000000100111000000000000 6
b00000000000000100110100000000100 9
1:
b00000000000000100111000000000000 >
#156
0:
#157
b00000000000000100111000000000000 $
b00000000000000100111000000000100 %
b00000000000000100111000000000000 &
b00000000000000100111100000000000 6
b00000000000000100111000000000100 9
1:
b00000000000000100111100000000000 >
#158
0:
#159
b00000000000000100111100000000000 $
b00000000000000100111100000000100 %
b00000000000000100111100000000000 &
b00000000000000101000000000000000 6
b00000000000000100111100000000100 9
1:
b00000000000000101000000000000000 >
#160
0:
#161
b00000000000000101000000000000000 $
b00000000000000101000000000000100 %
b00000000000000101000000000000000 &
b00000000000000101000100000000000 6
b00000000000000101000000000000100 9
1:
b00000000000000101000100000000000 >
#162
0:
#163
b00000000000000101000100000000000 $
b00000000000000101000100000000100 %
b00000000000000101000100000000000 &
b00000000000000101001000000000000 6
b00000000000000101000100000000100 9
1:
b00000000000000101001000000000000 >
#164
0:
#165
b00000000000000101001000000000000 $
b00000000000000101001000000000100 %
b00000000000000101001000000000000 &
b00000000000000101001100000000000 6
b00000000000000101001000000000100 9
1:
b00000000000000101001100000000000 >
#166
0:
#167
b00000000000000101001100000000000 $
b00000000000000101001100000000100 %
b00000000000000101001100000000000 &
b00000000000000101010000000000000 6
b00000000000000101001100000000100 9
1:
b00000000000000101010000000000000 >
#168
0:
#169
b00000000000000101010000000000000 $
b00000000000000101010000000000100 %
b00000000000000101010000000000000 &
b00000000000000101010100000000000 6
b00000000000000101010000000000100 9
1:
b00000000000000101010100000000000 >
#170
0:
#171
b00000000000000101010100000000000 $
b00000000000000101010100000000100 %
b00000000000000101010100000000000 &
b00000000000000101011000000000000 6
b00000000000000101010100000000100 9
1:
b00000000000000101011000000000000 >
#172
0:
#173
b00000000000000101011000000000000 $
b00000000000000101011000000000100 %
b00000000000000101011000000000000 &
b00000000000000101011100000000000 6
b00000000000000101011000000000100 9
1:
b00000000000000101011100000000000 >
#174
0:
#175
b00000000000000101011100000000000 $
b00000000000000101011100000000100 %
b00000000000000101011100000000000 &
b00000000000000101100000000000000 6
b00000000000000101011100000000100 9
1:
b00000000000000101100000000000000 >
#176
0:
#177
b00000000000000101100000000000000 $
b00000000000000101100000000000100 %
b00000000000000101100000000000000 &
b00000000000000101100100000000000 6
b00000000000000101100000000000100 9
1:
b00000000000000101100100000000000 >
#178
0:
#179
b00000000000000101100100000000000 $
b00000000000000101100100000000100 %
b00000000000000101100100000000000 &
b00000000000000101101000000000000 6
b00000000000000101100100000000100 9
1:
b00000000000000101101000000000000 >
#180
0:
#181
b00000000000000101101000000000000 $
b00000000000000101101000000000100 %
b00000000000000101101000000000000 &
b00000000000000101101100000000000 6
b00000000000000101101000000000100 9
1:
b00000000000000101101100000000000 >
#182
0:
#183
b00000000000000101101100000000000 $
b00000000000000101101100000000100 %
b00000000000000101101100000000000 &
b00000000000000101110000000000000 6
b00000000000000101101100000000100 9
1:
b00000000000000101110000000000000 >
#184
0:
#185
b00000000000000101110000000000000 $
b00000000000000101110000000000100 %
b00000000000000101110000000000000 &
b00000000000000101110100000000000 6
b00000000000000101110000000000100 9
1:
b00000000000000101110100000000000 >
#186
0:
#187
b00000000000000101110100000000000 $
b00000000000000101110100000000100 %
b00000000000000101110100000000000 &
b00000000000000101111000000000000 6
b00000000000000101110100000000100 9
1:
b00000000000000101111000000000000 >
#188
0:
#189
b00000000000000101111000000000000 $
b00000000000000101111000000000100 %
b00000000000000101111000000000000 &
b00000000000000101111100000000000 6
b00000000000000101111000000000100 9
1:
b00000000000000101111100000000000 >
#190
0:
#191
b00000000000000101111100000000000 $
b00000000000000101111100000000100 %
b00000000000000101111100000000000 &
b00000000000000110000000000000000 6
b00000000000000101111100000000100 9
1:
b00000000000000110000000000000000 >
#192
0:
#193
b00000000000000110000000000000000 $
b00000000000000110000000000000100 %
b00000000000000110000000000000000 &
b00000000000000110000100000000000 6
b00000000000000110000000000000100 9
1:
b00000000000000110000100000000000 >
#194
0:
#195
b00000000000000110000100000000000 $
b00000000000000110000100000000100 %
b00000000000000110000100000000000 &
b00000000000000110001000000000000 6
b00000000000000110000100000000100 9
1:
b00000000000000110001000000000000 >
#196
0:
#197
b00000000000000110001000000000000 $
b00000000000000110001000000000100 %
b00000000000000110001000000000000 &
b00000000000000110001100000000000 6
b00000000000000110001000000000100 9
1:
b00000000000000110001100000000000 >
#198
0:
#199
b00000000000000110001100000000000 $
b00000000000000110001100000000100 %
b00000000000000110001100000000000 &
b00000000000000110010000000000000 6
b00000000000000110001100000000100 9
1:
b00000000000000110010000000000000 >
