single_cycle/test/cpu.vcd
$version Generated by VerilatedVcd $end
$date Thu Dec  7 11:32:49 2023
 $end
$timescale   1ps $end

 $scope module TOP $end
  $var wire 32 = a0 [31:0] $end
  $var wire  1 ; clk $end
  $var wire  1 < rst $end
  $scope module cpu $end
   $var wire 32 A ADDRESS_WIDTH [31:0] $end
   $var wire 32 3 ALUResult_o [31:0] $end
   $var wire  3 1 ALUctrl [2:0] $end
   $var wire  1 2 ALUsrc $end
   $var wire 32 C CONTROL_WIDTH [31:0] $end
   $var wire 32 B DATA_WIDTH [31:0] $end
   $var wire 32 D IMM_WIDTH [31:0] $end
   $var wire 32 5 ImmOp [31:0] $end
   $var wire 32 # Instr [31:0] $end
   $var wire  2 0 MemWrite [1:0] $end
   $var wire 32 $ PC [31:0] $end
   $var wire 32 % PCPlus4 [31:0] $end
   $var wire  2 6 PCsrc [1:0] $end
   $var wire  2 / RegWrite [1:0] $end
   $var wire 32 E Result [31:0] $end
   $var wire  2 4 Resultsrc [1:0] $end
   $var wire  1 > Zero $end
   $var wire 32 = a0 [31:0] $end
   $var wire  1 ; clk $end
   $var wire  1 < rst $end
   $scope module alu $end
    $var wire 32 3 ALUResult_o [31:0] $end
    $var wire  3 1 ALUctrl_i [2:0] $end
    $var wire  1 2 ALUsrc_i $end
    $var wire 32 C CONTROL_WIDTH [31:0] $end
    $var wire 32 B DATA_WIDTH [31:0] $end
    $var wire 32 5 ImmOp_i [31:0] $end
    $var wire 32 # Instr_i [31:0] $end
    $var wire  2 0 MemWrite_i [1:0] $end
    $var wire 32 % PCPlus4_i [31:0] $end
    $var wire 32 @ ReadData [31:0] $end
    $var wire  2 / RegWrite_i [1:0] $end
    $var wire 32 : Result [31:0] $end
    $var wire  2 4 ResultSrc_i [1:0] $end
    $var wire 32 * SrcA [31:0] $end
    $var wire 32 9 SrcB [31:0] $end
    $var wire  1 > Zero_o $end
    $var wire 32 = a0 [31:0] $end
    $var wire  1 ; clk $end
    $var wire 32 + regOp2 [31:0] $end
    $scope module ALU $end
     $var wire 32 3 ALUResult [31:0] $end
     $var wire  3 1 ALUctrl [2:0] $end
     $var wire 32 C CONTROL_WIDTH [31:0] $end
     $var wire 32 B DATA_WIDTH [31:0] $end
     $var wire 32 * SrcA [31:0] $end
     $var wire 32 9 SrcB [31:0] $end
     $var wire  1 > Zero $end
    $upscope $end
    $scope module ALUMux $end
     $var wire 32 B DATA_WIDTH [31:0] $end
     $var wire  1 2 control $end
     $var wire 32 + input0 [31:0] $end
     $var wire 32 5 input1 [31:0] $end
     $var wire 32 9 out [31:0] $end
    $upscope $end
    $scope module data $end
     $var wire 32 3 A [31:0] $end
     $var wire 32 A ADDRESS_WIDTH [31:0] $end
     $var wire 32 B DATA_WIDTH [31:0] $end
     $var wire 32 @ RD [31:0] $end
     $var wire 32 + WD [31:0] $end
     $var wire  2 0 WE [1:0] $end
     $var wire  1 ; clk $end
    $upscope $end
    $scope module register $end
     $var wire  8 - A1 [7:0] $end
     $var wire  8 , A2 [7:0] $end
     $var wire  8 . A3 [7:0] $end
     $var wire 32 A ADDRESS_WIDTH [31:0] $end
     $var wire 32 B DATA_WIDTH [31:0] $end
     $var wire 32 # Instr [31:0] $end
     $var wire 32 * RD1 [31:0] $end
     $var wire 32 + RD2 [31:0] $end
     $var wire 32 : WD3 [31:0] $end
     $var wire  2 / WE3 [1:0] $end
     $var wire 32 = a0 [31:0] $end
     $var wire  1 ; clk $end
    $upscope $end
    $scope module resultMux $end
     $var wire 32 D CONTROL_WIDTH [31:0] $end
     $var wire 32 B DATA_WIDTH [31:0] $end
     $var wire  2 4 control [1:0] $end
     $var wire 32 3 input0 [31:0] $end
     $var wire 32 @ input1 [31:0] $end
     $var wire 32 % input2 [31:0] $end
     $var wire 32 G input3 [31:0] $end
     $var wire 32 : out [31:0] $end
    $upscope $end
   $upscope $end
   $scope module control $end
    $var wire 32 A ADDRESS_WIDTH [31:0] $end
    $var wire  3 1 ALUctrl_o [2:0] $end
    $var wire  1 2 ALUsrc_o $end
    $var wire 32 C CONTROL_WIDTH [31:0] $end
    $var wire 32 B DATA_WIDTH [31:0] $end
    $var wire 32 D IMM_WIDTH [31:0] $end
    $var wire 32 5 ImmOp_o [31:0] $end
    $var wire  2 8 ImmSrc [1:0] $end
    $var wire  2 0 MemWrite_o [1:0] $end
    $var wire  8 ' PC_i [7:0] $end
    $var wire  2 6 PCsrc_o [1:0] $end
    $var wire  2 / RegWrite_o [1:0] $end
    $var wire  2 4 Resultsrc_o [1:0] $end
    $var wire  1 > Zero_i $end
    $var wire 32 # instr_o [31:0] $end
    $scope module ControlUnit $end
     $var wire  3 1 ALUctrl_o [2:0] $end
     $var wire  1 2 ALUsrc_o $end
     $var wire 32 C CONTROL_WIDTH [31:0] $end
     $var wire 32 B DATA_WIDTH [31:0] $end
     $var wire 32 D IMM_WIDTH [31:0] $end
     $var wire  2 8 ImmSrc_o [1:0] $end
     $var wire  2 0 MemWrite_o [1:0] $end
     $var wire  2 6 PCsrc_o [1:0] $end
     $var wire  2 / RegWrite_o [1:0] $end
     $var wire  2 4 Resultsrc_o [1:0] $end
     $var wire  1 > Zero_i $end
     $var wire  3 ) funct3 [2:0] $end
     $var wire 32 # instr_i [31:0] $end
     $var wire  7 ( opcode [6:0] $end
    $upscope $end
    $scope module InstrMem $end
     $var wire 32 A ADDRESS_WIDTH [31:0] $end
     $var wire 32 B DATA_WIDTH [31:0] $end
     $var wire 32 # Instr_o [31:0] $end
     $var wire  8 ' addr_i [7:0] $end
    $upscope $end
    $scope module MySignExtend $end
     $var wire 32 B DATA_WIDTH [31:0] $end
     $var wire 32 D IMM_WIDTH [31:0] $end
     $var wire 32 5 ImmOp_o [31:0] $end
     $var wire  2 8 ImmSrc_i [1:0] $end
     $var wire 32 # instr_i [31:0] $end
    $upscope $end
   $upscope $end
   $scope module pc $end
    $var wire 32 3 ALUResult_i [31:0] $end
    $var wire 32 5 ImmOp_i [31:0] $end
    $var wire 32 & PC [31:0] $end
    $var wire 32 % PCPlus4_o [31:0] $end
    $var wire 32 ? PCTarget [31:0] $end
    $var wire  2 6 PCsrc_i [1:0] $end
    $var wire 32 B WIDTH [31:0] $end
    $var wire  1 ; clk $end
    $var wire 32 7 next_PC [31:0] $end
    $var wire 32 $ pc_out [31:0] $end
    $var wire  1 < rst $end
    $scope module pc_mux $end
     $var wire 32 D CONTROL_WIDTH [31:0] $end
     $var wire 32 B DATA_WIDTH [31:0] $end
     $var wire  2 6 control [1:0] $end
     $var wire 32 % input0 [31:0] $end
     $var wire 32 ? input1 [31:0] $end
     $var wire 32 3 input2 [31:0] $end
     $var wire 32 F input3 [31:0] $end
     $var wire 32 7 out [31:0] $end
    $upscope $end
    $scope module pc_reg $end
     $var wire 32 B WIDTH [31:0] $end
     $var wire 32 $ another_pc [31:0] $end
     $var wire  1 ; clk $end
     $var wire 32 7 next_PC [31:0] $end
     $var wire 32 & pc [31:0] $end
     $var wire  1 < rst $end
    $upscope $end
   $upscope $end
  $upscope $end
 $upscope $end
$enddefinitions $end


#0
b00000000000000000000000000000000 #
b00000000000000000000000000000000 $
b00000000000000000000000000000100 %
b00000000000000000000000000000000 &
b00000000 '
b0000000 (
b000 )
b00000000000000000000000000000000 *
b00000000000000000000000000000000 +
b00000000 ,
b00000000 -
b00000000 .
b00 /
b00 0
b000 1
02
b00000000000000000000000000000000 3
b00 4
b00000000000000000000000000000000 5
b00 6
b00000000000000000000000000000000 7
b00 8
b00000000000000000000000000000000 9
b00000000000000000000000000000000 :
0;
0<
b00000000000000000000000000000000 =
1>
b00000000000000000000000000000000 ?
b00000000000000000000000000000000 @
b00000000000000000000000000001000 A
b00000000000000000000000000100000 B
b00000000000000000000000000000011 C
b00000000000000000000000000000010 D
b00000000000000000000000000000000 E
b00000000000000000000000000000000 F
b00000000000000000000000000000000 G
#1
b00000001000000000000000011101111 #
b1101111 (
b00010000 ,
b00000001 .
b01 /
12
b00000000000000000000000000010000 3
b10 4
b00000000000000000000000000010000 5
b01 6
b00000000000000000000000000010000 7
b11 8
b00000000000000000000000000010000 9
b00000000000000000000000000000100 :
1;
0>
b00000000000000000000000000010000 ?
b00000000000000000000000011110100 @
#2
0;
#3
b00010000000000000000010110010011 #
b00000000000000000000000000010000 $
b00000000000000000000000000010100 %
b00000000000000000000000000010000 &
b00010000 '
b0010011 (
b00000000 ,
b00001011 .
b00000000000000000000000100000000 3
b00 4
b00000000000000000000000100000000 5
b00 6
b00000000000000000000000000010100 7
b00 8
b00000000000000000000000100000000 9
b00000000000000000000000100000000 :
1;
b00000000000000000000000100010000 ?
b00000000000000000000000011111110 @
#4
0;
#5
b11111111111101011000010110010011 #
b00000000000000000000000000010100 $
b00000000000000000000000000011000 %
b00000000000000000000000000010100 &
b00010100 '
b00000000000000000000000100000000 *
b00011111 ,
b00001011 -
b00000000000000000000000011111111 3
b11111111111111111111111111111111 5
b00000000000000000000000000011000 7
b11111111111111111111111111111111 9
b00000000000000000000000011111111 :
1;
b00000000000000000000000100000000 =
b00000000000000000000000000010011 ?
b00000000000000000000000000000000 @
#6
0;
#7
b00010000000001011000000000100011 #
b00000000000000000000000000011000 $
b00000000000000000000000000011100 %
b00000000000000000000000000011000 &
b00011000 '
b0100011 (
b00000000000000000000000011111111 *
b00000000 ,
b00000000 .
b00 /
b11 0
b00000000000000000000000111111111 3
b00000000000000000000000100000000 5
b00000000000000000000000000011100 7
b01 8
b00000000000000000000000100000000 9
b00000000000000000000000111111111 :
1;
b00000000000000000000000011111111 =
b00000000000000000000000100011000 ?
#8
0;
#9
b11111110000001011001110011100011 #
b00000000000000000000000000011100 $
b00000000000000000000000000100000 %
b00000000000000000000000000011100 &
b00011100 '
b1100011 (
b001 )
b00011001 .
b00 0
b001 1
02
b00000000000000000000000011111111 3
b01 4
b11111111111111111111111111111000 5
b01 6
b00000000000000000000000000010100 7
b10 8
b00000000000000000000000000000000 9
b00000000000000000000000000000000 :
1;
b00000000000000000000000000010100 ?
#10
0;
#11
b11111111111101011000010110010011 #
b00000000000000000000000000010100 $
b00000000000000000000000000011000 %
b00000000000000000000000000010100 &
b00010100 '
b0010011 (
b000 )
b00011111 ,
b00001011 .
b01 /
b000 1
12
b00000000000000000000000011111110 3
b00 4
b11111111111111111111111111111111 5
b00 6
b00000000000000000000000000011000 7
b00 8
b11111111111111111111111111111111 9
b00000000000000000000000011111110 :
1;
b00000000000000000000000000010011 ?
b00000000000000000000000011111101 @
#12
0;
#13
b00010000000001011000000000100011 #
b00000000000000000000000000011000 $
b00000000000000000000000000011100 %
b00000000000000000000000000011000 &
b00011000 '
b0100011 (
b00000000000000000000000011111110 *
b00000000 ,
b00000000 .
b00 /
b11 0
b00000000000000000000000111111110 3
b00000000000000000000000100000000 5
b00000000000000000000000000011100 7
b01 8
b00000000000000000000000100000000 9
b00000000000000000000000111111110 :
1;
b00000000000000000000000011111110 =
b00000000000000000000000100011000 ?
#14
0;
#15
b11111110000001011001110011100011 #
b00000000000000000000000000011100 $
b00000000000000000000000000100000 %
b00000000000000000000000000011100 &
b00011100 '
b1100011 (
b001 )
b00011001 .
b00 0
b001 1
02
b00000000000000000000000011111110 3
b01 4
b11111111111111111111111111111000 5
b01 6
b00000000000000000000000000010100 7
b10 8
b00000000000000000000000000000000 9
b00000000000000000000000000000000 :
1;
b00000000000000000000000000010100 ?
b00000000000000000000000000000000 @
#16
0;
#17
b11111111111101011000010110010011 #
b00000000000000000000000000010100 $
b00000000000000000000000000011000 %
b00000000000000000000000000010100 &
b00010100 '
b0010011 (
b000 )
b00011111 ,
b00001011 .
b01 /
b000 1
12
b00000000000000000000000011111101 3
b00 4
b11111111111111111111111111111111 5
b00 6
b00000000000000000000000000011000 7
b00 8
b11111111111111111111111111111111 9
b00000000000000000000000011111101 :
1;
b00000000000000000000000000010011 ?
b00000000000000000000000011111101 @
#18
0;
#19
b00010000000001011000000000100011 #
b00000000000000000000000000011000 $
b00000000000000000000000000011100 %
b00000000000000000000000000011000 &
b00011000 '
b0100011 (
b00000000000000000000000011111101 *
b00000000 ,
b00000000 .
b00 /
b11 0
b00000000000000000000000111111101 3
b00000000000000000000000100000000 5
b00000000000000000000000000011100 7
b01 8
b00000000000000000000000100000000 9
b00000000000000000000000111111101 :
1;
b00000000000000000000000011111101 =
b00000000000000000000000100011000 ?
#20
0;
#21
b11111110000001011001110011100011 #
b00000000000000000000000000011100 $
b00000000000000000000000000100000 %
b00000000000000000000000000011100 &
b00011100 '
b1100011 (
b001 )
b00011001 .
b00 0
b001 1
02
b00000000000000000000000011111101 3
b01 4
b11111111111111111111111111111000 5
b01 6
b00000000000000000000000000010100 7
b10 8
b00000000000000000000000000000000 9
b00000000000000000000000000000000 :
1;
b00000000000000000000000000010100 ?
b00000000000000000000000000000000 @
#22
0;
#23
b11111111111101011000010110010011 #
b00000000000000000000000000010100 $
b00000000000000000000000000011000 %
b00000000000000000000000000010100 &
b00010100 '
b0010011 (
b000 )
b00011111 ,
b00001011 .
b01 /
b000 1
12
b00000000000000000000000011111100 3
b00 4
b11111111111111111111111111111111 5
b00 6
b00000000000000000000000000011000 7
b00 8
b11111111111111111111111111111111 9
b00000000000000000000000011111100 :
1;
b00000000000000000000000000010011 ?
b00000000000000000000000011111101 @
#24
0;
#25
b00010000000001011000000000100011 #
b00000000000000000000000000011000 $
b00000000000000000000000000011100 %
b00000000000000000000000000011000 &
b00011000 '
b0100011 (
b00000000000000000000000011111100 *
b00000000 ,
b00000000 .
b00 /
b11 0
b00000000000000000000000111111100 3
b00000000000000000000000100000000 5
b00000000000000000000000000011100 7
b01 8
b00000000000000000000000100000000 9
b00000000000000000000000111111100 :
1;
b00000000000000000000000011111100 =
b00000000000000000000000100011000 ?
#26
0;
#27
b11111110000001011001110011100011 #
b00000000000000000000000000011100 $
b00000000000000000000000000100000 %
b00000000000000000000000000011100 &
b00011100 '
b1100011 (
b001 )
b00011001 .
b00 0
b001 1
02
b00000000000000000000000011111100 3
b01 4
b11111111111111111111111111111000 5
b01 6
b00000000000000000000000000010100 7
b10 8
b00000000000000000000000000000000 9
b00000000000000000000000000000000 :
1;
b00000000000000000000000000010100 ?
b00000000000000000000000000000000 @
#28
0;
#29
b11111111111101011000010110010011 #
b00000000000000000000000000010100 $
b00000000000000000000000000011000 %
b00000000000000000000000000010100 &
b00010100 '
b0010011 (
b000 )
b00011111 ,
b00001011 .
b01 /
b000 1
12
b00000000000000000000000011111011 3
b00 4
b11111111111111111111111111111111 5
b00 6
b00000000000000000000000000011000 7
b00 8
b11111111111111111111111111111111 9
b00000000000000000000000011111011 :
1;
b00000000000000000000000000010011 ?
b00000000000000000000000011111101 @
#30
0;
#31
b00010000000001011000000000100011 #
b00000000000000000000000000011000 $
b00000000000000000000000000011100 %
b00000000000000000000000000011000 &
b00011000 '
b0100011 (
b00000000000000000000000011111011 *
b00000000 ,
b00000000 .
b00 /
b11 0
b00000000000000000000000111111011 3
b00000000000000000000000100000000 5
b00000000000000000000000000011100 7
b01 8
b00000000000000000000000100000000 9
b00000000000000000000000111111011 :
1;
b00000000000000000000000011111011 =
b00000000000000000000000100011000 ?
#32
0;
#33
b11111110000001011001110011100011 #
b00000000000000000000000000011100 $
b00000000000000000000000000100000 %
b00000000000000000000000000011100 &
b00011100 '
b1100011 (
b001 )
b00011001 .
b00 0
b001 1
02
b00000000000000000000000011111011 3
b01 4
b11111111111111111111111111111000 5
b01 6
b00000000000000000000000000010100 7
b10 8
b00000000000000000000000000000000 9
b00000000000000000000000000000000 :
1;
b00000000000000000000000000010100 ?
b00000000000000000000000000000000 @
#34
0;
#35
b11111111111101011000010110010011 #
b00000000000000000000000000010100 $
b00000000000000000000000000011000 %
b00000000000000000000000000010100 &
b00010100 '
b0010011 (
b000 )
b00011111 ,
b00001011 .
b01 /
b000 1
12
b00000000000000000000000011111010 3
b00 4
b11111111111111111111111111111111 5
b00 6
b00000000000000000000000000011000 7
b00 8
b11111111111111111111111111111111 9
b00000000000000000000000011111010 :
1;
b00000000000000000000000000010011 ?
b00000000000000000000000011111100 @
#36
0;
#37
b00010000000001011000000000100011 #
b00000000000000000000000000011000 $
b00000000000000000000000000011100 %
b00000000000000000000000000011000 &
b00011000 '
b0100011 (
b00000000000000000000000011111010 *
b00000000 ,
b00000000 .
b00 /
b11 0
b00000000000000000000000111111010 3
b00000000000000000000000100000000 5
b00000000000000000000000000011100 7
b01 8
b00000000000000000000000100000000 9
b00000000000000000000000111111010 :
1;
b00000000000000000000000011111010 =
b00000000000000000000000100011000 ?
#38
0;
#39
b11111110000001011001110011100011 #
b00000000000000000000000000011100 $
b00000000000000000000000000100000 %
b00000000000000000000000000011100 &
b00011100 '
b1100011 (
b001 )
b00011001 .
b00 0
b001 1
02
b00000000000000000000000011111010 3
b01 4
b11111111111111111111111111111000 5
b01 6
b00000000000000000000000000010100 7
b10 8
b00000000000000000000000000000000 9
b00000000000000000000000000000000 :
1;
b00000000000000000000000000010100 ?
b00000000000000000000000000000000 @
#40
0;
#41
b11111111111101011000010110010011 #
b00000000000000000000000000010100 $
b00000000000000000000000000011000 %
b00000000000000000000000000010100 &
b00010100 '
b0010011 (
b000 )
b00011111 ,
b00001011 .
b01 /
b000 1
12
b00000000000000000000000011111001 3
b00 4
b11111111111111111111111111111111 5
b00 6
b00000000000000000000000000011000 7
b00 8
b11111111111111111111111111111111 9
b00000000000000000000000011111001 :
1;
b00000000000000000000000000010011 ?
b00000000000000000000000011111100 @
#42
0;
#43
b00010000000001011000000000100011 #
b00000000000000000000000000011000 $
b00000000000000000000000000011100 %
b00000000000000000000000000011000 &
b00011000 '
b0100011 (
b00000000000000000000000011111001 *
b00000000 ,
b00000000 .
b00 /
b11 0
b00000000000000000000000111111001 3
b00000000000000000000000100000000 5
b00000000000000000000000000011100 7
b01 8
b00000000000000000000000100000000 9
b00000000000000000000000111111001 :
1;
b00000000000000000000000011111001 =
b00000000000000000000000100011000 ?
#44
0;
#45
b11111110000001011001110011100011 #
b00000000000000000000000000011100 $
b00000000000000000000000000100000 %
b00000000000000000000000000011100 &
b00011100 '
b1100011 (
b001 )
b00011001 .
b00 0
b001 1
02
b00000000000000000000000011111001 3
b01 4
b11111111111111111111111111111000 5
b01 6
b00000000000000000000000000010100 7
b10 8
b00000000000000000000000000000000 9
b00000000000000000000000000000000 :
1;
b00000000000000000000000000010100 ?
b00000000000000000000000000000000 @
#46
0;
#47
b11111111111101011000010110010011 #
b00000000000000000000000000010100 $
b00000000000000000000000000011000 %
b00000000000000000000000000010100 &
b00010100 '
b0010011 (
b000 )
b00011111 ,
b00001011 .
b01 /
b000 1
12
b00000000000000000000000011111000 3
b00 4
b11111111111111111111111111111111 5
b00 6
b00000000000000000000000000011000 7
b00 8
b11111111111111111111111111111111 9
b00000000000000000000000011111000 :
1;
b00000000000000000000000000010011 ?
b00000000000000000000000011111011 @
#48
0;
#49
b00010000000001011000000000100011 #
b00000000000000000000000000011000 $
b00000000000000000000000000011100 %
b00000000000000000000000000011000 &
b00011000 '
b0100011 (
b00000000000000000000000011111000 *
b00000000 ,
b00000000 .
b00 /
b11 0
b00000000000000000000000111111000 3
b00000000000000000000000100000000 5
b00000000000000000000000000011100 7
b01 8
b00000000000000000000000100000000 9
b00000000000000000000000111111000 :
1;
b00000000000000000000000011111000 =
b00000000000000000000000100011000 ?
#50
0;
#51
b11111110000001011001110011100011 #
b00000000000000000000000000011100 $
b00000000000000000000000000100000 %
b00000000000000000000000000011100 &
b00011100 '
b1100011 (
b001 )
b00011001 .
b00 0
b001 1
02
b00000000000000000000000011111000 3
b01 4
b11111111111111111111111111111000 5
b01 6
b00000000000000000000000000010100 7
b10 8
b00000000000000000000000000000000 9
b00000000000000000000000000000000 :
1;
b00000000000000000000000000010100 ?
b00000000000000000000000000000000 @
#52
0;
#53
b11111111111101011000010110010011 #
b00000000000000000000000000010100 $
b00000000000000000000000000011000 %
b00000000000000000000000000010100 &
b00010100 '
b0010011 (
b000 )
b00011111 ,
b00001011 .
b01 /
b000 1
12
b00000000000000000000000011110111 3
b00 4
b11111111111111111111111111111111 5
b00 6
b00000000000000000000000000011000 7
b00 8
b11111111111111111111111111111111 9
b00000000000000000000000011110111 :
1;
b00000000000000000000000000010011 ?
b00000000000000000000000011111010 @
#54
0;
#55
b00010000000001011000000000100011 #
b00000000000000000000000000011000 $
b00000000000000000000000000011100 %
b00000000000000000000000000011000 &
b00011000 '
b0100011 (
b00000000000000000000000011110111 *
b00000000 ,
b00000000 .
b00 /
b11 0
b00000000000000000000000111110111 3
b00000000000000000000000100000000 5
b00000000000000000000000000011100 7
b01 8
b00000000000000000000000100000000 9
b00000000000000000000000111110111 :
1;
b00000000000000000000000011110111 =
b00000000000000000000000100011000 ?
#56
0;
#57
b11111110000001011001110011100011 #
b00000000000000000000000000011100 $
b00000000000000000000000000100000 %
b00000000000000000000000000011100 &
b00011100 '
b1100011 (
b001 )
b00011001 .
b00 0
b001 1
02
b00000000000000000000000011110111 3
b01 4
b11111111111111111111111111111000 5
b01 6
b00000000000000000000000000010100 7
b10 8
b00000000000000000000000000000000 9
b00000000000000000000000000000000 :
1;
b00000000000000000000000000010100 ?
b00000000000000000000000000000000 @
#58
0;
#59
b11111111111101011000010110010011 #
b00000000000000000000000000010100 $
b00000000000000000000000000011000 %
b00000000000000000000000000010100 &
b00010100 '
b0010011 (
b000 )
b00011111 ,
b00001011 .
b01 /
b000 1
12
b00000000000000000000000011110110 3
b00 4
b11111111111111111111111111111111 5
b00 6
b00000000000000000000000000011000 7
b00 8
b11111111111111111111111111111111 9
b00000000000000000000000011110110 :
1;
b00000000000000000000000000010011 ?
b00000000000000000000000011111010 @
#60
0;
#61
b00010000000001011000000000100011 #
b00000000000000000000000000011000 $
b00000000000000000000000000011100 %
b00000000000000000000000000011000 &
b00011000 '
b0100011 (
b00000000000000000000000011110110 *
b00000000 ,
b00000000 .
b00 /
b11 0
b00000000000000000000000111110110 3
b00000000000000000000000100000000 5
b00000000000000000000000000011100 7
b01 8
b00000000000000000000000100000000 9
b00000000000000000000000111110110 :
1;
b00000000000000000000000011110110 =
b00000000000000000000000100011000 ?
#62
0;
#63
b11111110000001011001110011100011 #
b00000000000000000000000000011100 $
b00000000000000000000000000100000 %
b00000000000000000000000000011100 &
b00011100 '
b1100011 (
b001 )
b00011001 .
b00 0
b001 1
02
b00000000000000000000000011110110 3
b01 4
b11111111111111111111111111111000 5
b01 6
b00000000000000000000000000010100 7
b10 8
b00000000000000000000000000000000 9
b00000000000000000000000000000000 :
1;
b00000000000000000000000000010100 ?
b00000000000000000000000000000000 @
#64
0;
#65
b11111111111101011000010110010011 #
b00000000000000000000000000010100 $
b00000000000000000000000000011000 %
b00000000000000000000000000010100 &
b00010100 '
b0010011 (
b000 )
b00011111 ,
b00001011 .
b01 /
b000 1
12
b00000000000000000000000011110101 3
b00 4
b11111111111111111111111111111111 5
b00 6
b00000000000000000000000000011000 7
b00 8
b11111111111111111111111111111111 9
b00000000000000000000000011110101 :
1;
b00000000000000000000000000010011 ?
b00000000000000000000000011111001 @
#66
0;
#67
b00010000000001011000000000100011 #
b00000000000000000000000000011000 $
b00000000000000000000000000011100 %
b00000000000000000000000000011000 &
b00011000 '
b0100011 (
b00000000000000000000000011110101 *
b00000000 ,
b00000000 .
b00 /
b11 0
b00000000000000000000000111110101 3
b00000000000000000000000100000000 5
b00000000000000000000000000011100 7
b01 8
b00000000000000000000000100000000 9
b00000000000000000000000111110101 :
1;
b00000000000000000000000011110101 =
b00000000000000000000000100011000 ?
#68
0;
#69
b11111110000001011001110011100011 #
b00000000000000000000000000011100 $
b00000000000000000000000000100000 %
b00000000000000000000000000011100 &
b00011100 '
b1100011 (
b001 )
b00011001 .
b00 0
b001 1
02
b00000000000000000000000011110101 3
b01 4
b11111111111111111111111111111000 5
b01 6
b00000000000000000000000000010100 7
b10 8
b00000000000000000000000000000000 9
b00000000000000000000000000000000 :
1;
b00000000000000000000000000010100 ?
b00000000000000000000000000000000 @
#70
0;
#71
b11111111111101011000010110010011 #
b00000000000000000000000000010100 $
b00000000000000000000000000011000 %
b00000000000000000000000000010100 &
b00010100 '
b0010011 (
b000 )
b00011111 ,
b00001011 .
b01 /
b000 1
12
b00000000000000000000000011110100 3
b00 4
b11111111111111111111111111111111 5
b00 6
b00000000000000000000000000011000 7
b00 8
b11111111111111111111111111111111 9
b00000000000000000000000011110100 :
1;
b00000000000000000000000000010011 ?
b00000000000000000000000011111000 @
#72
0;
#73
b00010000000001011000000000100011 #
b00000000000000000000000000011000 $
b00000000000000000000000000011100 %
b00000000000000000000000000011000 &
b00011000 '
b0100011 (
b00000000000000000000000011110100 *
b00000000 ,
b00000000 .
b00 /
b11 0
b00000000000000000000000111110100 3
b00000000000000000000000100000000 5
b00000000000000000000000000011100 7
b01 8
b00000000000000000000000100000000 9
b00000000000000000000000111110100 :
1;
b00000000000000000000000011110100 =
b00000000000000000000000100011000 ?
#74
0;
#75
b11111110000001011001110011100011 #
b00000000000000000000000000011100 $
b00000000000000000000000000100000 %
b00000000000000000000000000011100 &
b00011100 '
b1100011 (
b001 )
b00011001 .
b00 0
b001 1
02
b00000000000000000000000011110100 3
b01 4
b11111111111111111111111111111000 5
b01 6
b00000000000000000000000000010100 7
b10 8
b00000000000000000000000000000000 9
b00000000000000000000000000000000 :
1;
b00000000000000000000000000010100 ?
b00000000000000000000000000000000 @
#76
0;
#77
b11111111111101011000010110010011 #
b00000000000000000000000000010100 $
b00000000000000000000000000011000 %
b00000000000000000000000000010100 &
b00010100 '
b0010011 (
b000 )
b00011111 ,
b00001011 .
b01 /
b000 1
12
b00000000000000000000000011110011 3
b00 4
b11111111111111111111111111111111 5
b00 6
b00000000000000000000000000011000 7
b00 8
b11111111111111111111111111111111 9
b00000000000000000000000011110011 :
1;
b00000000000000000000000000010011 ?
b00000000000000000000000011110111 @
#78
0;
#79
b00010000000001011000000000100011 #
b00000000000000000000000000011000 $
b00000000000000000000000000011100 %
b00000000000000000000000000011000 &
b00011000 '
b0100011 (
b00000000000000000000000011110011 *
b00000000 ,
b00000000 .
b00 /
b11 0
b00000000000000000000000111110011 3
b00000000000000000000000100000000 5
b00000000000000000000000000011100 7
b01 8
b00000000000000000000000100000000 9
b00000000000000000000000111110011 :
1;
b00000000000000000000000011110011 =
b00000000000000000000000100011000 ?
#80
0;
#81
b11111110000001011001110011100011 #
b00000000000000000000000000011100 $
b00000000000000000000000000100000 %
b00000000000000000000000000011100 &
b00011100 '
b1100011 (
b001 )
b00011001 .
b00 0
b001 1
02
b00000000000000000000000011110011 3
b01 4
b11111111111111111111111111111000 5
b01 6
b00000000000000000000000000010100 7
b10 8
b00000000000000000000000000000000 9
b00000000000000000000000000000000 :
1;
b00000000000000000000000000010100 ?
b00000000000000000000000000000000 @
#82
0;
#83
b11111111111101011000010110010011 #
b00000000000000000000000000010100 $
b00000000000000000000000000011000 %
b00000000000000000000000000010100 &
b00010100 '
b0010011 (
b000 )
b00011111 ,
b00001011 .
b01 /
b000 1
12
b00000000000000000000000011110010 3
b00 4
b11111111111111111111111111111111 5
b00 6
b00000000000000000000000000011000 7
b00 8
b11111111111111111111111111111111 9
b00000000000000000000000011110010 :
1;
b00000000000000000000000000010011 ?
b00000000000000000000000011110110 @
#84
0;
#85
b00010000000001011000000000100011 #
b00000000000000000000000000011000 $
b00000000000000000000000000011100 %
b00000000000000000000000000011000 &
b00011000 '
b0100011 (
b00000000000000000000000011110010 *
b00000000 ,
b00000000 .
b00 /
b11 0
b00000000000000000000000111110010 3
b00000000000000000000000100000000 5
b00000000000000000000000000011100 7
b01 8
b00000000000000000000000100000000 9
b00000000000000000000000111110010 :
1;
b00000000000000000000000011110010 =
b00000000000000000000000100011000 ?
#86
0;
#87
b11111110000001011001110011100011 #
b00000000000000000000000000011100 $
b00000000000000000000000000100000 %
b00000000000000000000000000011100 &
b00011100 '
b1100011 (
b001 )
b00011001 .
b00 0
b001 1
02
b00000000000000000000000011110010 3
b01 4
b11111111111111111111111111111000 5
b01 6
b00000000000000000000000000010100 7
b10 8
b00000000000000000000000000000000 9
b00000000000000000000000000000000 :
1;
b00000000000000000000000000010100 ?
b00000000000000000000000000000000 @
#88
0;
#89
b11111111111101011000010110010011 #
b00000000000000000000000000010100 $
b00000000000000000000000000011000 %
b00000000000000000000000000010100 &
b00010100 '
b0010011 (
b000 )
b00011111 ,
b00001011 .
b01 /
b000 1
12
b00000000000000000000000011110001 3
b00 4
b11111111111111111111111111111111 5
b00 6
b00000000000000000000000000011000 7
b00 8
b11111111111111111111111111111111 9
b00000000000000000000000011110001 :
1;
b00000000000000000000000000010011 ?
b00000000000000000000000011110101 @
#90
0;
#91
b00010000000001011000000000100011 #
b00000000000000000000000000011000 $
b00000000000000000000000000011100 %
b00000000000000000000000000011000 &
b00011000 '
b0100011 (
b00000000000000000000000011110001 *
b00000000 ,
b00000000 .
b00 /
b11 0
b00000000000000000000000111110001 3
b00000000000000000000000100000000 5
b00000000000000000000000000011100 7
b01 8
b00000000000000000000000100000000 9
b00000000000000000000000111110001 :
1;
b00000000000000000000000011110001 =
b00000000000000000000000100011000 ?
#92
0;
#93
b11111110000001011001110011100011 #
b00000000000000000000000000011100 $
b00000000000000000000000000100000 %
b00000000000000000000000000011100 &
b00011100 '
b1100011 (
b001 )
b00011001 .
b00 0
b001 1
02
b00000000000000000000000011110001 3
b01 4
b11111111111111111111111111111000 5
b01 6
b00000000000000000000000000010100 7
b10 8
b00000000000000000000000000000000 9
b00000000000000000000000000000000 :
1;
b00000000000000000000000000010100 ?
b00000000000000000000000000000000 @
#94
0;
