test/f1/cpu.vcd
$version Generated by VerilatedVcd $end
$date Fri Dec 15 02:47:16 2023 $end
$timescale 1ps $end

 $scope module TOP $end
  $var wire 32 ` a0 [31:0] $end
  $var wire  1 ^ clk $end
  $var wire  1 _ rst $end
  $scope module cpu $end
   $var wire 32 U ALUResult_o [31:0] $end
   $var wire  3 S ALUctrl [2:0] $end
   $var wire  1 T ALUsrc $end
   $var wire 32 e CONTROL_WIDTH [31:0] $end
   $var wire 32 d DATA_WIDTH [31:0] $end
   $var wire 32 f IMM_WIDTH [31:0] $end
   $var wire 32 W ImmOp [31:0] $end
   $var wire 32 # Instr [31:0] $end
   $var wire  2 R MemWrite [1:0] $end
   $var wire 32 $ PC [31:0] $end
   $var wire 32 % PCPlus4 [31:0] $end
   $var wire  2 X PCsrc [1:0] $end
   $var wire  3 Q RegWrite [2:0] $end
   $var wire  2 V Resultsrc [1:0] $end
   $var wire  1 a Zero $end
   $var wire 32 ` a0 [31:0] $end
   $var wire  1 ^ clk $end
   $var wire  1 _ rst $end
   $scope module alu $end
    $var wire 32 U ALUResult_o [31:0] $end
    $var wire  3 S ALUctrl_i [2:0] $end
    $var wire  1 T ALUsrc_i $end
    $var wire 32 e CONTROL_WIDTH [31:0] $end
    $var wire 32 d DATA_WIDTH [31:0] $end
    $var wire 32 W ImmOp_i [31:0] $end
    $var wire 32 # Instr_i [31:0] $end
    $var wire  2 R MemWrite_i [1:0] $end
    $var wire 32 % PCPlus4_i [31:0] $end
    $var wire 32 b ReadData [31:0] $end
    $var wire  3 Q RegWrite_i [2:0] $end
    $var wire 32 Z Result [31:0] $end
    $var wire  2 V ResultSrc_i [1:0] $end
    $var wire 32 & SrcA [31:0] $end
    $var wire 32 Y SrcB [31:0] $end
    $var wire  1 a Zero_o $end
    $var wire 32 ` a0 [31:0] $end
    $var wire  1 ^ clk $end
    $var wire 32 ' regOp2 [31:0] $end
    $scope module ALU $end
     $var wire 32 U ALUResult_o [31:0] $end
     $var wire  3 S ALUctrl_i [2:0] $end
     $var wire 32 e CONTROL_WIDTH [31:0] $end
     $var wire 32 d DATA_WIDTH [31:0] $end
     $var wire 32 & SrcA_i [31:0] $end
     $var wire 32 Y SrcB_i [31:0] $end
     $var wire  1 a Zero_o $end
    $upscope $end
    $scope module ALUMux $end
     $var wire 32 d DATA_WIDTH [31:0] $end
     $var wire  1 T control $end
     $var wire 32 ' input0 [31:0] $end
     $var wire 32 W input1 [31:0] $end
     $var wire 32 Y out [31:0] $end
    $upscope $end
    $scope module data $end
     $var wire 32 g ADDRESS_WIDTH [31:0] $end
     $var wire 32 U A_i [31:0] $end
     $var wire 32 d DATA_WIDTH [31:0] $end
     $var wire 32 b RD_o [31:0] $end
     $var wire 32 h START_ADDRESS [31:0] $end
     $var wire 32 ' WD_i [31:0] $end
     $var wire  2 R WE_i [1:0] $end
     $var wire 18 [ add [17:0] $end
     $var wire  1 ^ clk $end
     $var wire 16 ( data16 [15:0] $end
     $var wire  8 ) data8 [7:0] $end
    $upscope $end
    $scope module register $end
     $var wire  5 + A1 [4:0] $end
     $var wire  5 * A2 [4:0] $end
     $var wire  5 , A3 [4:0] $end
     $var wire 32 i ADDRESS_WIDTH [31:0] $end
     $var wire 32 d DATA_WIDTH [31:0] $end
     $var wire 32 # Instr [31:0] $end
     $var wire 32 & RD1 [31:0] $end
     $var wire 32 ' RD2 [31:0] $end
     $var wire 32 Z WD3 [31:0] $end
     $var wire  3 Q WE3 [2:0] $end
     $var wire 32 ` a0 [31:0] $end
     $var wire  1 ^ clk $end
     $var wire 32 - reg_array[0] [31:0] $end
     $var wire 32 7 reg_array[10] [31:0] $end
     $var wire 32 8 reg_array[11] [31:0] $end
     $var wire 32 9 reg_array[12] [31:0] $end
     $var wire 32 : reg_array[13] [31:0] $end
     $var wire 32 ; reg_array[14] [31:0] $end
     $var wire 32 < reg_array[15] [31:0] $end
     $var wire 32 = reg_array[16] [31:0] $end
     $var wire 32 > reg_array[17] [31:0] $end
     $var wire 32 ? reg_array[18] [31:0] $end
     $var wire 32 @ reg_array[19] [31:0] $end
     $var wire 32 . reg_array[1] [31:0] $end
     $var wire 32 A reg_array[20] [31:0] $end
     $var wire 32 B reg_array[21] [31:0] $end
     $var wire 32 C reg_array[22] [31:0] $end
     $var wire 32 D reg_array[23] [31:0] $end
     $var wire 32 E reg_array[24] [31:0] $end
     $var wire 32 F reg_array[25] [31:0] $end
     $var wire 32 G reg_array[26] [31:0] $end
     $var wire 32 H reg_array[27] [31:0] $end
     $var wire 32 I reg_array[28] [31:0] $end
     $var wire 32 J reg_array[29] [31:0] $end
     $var wire 32 / reg_array[2] [31:0] $end
     $var wire 32 K reg_array[30] [31:0] $end
     $var wire 32 L reg_array[31] [31:0] $end
     $var wire 32 0 reg_array[3] [31:0] $end
     $var wire 32 1 reg_array[4] [31:0] $end
     $var wire 32 2 reg_array[5] [31:0] $end
     $var wire 32 3 reg_array[6] [31:0] $end
     $var wire 32 4 reg_array[7] [31:0] $end
     $var wire 32 5 reg_array[8] [31:0] $end
     $var wire 32 6 reg_array[9] [31:0] $end
    $upscope $end
    $scope module resultMux $end
     $var wire 32 f CONTROL_WIDTH [31:0] $end
     $var wire 32 d DATA_WIDTH [31:0] $end
     $var wire  2 V control [1:0] $end
     $var wire 32 U input0 [31:0] $end
     $var wire 32 b input1 [31:0] $end
     $var wire 32 % input2 [31:0] $end
     $var wire 32 j input3 [31:0] $end
     $var wire 32 Z out [31:0] $end
    $upscope $end
   $upscope $end
   $scope module control $end
    $var wire  3 S ALUctrl_o [2:0] $end
    $var wire  1 T ALUsrc_o $end
    $var wire 32 e CONTROL_WIDTH [31:0] $end
    $var wire 32 d DATA_WIDTH [31:0] $end
    $var wire 32 f IMM_WIDTH [31:0] $end
    $var wire 32 W ImmOp_o [31:0] $end
    $var wire  3 \ ImmSrc [2:0] $end
    $var wire  2 R MemWrite_o [1:0] $end
    $var wire 32 $ PC_i [31:0] $end
    $var wire  2 X PCsrc_o [1:0] $end
    $var wire  3 Q RegWrite_o [2:0] $end
    $var wire  2 V Resultsrc_o [1:0] $end
    $var wire  1 a Zero_i $end
    $var wire 32 # instr_o [31:0] $end
    $scope module ControlUnit $end
     $var wire  3 S ALUctrl_o [2:0] $end
     $var wire  1 T ALUsrc_o $end
     $var wire 32 e CONTROL_WIDTH [31:0] $end
     $var wire 32 d DATA_WIDTH [31:0] $end
     $var wire 32 f IMM_WIDTH [31:0] $end
     $var wire  3 \ ImmSrc_o [2:0] $end
     $var wire  2 R MemWrite_o [1:0] $end
     $var wire  2 X PCsrc_o [1:0] $end
     $var wire  3 Q RegWrite_o [2:0] $end
     $var wire  2 V Resultsrc_o [1:0] $end
     $var wire  1 a Zero_i $end
     $var wire  3 N funct3 [2:0] $end
     $var wire  1 O funct7 $end
     $var wire 32 # instr_i [31:0] $end
     $var wire  7 M opcode [6:0] $end
    $upscope $end
    $scope module InstrMem $end
     $var wire 32 g ADDRESS_WIDTH [31:0] $end
     $var wire 32 d DATA_WIDTH [31:0] $end
     $var wire 32 # Instr_o [31:0] $end
     $var wire 32 $ addr_i [31:0] $end
    $upscope $end
    $scope module MySignExtend $end
     $var wire 32 d DATA_WIDTH [31:0] $end
     $var wire 32 W ImmOp_o [31:0] $end
     $var wire  3 \ ImmSrc_i [2:0] $end
     $var wire 32 # instr_i [31:0] $end
    $upscope $end
   $upscope $end
   $scope module pc $end
    $var wire 32 U ALUResult_i [31:0] $end
    $var wire 32 W ImmOp_i [31:0] $end
    $var wire 32 P PC [31:0] $end
    $var wire 32 % PCPlus4_o [31:0] $end
    $var wire 32 c PCTarget [31:0] $end
    $var wire  2 X PCsrc_i [1:0] $end
    $var wire 32 d WIDTH [31:0] $end
    $var wire  1 ^ clk $end
    $var wire 32 ] next_PC [31:0] $end
    $var wire 32 $ pc_out [31:0] $end
    $var wire  1 _ rst $end
    $scope module pc_mux $end
     $var wire 32 f CONTROL_WIDTH [31:0] $end
     $var wire 32 d DATA_WIDTH [31:0] $end
     $var wire  2 X control [1:0] $end
     $var wire 32 % input0 [31:0] $end
     $var wire 32 c input1 [31:0] $end
     $var wire 32 U input2 [31:0] $end
     $var wire 32 k input3 [31:0] $end
     $var wire 32 ] out [31:0] $end
    $upscope $end
    $scope module pc_reg $end
     $var wire 32 d WIDTH [31:0] $end
     $var wire 32 $ another_pc [31:0] $end
     $var wire  1 ^ clk $end
     $var wire 32 ] next_PC [31:0] $end
     $var wire 32 P pc [31:0] $end
     $var wire  1 _ rst $end
    $upscope $end
   $upscope $end
  $upscope $end
 $upscope $end
$enddefinitions $end


#0
b00000000000000000000000000000000 #
b00000000000000000000000000000000 $
b00000000000000000000000000000100 %
b00000000000000000000000000000000 &
b00000000000000000000000000000000 '
b0000000000000000 (
b00000000 )
b00000 *
b00000 +
b00000 ,
b00000000000000000000000000000000 -
b00000000000000000000000000000000 .
b00000000000000000000000000000000 /
b00000000000000000000000000000000 0
b00000000000000000000000000000000 1
b00000000000000000000000000000000 2
b00000000000000000000000000000000 3
b00000000000000000000000000000000 4
b00000000000000000000000000000000 5
b00000000000000000000000000000000 6
b00000000000000000000000000000000 7
b00000000000000000000000000000000 8
b00000000000000000000000000000000 9
b00000000000000000000000000000000 :
b00000000000000000000000000000000 ;
b00000000000000000000000000000000 <
b00000000000000000000000000000000 =
b00000000000000000000000000000000 >
b00000000000000000000000000000000 ?
b00000000000000000000000000000000 @
b00000000000000000000000000000000 A
b00000000000000000000000000000000 B
b00000000000000000000000000000000 C
b00000000000000000000000000000000 D
b00000000000000000000000000000000 E
b00000000000000000000000000000000 F
b00000000000000000000000000000000 G
b00000000000000000000000000000000 H
b00000000000000000000000000000000 I
b00000000000000000000000000000000 J
b00000000000000000000000000000000 K
b00000000000000000000000000000000 L
b0000000 M
b000 N
0O
b00000000000000000000000000000000 P
b000 Q
b00 R
b000 S
0T
b00000000000000000000000000000000 U
b00 V
b00000000000000000000000000000000 W
b00 X
b00000000000000000000000000000000 Y
b00000000000000000000000000000000 Z
b000000000000000000 [
b000 \
b00000000000000000000000000000000 ]
0^
0_
b00000000000000000000000000000000 `
1a
b00000000000000000000000000000000 b
b00000000000000000000000000000000 c
b00000000000000000000000000100000 d
b00000000000000000000000000000011 e
b00000000000000000000000000000010 f
b00000000000000000000000000001000 g
b00000000000000010000000000000000 h
b00000000000000000000000000000101 i
b00000000000000000000000000000000 j
b00000000000000000000000000000000 k
#1
b00000000110000000000000011101111 #
b01100 *
b00001 ,
b1101111 M
b001 Q
1T
b00000000000000000000000000001100 U
b10 V
b00000000000000000000000000001100 W
b01 X
b00000000000000000000000000001100 Y
b00000000000000000000000000000100 Z
b000000000000001100 [
b011 \
b00000000000000000000000000001100 ]
1^
0a
b00000000000000000000000000001100 c
#2
0^
#3
b00001111111100000000001010010011 #
b00000000000000000000000000001100 $
b00000000000000000000000000010000 %
b11111 *
b00101 ,
b00000000000000000000000000000100 .
b0010011 M
b00000000000000000000000000001100 P
b00000000000000000000000011111111 U
b00 V
b00000000000000000000000011111111 W
b00 X
b00000000000000000000000011111111 Y
b00000000000000000000000011111111 Z
b000000000011111111 [
b000 \
b00000000000000000000000000010000 ]
1^
b00000000000000000000000100001011 c
#4
0^
#5
b00000000000000001000000001100111 #
b00000000000000000000000000010000 $
b00000000000000000000000000010100 %
b00000000000000000000000000000100 &
b00000 *
b00001 +
b00000 ,
b00000000000000000000000011111111 2
b1100111 M
b00000000000000000000000000010000 P
b000 Q
b00000000000000000000000000000100 U
b10 V
b00000000000000000000000000000000 W
b10 X
b00000000000000000000000000000000 Y
b00000000000000000000000000010100 Z
b000000000000000100 [
b00000000000000000000000000000100 ]
1^
b00000000000000000000000000010000 c
#6
0^
#7
b00000001000000000000000011101111 #
b00000000000000000000000000000100 $
b00000000000000000000000000001000 %
b00000000000000000000000000000000 &
b10000 *
b00000 +
b00001 ,
b1101111 M
b00000000000000000000000000000100 P
b001 Q
b00000000000000000000000000010000 U
b00000000000000000000000000010000 W
b01 X
b00000000000000000000000000010000 Y
b00000000000000000000000000001000 Z
b000000000000010000 [
b011 \
b00000000000000000000000000010100 ]
1^
b00000000000000000000000000010100 c
#8
0^
#9
b00000000000000000000010100010011 #
b00000000000000000000000000010100 $
b00000000000000000000000000011000 %
b00000 *
b01010 ,
b00000000000000000000000000001000 .
b0010011 M
b00000000000000000000000000010100 P
b00000000000000000000000000000000 U
b00 V
b00000000000000000000000000000000 W
b00 X
b00000000000000000000000000000000 Y
b00000000000000000000000000000000 Z
b000000000000000000 [
b000 \
b00000000000000000000000000011000 ]
1^
1a
#10
0^
#11
b00000000000000000000001100010011 #
b00000000000000000000000000011000 $
b00000000000000000000000000011100 %
b00110 ,
b00000000000000000000000000011000 P
b00000000000000000000000000011100 ]
1^
b00000000000000000000000000011000 c
#12
0^
#13
b00000000000100110001001100010011 #
b00000000000000000000000000011100 $
b00000000000000000000000000100000 %
b00000000000000000000000000001000 '
b0000000000001000 (
b00001000 )
b00001 *
b00110 +
b001 N
b00000000000000000000000000011100 P
b101 S
b00000000000000000000000000000001 W
b00000000000000000000000000000001 Y
b00000000000000000000000000100000 ]
1^
0a
b00000000000000000000000000011101 c
#14
0^
#15
b00000000000100110000001100010011 #
b00000000000000000000000000100000 $
b00000000000000000000000000100100 %
b000 N
b00000000000000000000000000100000 P
b000 S
b00000000000000000000000000000001 U
b00000000000000000000000000000001 Z
b000000000000000001 [
b00000000000000000000000000100100 ]
1^
b00000000000000000000000000100001 c
#16
0^
#17
b00000000000000110000010100010011 #
b00000000000000000000000000100100 $
b00000000000000000000000000101000 %
b00000000000000000000000000000001 &
b00000000000000000000000000000000 '
b0000000000000000 (
b00000000 )
b00000 *
b01010 ,
b00000000000000000000000000000001 3
b00000000000000000000000000100100 P
b00000000000000000000000000000000 W
b00000000000000000000000000000000 Y
b00000000000000000000000000101000 ]
1^
b00000000000000000000000000100100 c
#18
0^
#19
b11111110010101010001101011100011 #
b00000000000000000000000000101000 $
b00000000000000000000000000101100 %
b00000000000000000000000011111111 '
b0000000011111111 (
b11111111 )
b00101 *
b01010 +
b10101 ,
b00000000000000000000000000000001 7
b1100011 M
b001 N
1O
b00000000000000000000000000101000 P
b000 Q
b001 S
0T
b11111111111111111111111100000010 U
b01 V
b11111111111111111111111111110100 W
b01 X
b00000000000000000000000011111111 Y
b00000000000000000000000000000000 Z
b111111111100000010 [
b010 \
b00000000000000000000000000011100 ]
1^
b00000000000000000000000000000001 `
b00000000000000000000000000011100 c
#20
0^
#21
b00000000000100110001001100010011 #
b00000000000000000000000000011100 $
b00000000000000000000000000100000 %
b00000000000000000000000000001000 '
b0000000000001000 (
b00001000 )
b00001 *
b00110 +
b00110 ,
b0010011 M
0O
b00000000000000000000000000011100 P
b001 Q
b101 S
1T
b00000000000000000000000000000010 U
b00 V
b00000000000000000000000000000001 W
b00 X
b00000000000000000000000000000001 Y
b00000000000000000000000000000010 Z
b000000000000000010 [
b000 \
b00000000000000000000000000100000 ]
1^
1a
b00000000000000000000000000011101 c
#22
0^
#23
b00000000000100110000001100010011 #
b00000000000000000000000000100000 $
b00000000000000000000000000100100 %
b00000000000000000000000000000010 &
b00000000000000000000000000000010 3
b000 N
b00000000000000000000000000100000 P
b000 S
b00000000000000000000000000000011 U
b00000000000000000000000000000011 Z
b000000000000000011 [
b00000000000000000000000000100100 ]
1^
0a
b00000000000000000000000000100001 c
#24
0^
#25
b00000000000000110000010100010011 #
b00000000000000000000000000100100 $
b00000000000000000000000000101000 %
b00000000000000000000000000000011 &
b00000000000000000000000000000000 '
b0000000000000000 (
b00000000 )
b00000 *
b01010 ,
b00000000000000000000000000000011 3
b00000000000000000000000000100100 P
b00000000000000000000000000000000 W
b00000000000000000000000000000000 Y
b00000000000000000000000000101000 ]
1^
b00000000000000000000000000100100 c
#26
0^
#27
b11111110010101010001101011100011 #
b00000000000000000000000000101000 $
b00000000000000000000000000101100 %
b00000000000000000000000011111111 '
b0000000011111111 (
b11111111 )
b00101 *
b01010 +
b10101 ,
b00000000000000000000000000000011 7
b1100011 M
b001 N
1O
b00000000000000000000000000101000 P
b000 Q
b001 S
0T
b11111111111111111111111100000100 U
b01 V
b11111111111111111111111111110100 W
b01 X
b00000000000000000000000011111111 Y
b00000000000000000000000000000000 Z
b111111111100000100 [
b010 \
b00000000000000000000000000011100 ]
1^
b00000000000000000000000000000011 `
b00000000000000000000000000011100 c
#28
0^
#29
b00000000000100110001001100010011 #
b00000000000000000000000000011100 $
b00000000000000000000000000100000 %
b00000000000000000000000000001000 '
b0000000000001000 (
b00001000 )
b00001 *
b00110 +
b00110 ,
b0010011 M
0O
b00000000000000000000000000011100 P
b001 Q
b101 S
1T
b00000000000000000000000000000110 U
b00 V
b00000000000000000000000000000001 W
b00 X
b00000000000000000000000000000001 Y
b00000000000000000000000000000110 Z
b000000000000000110 [
b000 \
b00000000000000000000000000100000 ]
1^
b00000000000000000000000000011101 c
#30
0^
#31
b00000000000100110000001100010011 #
b00000000000000000000000000100000 $
b00000000000000000000000000100100 %
b00000000000000000000000000000110 &
b00000000000000000000000000000110 3
b000 N
b00000000000000000000000000100000 P
b000 S
b00000000000000000000000000000111 U
b00000000000000000000000000000111 Z
b000000000000000111 [
b00000000000000000000000000100100 ]
1^
b00000000000000000000000000100001 c
#32
0^
#33
b00000000000000110000010100010011 #
b00000000000000000000000000100100 $
b00000000000000000000000000101000 %
b00000000000000000000000000000111 &
b00000000000000000000000000000000 '
b0000000000000000 (
b00000000 )
b00000 *
b01010 ,
b00000000000000000000000000000111 3
b00000000000000000000000000100100 P
b00000000000000000000000000000000 W
b00000000000000000000000000000000 Y
b00000000000000000000000000101000 ]
1^
b00000000000000000000000000100100 c
#34
0^
#35
b11111110010101010001101011100011 #
b00000000000000000000000000101000 $
b00000000000000000000000000101100 %
b00000000000000000000000011111111 '
b0000000011111111 (
b11111111 )
b00101 *
b01010 +
b10101 ,
b00000000000000000000000000000111 7
b1100011 M
b001 N
1O
b00000000000000000000000000101000 P
b000 Q
b001 S
0T
b11111111111111111111111100001000 U
b01 V
b11111111111111111111111111110100 W
b01 X
b00000000000000000000000011111111 Y
b00000000000000000000000000000000 Z
b111111111100001000 [
b010 \
b00000000000000000000000000011100 ]
1^
b00000000000000000000000000000111 `
b00000000000000000000000000011100 c
#36
0^
#37
b00000000000100110001001100010011 #
b00000000000000000000000000011100 $
b00000000000000000000000000100000 %
b00000000000000000000000000001000 '
b0000000000001000 (
b00001000 )
b00001 *
b00110 +
b00110 ,
b0010011 M
0O
b00000000000000000000000000011100 P
b001 Q
b101 S
1T
b00000000000000000000000000001110 U
b00 V
b00000000000000000000000000000001 W
b00 X
b00000000000000000000000000000001 Y
b00000000000000000000000000001110 Z
b000000000000001110 [
b000 \
b00000000000000000000000000100000 ]
1^
b00000000000000000000000000011101 c
#38
0^
#39
b00000000000100110000001100010011 #
b00000000000000000000000000100000 $
b00000000000000000000000000100100 %
b00000000000000000000000000001110 &
b00000000000000000000000000001110 3
b000 N
b00000000000000000000000000100000 P
b000 S
b00000000000000000000000000001111 U
b00000000000000000000000000001111 Z
b000000000000001111 [
b00000000000000000000000000100100 ]
1^
b00000000000000000000000000100001 c
#40
0^
#41
b00000000000000110000010100010011 #
b00000000000000000000000000100100 $
b00000000000000000000000000101000 %
b00000000000000000000000000001111 &
b00000000000000000000000000000000 '
b0000000000000000 (
b00000000 )
b00000 *
b01010 ,
b00000000000000000000000000001111 3
b00000000000000000000000000100100 P
b00000000000000000000000000000000 W
b00000000000000000000000000000000 Y
b00000000000000000000000000101000 ]
1^
b00000000000000000000000000100100 c
#42
0^
#43
b11111110010101010001101011100011 #
b00000000000000000000000000101000 $
b00000000000000000000000000101100 %
b00000000000000000000000011111111 '
b0000000011111111 (
b11111111 )
b00101 *
b01010 +
b10101 ,
b00000000000000000000000000001111 7
b1100011 M
b001 N
1O
b00000000000000000000000000101000 P
b000 Q
b001 S
0T
b11111111111111111111111100010000 U
b01 V
b11111111111111111111111111110100 W
b01 X
b00000000000000000000000011111111 Y
b00000000000000000000000000000000 Z
b111111111100010000 [
b010 \
b00000000000000000000000000011100 ]
1^
b00000000000000000000000000001111 `
b00000000000000000000000000011100 c
#44
0^
#45
b00000000000100110001001100010011 #
b00000000000000000000000000011100 $
b00000000000000000000000000100000 %
b00000000000000000000000000001000 '
b0000000000001000 (
b00001000 )
b00001 *
b00110 +
b00110 ,
b0010011 M
0O
b00000000000000000000000000011100 P
b001 Q
b101 S
1T
b00000000000000000000000000011110 U
b00 V
b00000000000000000000000000000001 W
b00 X
b00000000000000000000000000000001 Y
b00000000000000000000000000011110 Z
b000000000000011110 [
b000 \
b00000000000000000000000000100000 ]
1^
b00000000000000000000000000011101 c
#46
0^
#47
b00000000000100110000001100010011 #
b00000000000000000000000000100000 $
b00000000000000000000000000100100 %
b00000000000000000000000000011110 &
b00000000000000000000000000011110 3
b000 N
b00000000000000000000000000100000 P
b000 S
b00000000000000000000000000011111 U
b00000000000000000000000000011111 Z
b000000000000011111 [
b00000000000000000000000000100100 ]
1^
b00000000000000000000000000100001 c
#48
0^
#49
b00000000000000110000010100010011 #
b00000000000000000000000000100100 $
b00000000000000000000000000101000 %
b00000000000000000000000000011111 &
b00000000000000000000000000000000 '
b0000000000000000 (
b00000000 )
b00000 *
b01010 ,
b00000000000000000000000000011111 3
b00000000000000000000000000100100 P
b00000000000000000000000000000000 W
b00000000000000000000000000000000 Y
b00000000000000000000000000101000 ]
1^
b00000000000000000000000000100100 c
#50
0^
#51
b11111110010101010001101011100011 #
b00000000000000000000000000101000 $
b00000000000000000000000000101100 %
b00000000000000000000000011111111 '
b0000000011111111 (
b11111111 )
b00101 *
b01010 +
b10101 ,
b00000000000000000000000000011111 7
b1100011 M
b001 N
1O
b00000000000000000000000000101000 P
b000 Q
b001 S
0T
b11111111111111111111111100100000 U
b01 V
b11111111111111111111111111110100 W
b01 X
b00000000000000000000000011111111 Y
b00000000000000000000000000000000 Z
b111111111100100000 [
b010 \
b00000000000000000000000000011100 ]
1^
b00000000000000000000000000011111 `
b00000000000000000000000000011100 c
#52
0^
#53
b00000000000100110001001100010011 #
b00000000000000000000000000011100 $
b00000000000000000000000000100000 %
b00000000000000000000000000001000 '
b0000000000001000 (
b00001000 )
b00001 *
b00110 +
b00110 ,
b0010011 M
0O
b00000000000000000000000000011100 P
b001 Q
b101 S
1T
b00000000000000000000000000111110 U
b00 V
b00000000000000000000000000000001 W
b00 X
b00000000000000000000000000000001 Y
b00000000000000000000000000111110 Z
b000000000000111110 [
b000 \
b00000000000000000000000000100000 ]
1^
b00000000000000000000000000011101 c
#54
0^
#55
b00000000000100110000001100010011 #
b00000000000000000000000000100000 $
b00000000000000000000000000100100 %
b00000000000000000000000000111110 &
b00000000000000000000000000111110 3
b000 N
b00000000000000000000000000100000 P
b000 S
b00000000000000000000000000111111 U
b00000000000000000000000000111111 Z
b000000000000111111 [
b00000000000000000000000000100100 ]
1^
b00000000000000000000000000100001 c
#56
0^
#57
b00000000000000110000010100010011 #
b00000000000000000000000000100100 $
b00000000000000000000000000101000 %
b00000000000000000000000000111111 &
b00000000000000000000000000000000 '
b0000000000000000 (
b00000000 )
b00000 *
b01010 ,
b00000000000000000000000000111111 3
b00000000000000000000000000100100 P
b00000000000000000000000000000000 W
b00000000000000000000000000000000 Y
b00000000000000000000000000101000 ]
1^
b00000000000000000000000000100100 c
#58
0^
#59
b11111110010101010001101011100011 #
b00000000000000000000000000101000 $
b00000000000000000000000000101100 %
b00000000000000000000000011111111 '
b0000000011111111 (
b11111111 )
b00101 *
b01010 +
b10101 ,
b00000000000000000000000000111111 7
b1100011 M
b001 N
1O
b00000000000000000000000000101000 P
b000 Q
b001 S
0T
b11111111111111111111111101000000 U
b01 V
b11111111111111111111111111110100 W
b01 X
b00000000000000000000000011111111 Y
b00000000000000000000000000000000 Z
b111111111101000000 [
b010 \
b00000000000000000000000000011100 ]
1^
b00000000000000000000000000111111 `
b00000000000000000000000000011100 c
#60
0^
#61
b00000000000100110001001100010011 #
b00000000000000000000000000011100 $
b00000000000000000000000000100000 %
b00000000000000000000000000001000 '
b0000000000001000 (
b00001000 )
b00001 *
b00110 +
b00110 ,
b0010011 M
0O
b00000000000000000000000000011100 P
b001 Q
b101 S
1T
b00000000000000000000000001111110 U
b00 V
b00000000000000000000000000000001 W
b00 X
b00000000000000000000000000000001 Y
b00000000000000000000000001111110 Z
b000000000001111110 [
b000 \
b00000000000000000000000000100000 ]
1^
b00000000000000000000000000011101 c
#62
0^
#63
b00000000000100110000001100010011 #
b00000000000000000000000000100000 $
b00000000000000000000000000100100 %
b00000000000000000000000001111110 &
b00000000000000000000000001111110 3
b000 N
b00000000000000000000000000100000 P
b000 S
b00000000000000000000000001111111 U
b00000000000000000000000001111111 Z
b000000000001111111 [
b00000000000000000000000000100100 ]
1^
b00000000000000000000000000100001 c
#64
0^
#65
b00000000000000110000010100010011 #
b00000000000000000000000000100100 $
b00000000000000000000000000101000 %
b00000000000000000000000001111111 &
b00000000000000000000000000000000 '
b0000000000000000 (
b00000000 )
b00000 *
b01010 ,
b00000000000000000000000001111111 3
b00000000000000000000000000100100 P
b00000000000000000000000000000000 W
b00000000000000000000000000000000 Y
b00000000000000000000000000101000 ]
1^
b00000000000000000000000000100100 c
#66
0^
#67
b11111110010101010001101011100011 #
b00000000000000000000000000101000 $
b00000000000000000000000000101100 %
b00000000000000000000000011111111 '
b0000000011111111 (
b11111111 )
b00101 *
b01010 +
b10101 ,
b00000000000000000000000001111111 7
b1100011 M
b001 N
1O
b00000000000000000000000000101000 P
b000 Q
b001 S
0T
b11111111111111111111111110000000 U
b01 V
b11111111111111111111111111110100 W
b01 X
b00000000000000000000000011111111 Y
b00000000000000000000000000000000 Z
b111111111110000000 [
b010 \
b00000000000000000000000000011100 ]
1^
b00000000000000000000000001111111 `
b00000000000000000000000000011100 c
#68
0^
#69
b00000000000100110001001100010011 #
b00000000000000000000000000011100 $
b00000000000000000000000000100000 %
b00000000000000000000000000001000 '
b0000000000001000 (
b00001000 )
b00001 *
b00110 +
b00110 ,
b0010011 M
0O
b00000000000000000000000000011100 P
b001 Q
b101 S
1T
b00000000000000000000000011111110 U
b00 V
b00000000000000000000000000000001 W
b00 X
b00000000000000000000000000000001 Y
b00000000000000000000000011111110 Z
b000000000011111110 [
b000 \
b00000000000000000000000000100000 ]
1^
b00000000000000000000000000011101 c
#70
0^
#71
b00000000000100110000001100010011 #
b00000000000000000000000000100000 $
b00000000000000000000000000100100 %
b00000000000000000000000011111110 &
b00000000000000000000000011111110 3
b000 N
b00000000000000000000000000100000 P
b000 S
b00000000000000000000000011111111 U
b00000000000000000000000011111111 Z
b000000000011111111 [
b00000000000000000000000000100100 ]
1^
b00000000000000000000000000100001 c
#72
0^
#73
b00000000000000110000010100010011 #
b00000000000000000000000000100100 $
b00000000000000000000000000101000 %
b00000000000000000000000011111111 &
b00000000000000000000000000000000 '
b0000000000000000 (
b00000000 )
b00000 *
b01010 ,
b00000000000000000000000011111111 3
b00000000000000000000000000100100 P
b00000000000000000000000000000000 W
b00000000000000000000000000000000 Y
b00000000000000000000000000101000 ]
1^
b00000000000000000000000000100100 c
#74
0^
#75
b11111110010101010001101011100011 #
b00000000000000000000000000101000 $
b00000000000000000000000000101100 %
b00000000000000000000000011111111 '
b0000000011111111 (
b11111111 )
b00101 *
b01010 +
b10101 ,
b00000000000000000000000011111111 7
b1100011 M
b001 N
1O
b00000000000000000000000000101000 P
b000 Q
b001 S
0T
b00000000000000000000000000000000 U
b01 V
b11111111111111111111111111110100 W
b00000000000000000000000011111111 Y
b00000000000000000000000000000000 Z
b000000000000000000 [
b010 \
b00000000000000000000000000101100 ]
1^
b00000000000000000000000011111111 `
1a
b00000000000000000000000000011100 c
#76
0^
#77
b00000000000000001000000001100111 #
b00000000000000000000000000101100 $
b00000000000000000000000000110000 %
b00000000000000000000000000001000 &
b00000000000000000000000000000000 '
b0000000000000000 (
b00000000 )
b00000 *
b00001 +
b00000 ,
b1100111 M
b000 N
0O
b00000000000000000000000000101100 P
b000 S
1T
b00000000000000000000000000001000 U
b10 V
b00000000000000000000000000000000 W
b10 X
b00000000000000000000000000000000 Y
b00000000000000000000000000110000 Z
b000000000000001000 [
b000 \
b00000000000000000000000000001000 ]
1^
0a
b00000000000000000000000000101100 c
#78
0^
#79
b11111111110111111111000011101111 #
b00000000000000000000000000001000 $
b00000000000000000000000000001100 %
b00000000000000000000000000000000 &
b11101 *
b11111 +
b00001 ,
b1101111 M
b111 N
1O
b00000000000000000000000000001000 P
b001 Q
b11111111111111111111111111111100 U
b11111111111111111111111111111100 W
b01 X
b11111111111111111111111111111100 Y
b00000000000000000000000000001100 Z
b111111111111111100 [
b011 \
b00000000000000000000000000000100 ]
1^
b00000000000000000000000000000100 c
#80
0^
#81
b00000001000000000000000011101111 #
b00000000000000000000000000000100 $
b00000000000000000000000000001000 %
b10000 *
b00000 +
b00000000000000000000000000001100 .
b000 N
0O
b00000000000000000000000000000100 P
b00000000000000000000000000010000 U
b00000000000000000000000000010000 W
b00000000000000000000000000010000 Y
b00000000000000000000000000001000 Z
b000000000000010000 [
b00000000000000000000000000010100 ]
1^
b00000000000000000000000000010100 c
#82
0^
#83
b00000000000000000000010100010011 #
b00000000000000000000000000010100 $
b00000000000000000000000000011000 %
b00000 *
b01010 ,
b00000000000000000000000000001000 .
b0010011 M
b00000000000000000000000000010100 P
b00000000000000000000000000000000 U
b00 V
b00000000000000000000000000000000 W
b00 X
b00000000000000000000000000000000 Y
b00000000000000000000000000000000 Z
b000000000000000000 [
b000 \
b00000000000000000000000000011000 ]
1^
1a
#84
0^
