pipelined/cpu.vcd
$version Generated by VerilatedVcd $end
$date Thu Dec 14 11:53:50 2023 $end
$timescale 1ps $end

 $scope module TOP $end
  $var wire 32 u a0 [31:0] $end
  $var wire  1 s clk $end
  $var wire  1 t rst $end
  $scope module cpu $end
   $var wire 32 v ADDRESS_WIDTH [31:0] $end
   $var wire  3 ' ALUControlE [2:0] $end
   $var wire 32 . ALUResultE [31:0] $end
   $var wire  1 ( ALUSrcE $end
   $var wire 32 x CONTROL_WIDTH [31:0] $end
   $var wire 32 w DATA_WIDTH [31:0] $end
   $var wire  1 : Den $end
   $var wire  1 > Drst $end
   $var wire 32 * ExtImmD [31:0] $end
   $var wire  1 : Fen $end
   $var wire  2 < FowardAE [1:0] $end
   $var wire  2 = FowardBE [1:0] $end
   $var wire  1 > Frst $end
   $var wire 32 y IMM_WIDTH [31:0] $end
   $var wire  3 - ImmSrcE [2:0] $end
   $var wire 32 ) InstrD [31:0] $end
   $var wire  2 % MemWriteM [1:0] $end
   $var wire  7 6 OpcodeE [6:0] $end
   $var wire 32 + PCD [31:0] $end
   $var wire 32 8 PCF [31:0] $end
   $var wire 32 , PCPlus4D [31:0] $end
   $var wire 32 9 PCPlus4F [31:0] $end
   $var wire  2 0 PCSrcE [1:0] $end
   $var wire 32 / PCTarget [31:0] $end
   $var wire  1 ; PCen $end
   $var wire  1 z PCrst $end
   $var wire  5 5 RdE [4:0] $end
   $var wire  5 3 RdM [4:0] $end
   $var wire  5 4 RdW [4:0] $end
   $var wire  3 $ RegWriteM [2:0] $end
   $var wire  3 # RegWriteW [2:0] $end
   $var wire  2 & ResultSrcW [1:0] $end
   $var wire  5 1 Rs1E [4:0] $end
   $var wire  5 2 Rs2E [4:0] $end
   $var wire  1 7 ZeroE $end
   $var wire 32 u a0 [31:0] $end
   $var wire  1 s clk $end
   $var wire  1 t rst $end
   $scope module alu $end
    $var wire  3 ' ALUControlE_i [2:0] $end
    $var wire 32 . ALUResultE_o [31:0] $end
    $var wire 32 M ALUResultM [31:0] $end
    $var wire 32 S ALUResultW [31:0] $end
    $var wire  1 ( ALUSrcE_i $end
    $var wire 32 x CONTROL_WIDTH [31:0] $end
    $var wire 32 w DATA_WIDTH [31:0] $end
    $var wire  1 : Den_i $end
    $var wire  1 > Drst_i $end
    $var wire 32 * ExtImmD_i [31:0] $end
    $var wire 32 L ExtImmE [31:0] $end
    $var wire  2 < FowardAE_i [1:0] $end
    $var wire  2 = FowardBE_i [1:0] $end
    $var wire  2 % MemWriteM_i [1:0] $end
    $var wire 32 + PCD_i [31:0] $end
    $var wire 32 G PCE [31:0] $end
    $var wire 32 , PCPlus4D_i [31:0] $end
    $var wire 32 H PCPlus4E [31:0] $end
    $var wire 32 O PCPlus4M [31:0] $end
    $var wire 32 Q PCPlus4W [31:0] $end
    $var wire 32 / PCTargetE_o [31:0] $end
    $var wire 32 C RD1D [31:0] $end
    $var wire 32 E RD1E [31:0] $end
    $var wire 32 D RD2D [31:0] $end
    $var wire 32 F RD2E [31:0] $end
    $var wire  5 A RdD_i [4:0] $end
    $var wire  5 5 RdE_o [4:0] $end
    $var wire  5 3 RdM_o [4:0] $end
    $var wire  5 4 RdW_o [4:0] $end
    $var wire 32 P ReadDataM [31:0] $end
    $var wire 32 R ReadDataW [31:0] $end
    $var wire  3 # RegWriteW_i [2:0] $end
    $var wire  2 & ResultSrcW_i [1:0] $end
    $var wire 32 T ResultW [31:0] $end
    $var wire  5 ? Rs1D_i [4:0] $end
    $var wire  5 1 Rs1E_o [4:0] $end
    $var wire  5 @ Rs2D_i [4:0] $end
    $var wire  5 2 Rs2E_o [4:0] $end
    $var wire 32 I SrcAE [31:0] $end
    $var wire 32 J SrcBE [31:0] $end
    $var wire 32 K WriteDataE [31:0] $end
    $var wire 32 N WriteDataM [31:0] $end
    $var wire  1 7 ZeroE_o $end
    $var wire 32 u a0 [31:0] $end
    $var wire  1 s clk $end
    $var wire  7 B opcodeD_i [6:0] $end
    $var wire  7 6 opcodeE_o [6:0] $end
    $scope module ALU $end
     $var wire  3 ' ALUControl [2:0] $end
     $var wire 32 . ALUResult [31:0] $end
     $var wire 32 x CONTROL_WIDTH [31:0] $end
     $var wire 32 w DATA_WIDTH [31:0] $end
     $var wire 32 I SrcA [31:0] $end
     $var wire 32 J SrcB [31:0] $end
     $var wire  1 7 Zero $end
    $upscope $end
    $scope module ALUMux $end
     $var wire 32 w DATA_WIDTH [31:0] $end
     $var wire  1 ( control $end
     $var wire 32 K input0 [31:0] $end
     $var wire 32 L input1 [31:0] $end
     $var wire 32 J out [31:0] $end
    $upscope $end
    $scope module DREg $end
     $var wire 32 w DATA_WIDTH [31:0] $end
     $var wire 32 * ExtImmD [31:0] $end
     $var wire 32 L ExtImmE [31:0] $end
     $var wire 32 + PCD [31:0] $end
     $var wire 32 G PCE [31:0] $end
     $var wire 32 , PCPlus4D [31:0] $end
     $var wire 32 H PCPlus4E [31:0] $end
     $var wire 32 C RD1D [31:0] $end
     $var wire 32 E RD1E [31:0] $end
     $var wire 32 D RD2D [31:0] $end
     $var wire 32 F RD2E [31:0] $end
     $var wire  5 A RdD [4:0] $end
     $var wire  5 5 RdE [4:0] $end
     $var wire  5 ? Rs1D [4:0] $end
     $var wire  5 1 Rs1E [4:0] $end
     $var wire  5 @ Rs2D [4:0] $end
     $var wire  5 2 Rs2E [4:0] $end
     $var wire  1 s clk $end
     $var wire  1 : en $end
     $var wire  7 B opcodeD [6:0] $end
     $var wire  7 6 opcodeE [6:0] $end
     $var wire  1 > rst $end
    $upscope $end
    $scope module EREG $end
     $var wire 32 . ALUResultE [31:0] $end
     $var wire 32 M ALUResultM [31:0] $end
     $var wire 32 w DATA_WIDTH [31:0] $end
     $var wire 32 H PCPlus4E [31:0] $end
     $var wire 32 O PCPlus4M [31:0] $end
     $var wire  5 5 RdE [4:0] $end
     $var wire  5 3 RdM [4:0] $end
     $var wire 32 K WriteDataE [31:0] $end
     $var wire 32 N WriteDataM [31:0] $end
     $var wire  1 s clk $end
    $upscope $end
    $scope module MREG $end
     $var wire 32 M ALUResultM [31:0] $end
     $var wire 32 S ALUResultW [31:0] $end
     $var wire 32 w DATA_WIDTH [31:0] $end
     $var wire 32 O PCPlus4M [31:0] $end
     $var wire 32 Q PCPlus4W [31:0] $end
     $var wire  5 3 RdM [4:0] $end
     $var wire  5 4 RdW [4:0] $end
     $var wire 32 P ReadDataM [31:0] $end
     $var wire 32 R ReadDataW [31:0] $end
     $var wire  1 s clk $end
    $upscope $end
    $scope module RD1EHazardMux $end
     $var wire 32 y CONTROL_WIDTH [31:0] $end
     $var wire 32 w DATA_WIDTH [31:0] $end
     $var wire  2 < control [1:0] $end
     $var wire 32 E input0 [31:0] $end
     $var wire 32 T input1 [31:0] $end
     $var wire 32 M input2 [31:0] $end
     $var wire 32 I out [31:0] $end
    $upscope $end
    $scope module RD2EHazardMux $end
     $var wire 32 y CONTROL_WIDTH [31:0] $end
     $var wire 32 w DATA_WIDTH [31:0] $end
     $var wire  2 = control [1:0] $end
     $var wire 32 F input0 [31:0] $end
     $var wire 32 T input1 [31:0] $end
     $var wire 32 M input2 [31:0] $end
     $var wire 32 K out [31:0] $end
    $upscope $end
    $scope module addPCTargetE $end
     $var wire 32 w DATA_WIDTH [31:0] $end
     $var wire 32 G input0 [31:0] $end
     $var wire 32 L input1 [31:0] $end
     $var wire 32 / out [31:0] $end
    $upscope $end
    $scope module data $end
     $var wire 32 M A [31:0] $end
     $var wire 32 v ADDRESS_WIDTH [31:0] $end
     $var wire 32 w DATA_WIDTH [31:0] $end
     $var wire 32 P RD [31:0] $end
     $var wire 32 N WD [31:0] $end
     $var wire  2 % WE [1:0] $end
     $var wire  1 s clk $end
    $upscope $end
    $scope module register $end
     $var wire  8 U A1 [7:0] $end
     $var wire  5 ? A1_i [4:0] $end
     $var wire  8 V A2 [7:0] $end
     $var wire  5 @ A2_i [4:0] $end
     $var wire  8 W A3 [7:0] $end
     $var wire  5 4 A3_i [4:0] $end
     $var wire 32 v ADDRESS_WIDTH [31:0] $end
     $var wire 32 w DATA_WIDTH [31:0] $end
     $var wire 32 C RD1 [31:0] $end
     $var wire 32 D RD2 [31:0] $end
     $var wire 32 T WD3 [31:0] $end
     $var wire  3 # WE3 [2:0] $end
     $var wire 32 u a0 [31:0] $end
     $var wire  1 s clk $end
    $upscope $end
    $scope module resultMux $end
     $var wire 32 y CONTROL_WIDTH [31:0] $end
     $var wire 32 w DATA_WIDTH [31:0] $end
     $var wire  2 & control [1:0] $end
     $var wire 32 S input0 [31:0] $end
     $var wire 32 R input1 [31:0] $end
     $var wire 32 Q input2 [31:0] $end
     $var wire 32 T out [31:0] $end
    $upscope $end
   $upscope $end
   $scope module control $end
    $var wire 32 v ADDRESS_WIDTH [31:0] $end
    $var wire  3 ] ALUControlD [2:0] $end
    $var wire  3 ' ALUControlE_o [2:0] $end
    $var wire  1 ^ ALUSrcD $end
    $var wire  1 ( ALUSrcE_o $end
    $var wire  1 ` BranchD $end
    $var wire  1 f BranchE $end
    $var wire 32 w DATA_WIDTH [31:0] $end
    $var wire  1 : Den_i $end
    $var wire  1 > Drst_i $end
    $var wire 32 * ExtImmD_o [31:0] $end
    $var wire  1 : Fen_i $end
    $var wire  1 > Frst_i $end
    $var wire  3 X ImmSrcD [2:0] $end
    $var wire  3 - ImmSrcE_o [2:0] $end
    $var wire 32 ) InstrD_o [31:0] $end
    $var wire 32 Y InstrF [31:0] $end
    $var wire  1 _ JumpD $end
    $var wire  1 e JumpE $end
    $var wire  2 \ MemWriteD [1:0] $end
    $var wire  2 d MemWriteE [1:0] $end
    $var wire  2 % MemWriteM_o [1:0] $end
    $var wire 32 + PCD_o [31:0] $end
    $var wire 32 8 PCF_i [31:0] $end
    $var wire 32 , PCPlus4D_o [31:0] $end
    $var wire 32 9 PCPlus4F_i [31:0] $end
    $var wire  2 0 PCSrcE_o [1:0] $end
    $var wire  3 a RegWriteD [2:0] $end
    $var wire  3 b RegWriteE [2:0] $end
    $var wire  3 $ RegWriteM_o [2:0] $end
    $var wire  3 # RegWriteW_o [2:0] $end
    $var wire  2 [ ResultSrcD [1:0] $end
    $var wire  2 c ResultSrcE [1:0] $end
    $var wire  2 h ResultSrcM [1:0] $end
    $var wire  2 & ResultSrcW_o [1:0] $end
    $var wire  1 7 ZeroE_i $end
    $var wire  1 Z ZeroOp $end
    $var wire  1 s clk $end
    $var wire  3 g funct3E [2:0] $end
    $scope module ControlUnit $end
     $var wire  3 ] ALUControlD [2:0] $end
     $var wire  2 k ALUOpD [1:0] $end
     $var wire  1 ^ ALUSrcD $end
     $var wire  1 ` BranchD $end
     $var wire  3 X ImmSrcD [2:0] $end
     $var wire  1 _ JumpD $end
     $var wire  2 \ MemWriteD [1:0] $end
     $var wire 32 { OP_WIDTH [31:0] $end
     $var wire  3 a RegWriteD [2:0] $end
     $var wire  2 [ ResultSrcD [1:0] $end
     $var wire  3 i funct3 [2:0] $end
     $var wire  1 j funct7b5 $end
     $var wire  7 B op [6:0] $end
     $scope module aludec $end
      $var wire  3 ] ALUControl [2:0] $end
      $var wire  2 k ALUOp [1:0] $end
      $var wire 32 x CONTROL_WIDTH [31:0] $end
      $var wire  1 m RtypeSub $end
      $var wire  3 i funct3 [2:0] $end
      $var wire  1 j funct7b5 $end
      $var wire  1 l opb5 $end
     $upscope $end
     $scope module maindec $end
      $var wire  2 k ALUOp [1:0] $end
      $var wire  1 ^ ALUSrc $end
      $var wire  1 ` Branch $end
      $var wire  3 X ImmSrc [2:0] $end
      $var wire  1 _ Jump $end
      $var wire  2 \ MemWrite [1:0] $end
      $var wire 32 { OP_WIDTH [31:0] $end
      $var wire  3 a RegWrite [2:0] $end
      $var wire  2 [ ResultSrc [1:0] $end
      $var wire 15 n controls [14:0] $end
      $var wire  3 i funct3 [2:0] $end
      $var wire  7 B op [6:0] $end
     $upscope $end
    $upscope $end
    $scope module DReg $end
     $var wire  3 ] ALUControlD [2:0] $end
     $var wire  3 ' ALUControlE [2:0] $end
     $var wire  1 ^ ALUSrcD $end
     $var wire  1 ( ALUSrcE $end
     $var wire  1 ` BranchD $end
     $var wire  1 f BranchE $end
     $var wire 32 w DATA_WIDTH [31:0] $end
     $var wire  3 X ImmSrcD [2:0] $end
     $var wire  3 - ImmSrcE [2:0] $end
     $var wire  1 _ JumpD $end
     $var wire  1 e JumpE $end
     $var wire  2 \ MemWriteD [1:0] $end
     $var wire  2 d MemWriteE [1:0] $end
     $var wire  3 a RegWriteD [2:0] $end
     $var wire  3 b RegWriteE [2:0] $end
     $var wire  2 [ ResultSrcD [1:0] $end
     $var wire  2 c ResultSrcE [1:0] $end
     $var wire  1 s clk $end
     $var wire  1 : en $end
     $var wire  3 i funct3D [2:0] $end
     $var wire  3 g funct3E [2:0] $end
     $var wire  1 > rst $end
    $upscope $end
    $scope module EREG $end
     $var wire 32 w DATA_WIDTH [31:0] $end
     $var wire  2 d MemWriteE [1:0] $end
     $var wire  2 % MemWriteM [1:0] $end
     $var wire  3 b RegWriteE [2:0] $end
     $var wire  3 $ RegWriteM [2:0] $end
     $var wire  2 c ResultSrcE [1:0] $end
     $var wire  2 h ResultSrcM [1:0] $end
     $var wire  1 s clk $end
    $upscope $end
    $scope module FReg $end
     $var wire 32 w DATA_WIDTH [31:0] $end
     $var wire 32 ) InstrD [31:0] $end
     $var wire 32 Y InstrF [31:0] $end
     $var wire 32 + PCD [31:0] $end
     $var wire 32 8 PCF [31:0] $end
     $var wire 32 , PCPlus4D [31:0] $end
     $var wire 32 9 PCPlus4F [31:0] $end
     $var wire  1 s clk $end
     $var wire  1 : en $end
     $var wire  1 > rst $end
    $upscope $end
    $scope module InstrMem $end
     $var wire 32 v ADDRESS_WIDTH [31:0] $end
     $var wire 32 w DATA_WIDTH [31:0] $end
     $var wire 32 Y Instr_o [31:0] $end
     $var wire 32 8 addr_i [31:0] $end
    $upscope $end
    $scope module MREG $end
     $var wire 32 w DATA_WIDTH [31:0] $end
     $var wire  3 $ RegWriteM [2:0] $end
     $var wire  3 # RegWriteW [2:0] $end
     $var wire  2 h ResultSrcM [1:0] $end
     $var wire  2 & ResultSrcW [1:0] $end
     $var wire  1 s clk $end
    $upscope $end
    $scope module MySignExtend $end
     $var wire 32 w DATA_WIDTH [31:0] $end
     $var wire 32 * ExtImm [31:0] $end
     $var wire 32 x IMM_WIDTH [31:0] $end
     $var wire  3 X ImmSrc [2:0] $end
     $var wire 32 ) instr [31:0] $end
    $upscope $end
   $upscope $end
   $scope module hazard $end
    $var wire  1 : Den_o $end
    $var wire  1 > Drst_o $end
    $var wire  1 : Fen_o $end
    $var wire  2 < FowardAE_o [1:0] $end
    $var wire  2 = FowardBE_o [1:0] $end
    $var wire  1 > Frst_o $end
    $var wire  3 - ImmSrcE_i [2:0] $end
    $var wire  2 0 PCSrcE_i [1:0] $end
    $var wire  1 ; PCen_o $end
    $var wire  1 z PCrst_o $end
    $var wire  5 5 RdE_i [4:0] $end
    $var wire  5 3 RdM_i [4:0] $end
    $var wire  5 4 RdW_i [4:0] $end
    $var wire  3 $ RegWriteM_i [2:0] $end
    $var wire  3 # RegWriteW_i [2:0] $end
    $var wire  5 ? Rs1D_i [4:0] $end
    $var wire  5 1 Rs1E_i [4:0] $end
    $var wire  5 @ Rs2D_i [4:0] $end
    $var wire  5 2 Rs2E_i [4:0] $end
    $var wire  7 6 opcodeE_i [6:0] $end
    $scope module ControlHazard $end
     $var wire  1 > Drst $end
     $var wire  1 > Frst $end
     $var wire  2 0 PCSrcE [1:0] $end
     $var wire  1 z PCrst $end
    $upscope $end
    $scope module FowardHazard $end
     $var wire  1 o A $end
     $var wire  1 p B $end
     $var wire  2 < FowardAE [1:0] $end
     $var wire  2 = FowardBE [1:0] $end
     $var wire  3 - ImmSrcE [2:0] $end
     $var wire  5 3 RdM [4:0] $end
     $var wire  5 4 RdW [4:0] $end
     $var wire  3 $ RegWriteM [2:0] $end
     $var wire  3 # RegWriteW [2:0] $end
     $var wire  5 1 Rs1E [4:0] $end
     $var wire  5 2 Rs2E [4:0] $end
    $upscope $end
    $scope module StallHazard $end
     $var wire  1 o A $end
     $var wire  1 q B $end
     $var wire  1 : Den $end
     $var wire  1 : Fen $end
     $var wire  3 - ImmSrcE [2:0] $end
     $var wire  1 ; PCen $end
     $var wire  5 5 RdE [4:0] $end
     $var wire  5 ? Rs1D [4:0] $end
     $var wire  5 @ Rs2D [4:0] $end
     $var wire  7 6 opcodeE [6:0] $end
    $upscope $end
   $upscope $end
   $scope module pc $end
    $var wire 32 . ALUResultE_i [31:0] $end
    $var wire 32 w DATA_WIDTH [31:0] $end
    $var wire 32 8 PCF_o [31:0] $end
    $var wire 32 9 PCPlus4F_o [31:0] $end
    $var wire  2 0 PCSrc_i [1:0] $end
    $var wire 32 / PCTarget_i [31:0] $end
    $var wire  1 ; PCen_i $end
    $var wire  1 z PCrst_i $end
    $var wire  1 s clk $end
    $var wire 32 r next_PC [31:0] $end
    $scope module pc_mux $end
     $var wire 32 y CONTROL_WIDTH [31:0] $end
     $var wire 32 w DATA_WIDTH [31:0] $end
     $var wire  2 0 control [1:0] $end
     $var wire 32 9 input0 [31:0] $end
     $var wire 32 / input1 [31:0] $end
     $var wire 32 . input2 [31:0] $end
     $var wire 32 r out [31:0] $end
    $upscope $end
    $scope module pc_reg $end
     $var wire  1 ; PCen $end
     $var wire 32 w WIDTH [31:0] $end
     $var wire  1 s clk $end
     $var wire 32 r next_PC [31:0] $end
     $var wire 32 8 pc [31:0] $end
     $var wire  1 z rst $end
    $upscope $end
   $upscope $end
  $upscope $end
 $upscope $end
$enddefinitions $end


#0
b000 #
b000 $
b00 %
b00 &
b000 '
0(
b00000000000000000000000000000000 )
b00000000000000000000000000000000 *
b00000000000000000000000000000000 +
b00000000000000000000000000000000 ,
b000 -
b00000000000000000000000000000000 .
b00000000000000000000000000000000 /
b00 0
b00000 1
b00000 2
b00000 3
b00000 4
b00000 5
b0000000 6
17
b00000000000000000000000000000000 8
b00000000000000000000000000000100 9
0:
1;
b00 <
b00 =
0>
b00000 ?
b00000 @
b00000 A
b0000000 B
b00000000000000000000000000000000 C
b00000000000000000000000000000000 D
b00000000000000000000000000000000 E
b00000000000000000000000000000000 F
b00000000000000000000000000000000 G
b00000000000000000000000000000000 H
b00000000000000000000000000000000 I
b00000000000000000000000000000000 J
b00000000000000000000000000000000 K
b00000000000000000000000000000000 L
b00000000000000000000000000000000 M
b00000000000000000000000000000000 N
b00000000000000000000000000000000 O
b00000000000000000000000000000000 P
b00000000000000000000000000000000 Q
b00000000000000000000000000000000 R
b00000000000000000000000000000000 S
b00000000000000000000000000000000 T
b00000000 U
b00000000 V
b00000000 W
b000 X
b00000000000000000000000000000000 Y
1Z
b00 [
b00 \
b000 ]
0^
0_
0`
b000 a
b000 b
b00 c
b00 d
0e
0f
b000 g
b00 h
b000 i
0j
b00 k
0l
0m
b000000000000000 n
0o
0p
0q
b00000000000000000000000000000100 r
0s
0t
b00000000000000000000000000000000 u
b00000000000000000000000000001000 v
b00000000000000000000000000100000 w
b00000000000000000000000000000011 x
b00000000000000000000000000000010 y
0z
b00000000000000000000000000000111 {
#1
1:
b00000000000000000000000011111110 P
b00000001000000000000000011101111 Y
1o
1s
#2
0s
#3
b00000001000000000000000011101111 )
b00000000000000000000000000010000 *
b00000000000000000000000000000100 ,
b00000000000000000000000000000100 8
b00000000000000000000000000001000 9
b10000 @
b00001 A
b1101111 B
b00000000000000000000000011111110 R
b00010000 V
b011 X
b00000010010000000000000011101111 Y
b10 [
1_
b001 a
1l
b001100010001100 n
b00000000000000000000000000001000 r
1s
#4
0s
#5
b00000010010000000000000011101111 )
b00000000000000000000000000100100 *
b00000000000000000000000000000100 +
b00000000000000000000000000001000 ,
b011 -
b00000000000000000000000000010000 /
b01 0
b10000 2
b00001 5
b1101111 6
b00000000000000000000000000001000 8
b00000000000000000000000000001100 9
1>
b00100 @
b00000000000000000000000000000100 H
b00000000000000000000000000010000 L
b00000100 V
b00000100010000000000000011101111 Y
b001 b
b10 c
1e
0o
b00000000000000000000000000010000 r
1s
#6
0s
#7
b001 $
b00000000000000000000000000000000 )
b00000000000000000000000000000000 *
b00000000000000000000000000000000 +
b00000000000000000000000000000000 ,
b000 -
b00000000000000000000000000000000 /
b00 0
b00000 2
b00001 3
b00000 5
b0000000 6
b00000000000000000000000000010000 8
b00000000000000000000000000010100 9
0>
b00000 @
b00000 A
b0000000 B
b00000000000000000000000000000000 H
b00000000000000000000000000000000 L
b00000000000000000000000000000100 O
b00000000 V
b000 X
b00010000000000000000010110010011 Y
b00 [
0_
b000 a
b000 b
b00 c
0e
b10 h
0l
b000000000000000 n
1o
b00000000000000000000000000010100 r
1s
#8
0s
#9
b001 #
b000 $
b10 &
b00010000000000000000010110010011 )
b00000000000000000000000100000000 *
b00000000000000000000000000010000 +
b00000000000000000000000000010100 ,
b00000 3
b00001 4
b00000000000000000000000000010100 8
b00000000000000000000000000011000 9
b01011 A
b0010011 B
b00000000000000000000000000000000 O
b00000000000000000000000000000100 Q
b00000000000000000000000000000100 T
b00000001 W
b00001111111100000000010110010011 Y
1^
b001 a
b00 h
b10 k
b001000000100010 n
b00000000000000000000000000011000 r
1s
#10
0s
#11
b000 #
b00 &
1(
b00001111111100000000010110010011 )
b00000000000000000000000011111111 *
b00000000000000000000000000010100 +
b00000000000000000000000000011000 ,
b00000000000000000000000100000000 .
b00000000000000000000000100010000 /
b00000 4
b01011 5
b0010011 6
07
b00000000000000000000000000011000 8
b00000000000000000000000000011100 9
b11111 @
b00000000000000000000000000010000 G
b00000000000000000000000000010100 H
b00000000000000000000000100000000 J
b00000000000000000000000100000000 L
b00000000000000000000000000000000 Q
b00000000000000000000000000000000 T
b00011111 V
b00000000 W
b00000000000000000000010100010011 Y
0Z
b001 b
b00000000000000000000000000011100 r
1s
#12
0s
#13
b001 $
b00000000000000000000010100010011 )
b00000000000000000000000000000000 *
b00000000000000000000000000011000 +
b00000000000000000000000000011100 ,
b00000000000000000000000011111111 .
b00000000000000000000000100010011 /
b11111 2
b01011 3
b00000000000000000000000000011100 8
b00000000000000000000000000100000 9
b00000 @
b01010 A
b00000000000000000000000000010100 G
b00000000000000000000000000011000 H
b00000000000000000000000011111111 J
b00000000000000000000000011111111 L
b00000000000000000000000100000000 M
b00000000000000000000000000010100 O
b00000000 V
b00010000000001011000000000100011 Y
b00000000000000000000000000100000 r
1s
#14
0s
#15
b001 #
b00010000000001011000000000100011 )
b00000000000000000000000100000000 *
b00000000000000000000000000011100 +
b00000000000000000000000000100000 ,
b00000000000000000000000000000000 .
b00000000000000000000000000011000 /
b00000 2
b01011 4
b01010 5
17
b00000000000000000000000000100000 8
b00000000000000000000000000100100 9
b01011 ?
b00000 A
b0100011 B
b00000000000000000000000000011000 G
b00000000000000000000000000011100 H
b00000000000000000000000000000000 J
b00000000000000000000000000000000 L
b00000000000000000000000011111111 M
b00000000000000000000000000011000 O
b00000000000000000000000000000000 P
b00000000000000000000000000010100 Q
b00000000000000000000000100000000 S
b00000000000000000000000100000000 T
b00001011 U
b00001011 W
b010 X
b11111110101101010000101011100011 Y
1Z
b11 \
b000 a
b00 k
1l
b000001100101000 n
b00000000000000000000000000100100 r
1s
#16
0s
#17
b11111110101101010000101011100011 )
b11111111111111111111111111110100 *
b00000000000000000000000000100000 +
b00000000000000000000000000100100 ,
b010 -
b00000000000000000000000111111111 .
b00000000000000000000000100011100 /
b01011 1
b01010 3
b00000 5
b0100011 6
07
b00000000000000000000000000100100 8
b00000000000000000000000000101000 9
b01 <
b01010 ?
b01011 @
b10101 A
b1100011 B
b00000000000000000000000100000000 D
b00000000000000000000000000011100 G
b00000000000000000000000000100000 H
b00000000000000000000000011111111 I
b00000000000000000000000100000000 J
b00000000000000000000000100000000 L
b00000000000000000000000000000000 M
b00000000000000000000000000011100 O
b00000000000000000000000011111110 P
b00000000000000000000000000011000 Q
b00000000000000000000000000000000 R
b00000000000000000000000011111111 S
b00000000000000000000000011111111 T
b00001010 U
b00001011 V
b00000000000000001000000001100111 Y
0Z
b00 \
b001 ]
0^
1`
b000 b
b11 d
1j
b01 k
1m
b000000001001001 n
1p
1q
b00000000000000000000000000101000 r
1s
#18
0s
#19
b000 $
b11 %
b001 '
0(
b00000000000000001000000001100111 )
b00000000000000000000000000000000 *
b00000000000000000000000000100100 +
b00000000000000000000000000101000 ,
b11111111111111111111111100000000 .
b00000000000000000000000000010100 /
b01010 1
b01011 2
b00000 3
b01010 4
b10101 5
b1100011 6
b00000000000000000000000000101000 8
b00000000000000000000000000101100 9
b00001 ?
b00000 @
b00000 A
b1100111 B
b00000000000000000000000000000100 C
b00000000000000000000000000000000 D
b00000000000000000000000100000000 F
b00000000000000000000000000100000 G
b00000000000000000000000000100100 H
b00000000000000000000000000000000 I
b00000000000000000000000100000000 K
b11111111111111111111111111110100 L
b00000000000000000000000111111111 M
b00000000000000000000000000100000 O
b00000000000000000000000000000000 P
b00000000000000000000000000011100 Q
b00000000000000000000000011111110 R
b00000000000000000000000000000000 S
b00000000000000000000000000000000 T
b00000001 U
b00000000 V
b00001010 W
b000 X
b00000000000000010000010110110111 Y
b10 [
b000 ]
1^
1_
0`
b001 a
b00 d
1f
0j
b00 k
0m
b001100010100000 n
b00000000000000000000000000101100 r
1s
#20
0s
#21
b000 #
b00 %
b000 '
1(
b00000000000000010000010110110111 )
b00000000000000010000000000000000 *
b00000000000000000000000000101000 +
b00000000000000000000000000101100 ,
b000 -
b00000000000000000000000000000100 .
b00000000000000000000000000100100 /
b10 0
b00001 1
b00000 2
b10101 3
b00000 4
b00000 5
b1100111 6
b00000000000000000000000000101100 8
b00000000000000000000000000110000 9
b00 <
1>
b00010 ?
b01011 A
b0110111 B
b00000000000000000000000000000000 C
b00000000000000000000000000000100 E
b00000000000000000000000000000000 F
b00000000000000000000000000100100 G
b00000000000000000000000000101000 H
b00000000000000000000000000000100 I
b00000000000000000000000000000000 J
b00000000000000000000000000000000 K
b00000000000000000000000000000000 L
b11111111111111111111111100000000 M
b00000000000000000000000100000000 N
b00000000000000000000000000100100 O
b00000000000000000000000011111110 P
b00000000000000000000000000100000 Q
b00000000000000000000000000000000 R
b00000000000000000000000111111111 S
b00000000000000000000000111111111 T
b00000010 U
b00000000 W
b100 X
b00000000000000000000011000010011 Y
b00 [
b111 ]
0_
b001 b
b10 c
1e
0f
b11 k
b001000000110011 n
0p
0q
b00000000000000000000000000000100 r
1s
#22
0s
#23
b001 $
0(
b00000000000000000000000000000000 )
b00000000000000000000000000000000 *
b00000000000000000000000000000000 +
b00000000000000000000000000000000 ,
b00000000000000000000000000000000 .
b00000000000000000000000000000000 /
b00 0
b00000 1
b00000 3
b10101 4
b0000000 6
17
b00000000000000000000000000000100 8
b00000000000000000000000000001000 9
0>
b00000 ?
b00000 A
b0000000 B
b00000000000000000000000000000000 E
b00000000000000000000000000000000 G
b00000000000000000000000000000000 H
b00000000000000000000000000000000 I
b00000000000000000000000000000100 M
b00000000000000000000000000000000 N
b00000000000000000000000000101000 O
b00000000000000000000000011111101 P
b00000000000000000000000000100100 Q
b00000000000000000000000011111110 R
b11111111111111111111111100000000 S
b11111111111111111111111100000000 T
b00000000 U
b00010101 W
b000 X
b00000010010000000000000011101111 Y
1Z
b000 ]
0^
b000 a
b000 b
b00 c
0e
b10 h
b00 k
0l
b000000000000000 n
b00000000000000000000000000001000 r
1s
#24
0s
#25
b001 #
b000 $
b10 &
b00000010010000000000000011101111 )
b00000000000000000000000000100100 *
b00000000000000000000000000000100 +
b00000000000000000000000000001000 ,
b00000 4
b00000000000000000000000000001000 8
b00000000000000000000000000001100 9
b00100 @
b00001 A
b1101111 B
b00000000000000000000000000000000 M
b00000000000000000000000000000000 O
b00000000000000000000000011111110 P
b00000000000000000000000000101000 Q
b00000000000000000000000011111101 R
b00000000000000000000000000000100 S
b00000000000000000000000000101000 T
b00000100 V
b00000000 W
b011 X
b00000100010000000000000011101111 Y
b10 [
1_
b001 a
b00 h
1l
b001100010001100 n
b00000000000000000000000000001100 r
1s
#26
0s
#27
b000 #
b00 &
b00000100010000000000000011101111 )
b00000000000000000000000001000100 *
b00000000000000000000000000001000 +
b00000000000000000000000000001100 ,
b011 -
b00000000000000000000000000101000 /
b01 0
b00100 2
b00001 5
b1101111 6
b00000000000000000000000000001100 8
b00000000000000000000000000010000 9
1>
b00000000000000000000000000000100 G
b00000000000000000000000000001000 H
b00000000000000000000000000100100 L
b00000000000000000000000000000000 Q
b00000000000000000000000011111110 R
b00000000000000000000000000000000 S
b00000000000000000000000000000000 T
b11111111110111111111000011101111 Y
b001 b
b10 c
1e
0o
b00000000000000000000000000101000 r
1s
#28
0s
#29
b001 $
b00000000000000000000000000000000 )
b00000000000000000000000000000000 *
b00000000000000000000000000000000 +
b00000000000000000000000000000000 ,
b000 -
b00000000000000000000000000000000 /
b00 0
b00000 2
b00001 3
b00000 5
b0000000 6
b00000000000000000000000000101000 8
b00000000000000000000000000101100 9
0>
b00000 @
b00000 A
b0000000 B
b00000000000000000000000000000000 G
b00000000000000000000000000000000 H
b00000000000000000000000000000000 L
b00000000000000000000000000001000 O
b00000000 V
b000 X
b00000000000000010000010110110111 Y
b00 [
0_
b000 a
b000 b
b00 c
0e
b10 h
0l
b000000000000000 n
1o
b00000000000000000000000000101100 r
1s
#30
0s
