pipelined/cpu.vcd
$version Generated by VerilatedVcd $end
$date Wed Dec 13 10:19:58 2023
 $end
$timescale   1ps $end

 $scope module TOP $end
  $var wire 32 q a0 [31:0] $end
  $var wire  1 o clk $end
  $var wire  1 p rst $end
  $scope module cpu $end
   $var wire 32 t ADDRESS_WIDTH [31:0] $end
   $var wire  3 2 ALUControlE [2:0] $end
   $var wire 32 4 ALUResultE [31:0] $end
   $var wire  1 3 ALUSrcE $end
   $var wire 32 v CONTROL_WIDTH [31:0] $end
   $var wire 32 u DATA_WIDTH [31:0] $end
   $var wire  1 l Den $end
   $var wire  1 n Drst $end
   $var wire 32 M ExtImmD [31:0] $end
   $var wire  1 l Fen $end
   $var wire  2 ; FowardAE [1:0] $end
   $var wire  2 < FowardBE [1:0] $end
   $var wire  1 m Frst $end
   $var wire 32 w IMM_WIDTH [31:0] $end
   $var wire 32 L InstrD [31:0] $end
   $var wire  2 % MemWriteM [1:0] $end
   $var wire  7 9 OpcodeE [6:0] $end
   $var wire 32 N PCD [31:0] $end
   $var wire 32 P PCF [31:0] $end
   $var wire 32 O PCPlus4D [31:0] $end
   $var wire 32 Q PCPlus4F [31:0] $end
   $var wire  2 k PCSrcE [1:0] $end
   $var wire 32 5 PCTarget [31:0] $end
   $var wire  1 r PCen $end
   $var wire  1 m PCrst $end
   $var wire  5 8 RdE [4:0] $end
   $var wire  5 ' RdM [4:0] $end
   $var wire  5 ( RdW [4:0] $end
   $var wire  3 $ RegWriteM [2:0] $end
   $var wire  3 # RegWriteW [2:0] $end
   $var wire  2 & ResultSrcW [1:0] $end
   $var wire  5 6 Rs1E [4:0] $end
   $var wire  5 7 Rs2E [4:0] $end
   $var wire  1 : ZeroE $end
   $var wire 32 q a0 [31:0] $end
   $var wire  1 o clk $end
   $var wire  1 p rst $end
   $scope module alu $end
    $var wire  3 2 ALUControlE_i [2:0] $end
    $var wire 32 4 ALUResultE_o [31:0] $end
    $var wire 32 * ALUResultM [31:0] $end
    $var wire 32 0 ALUResultW [31:0] $end
    $var wire  1 3 ALUSrcE_i $end
    $var wire 32 v CONTROL_WIDTH [31:0] $end
    $var wire 32 u DATA_WIDTH [31:0] $end
    $var wire  1 l Den_i $end
    $var wire  1 n Drst_i $end
    $var wire 32 M ExtImmD_i [31:0] $end
    $var wire 32 K ExtImmE [31:0] $end
    $var wire  2 ; FowardAE_i [1:0] $end
    $var wire  2 < FowardBE_i [1:0] $end
    $var wire  2 % MemWriteM_i [1:0] $end
    $var wire 32 N PCD_i [31:0] $end
    $var wire 32 F PCE [31:0] $end
    $var wire 32 O PCPlus4D_i [31:0] $end
    $var wire 32 G PCPlus4E [31:0] $end
    $var wire 32 , PCPlus4M [31:0] $end
    $var wire 32 . PCPlus4W [31:0] $end
    $var wire 32 5 PCTargetE_o [31:0] $end
    $var wire 32 f RD1D [31:0] $end
    $var wire 32 D RD1E [31:0] $end
    $var wire 32 g RD2D [31:0] $end
    $var wire 32 E RD2E [31:0] $end
    $var wire  5 e RdD_i [4:0] $end
    $var wire  5 8 RdE_o [4:0] $end
    $var wire  5 ' RdM_o [4:0] $end
    $var wire  5 ( RdW_o [4:0] $end
    $var wire 32 - ReadDataM [31:0] $end
    $var wire 32 / ReadDataW [31:0] $end
    $var wire  3 # RegWriteW_i [2:0] $end
    $var wire  2 & ResultSrcW_i [1:0] $end
    $var wire 32 1 ResultW [31:0] $end
    $var wire  5 c Rs1D_i [4:0] $end
    $var wire  5 6 Rs1E_o [4:0] $end
    $var wire  5 d Rs2D_i [4:0] $end
    $var wire  5 7 Rs2E_o [4:0] $end
    $var wire 32 H SrcAE [31:0] $end
    $var wire 32 I SrcBE [31:0] $end
    $var wire 32 J WriteDataE [31:0] $end
    $var wire 32 + WriteDataM [31:0] $end
    $var wire  1 : ZeroE_o $end
    $var wire 32 q a0 [31:0] $end
    $var wire  1 o clk $end
    $var wire  7 [ opcodeD_i [6:0] $end
    $var wire  7 9 opcodeE_o [6:0] $end
    $scope module ALU $end
     $var wire  3 2 ALUControl [2:0] $end
     $var wire 32 4 ALUResult [31:0] $end
     $var wire 32 v CONTROL_WIDTH [31:0] $end
     $var wire 32 u DATA_WIDTH [31:0] $end
     $var wire 32 H SrcA [31:0] $end
     $var wire 32 I SrcB [31:0] $end
     $var wire  1 : Zero $end
    $upscope $end
    $scope module ALUMux $end
     $var wire 32 u DATA_WIDTH [31:0] $end
     $var wire  1 3 control $end
     $var wire 32 J input0 [31:0] $end
     $var wire 32 K input1 [31:0] $end
     $var wire 32 I out [31:0] $end
    $upscope $end
    $scope module DREg $end
     $var wire 32 u DATA_WIDTH [31:0] $end
     $var wire 32 M ExtImmD [31:0] $end
     $var wire 32 K ExtImmE [31:0] $end
     $var wire 32 N PCD [31:0] $end
     $var wire 32 F PCE [31:0] $end
     $var wire 32 O PCPlus4D [31:0] $end
     $var wire 32 G PCPlus4E [31:0] $end
     $var wire 32 f RD1D [31:0] $end
     $var wire 32 D RD1E [31:0] $end
     $var wire 32 g RD2D [31:0] $end
     $var wire 32 E RD2E [31:0] $end
     $var wire  5 e RdD [4:0] $end
     $var wire  5 8 RdE [4:0] $end
     $var wire  5 c Rs1D [4:0] $end
     $var wire  5 6 Rs1E [4:0] $end
     $var wire  5 d Rs2D [4:0] $end
     $var wire  5 7 Rs2E [4:0] $end
     $var wire  1 o clk $end
     $var wire  1 l en $end
     $var wire  7 [ opcodeD [6:0] $end
     $var wire  7 9 opcodeE [6:0] $end
     $var wire  1 n rst $end
    $upscope $end
    $scope module EREG $end
     $var wire 32 4 ALUResultE [31:0] $end
     $var wire 32 * ALUResultM [31:0] $end
     $var wire 32 u DATA_WIDTH [31:0] $end
     $var wire 32 G PCPlus4E [31:0] $end
     $var wire 32 , PCPlus4M [31:0] $end
     $var wire  5 8 RdE [4:0] $end
     $var wire  5 ' RdM [4:0] $end
     $var wire 32 J WriteDataE [31:0] $end
     $var wire 32 + WriteDataM [31:0] $end
     $var wire  1 o clk $end
    $upscope $end
    $scope module MREG $end
     $var wire 32 * ALUResultM [31:0] $end
     $var wire 32 0 ALUResultW [31:0] $end
     $var wire 32 u DATA_WIDTH [31:0] $end
     $var wire 32 , PCPlus4M [31:0] $end
     $var wire 32 . PCPlus4W [31:0] $end
     $var wire  5 ' RdM [4:0] $end
     $var wire  5 ( RdW [4:0] $end
     $var wire 32 - ReadDataM [31:0] $end
     $var wire 32 / ReadDataW [31:0] $end
     $var wire  1 o clk $end
    $upscope $end
    $scope module RD1EHazardMux $end
     $var wire 32 w CONTROL_WIDTH [31:0] $end
     $var wire 32 u DATA_WIDTH [31:0] $end
     $var wire  2 ; control [1:0] $end
     $var wire 32 D input0 [31:0] $end
     $var wire 32 1 input1 [31:0] $end
     $var wire 32 * input2 [31:0] $end
     $var wire 32 H out [31:0] $end
    $upscope $end
    $scope module RD2EHazardMux $end
     $var wire 32 w CONTROL_WIDTH [31:0] $end
     $var wire 32 u DATA_WIDTH [31:0] $end
     $var wire  2 < control [1:0] $end
     $var wire 32 E input0 [31:0] $end
     $var wire 32 1 input1 [31:0] $end
     $var wire 32 * input2 [31:0] $end
     $var wire 32 J out [31:0] $end
    $upscope $end
    $scope module addPCTargetE $end
     $var wire 32 u DATA_WIDTH [31:0] $end
     $var wire 32 F input0 [31:0] $end
     $var wire 32 K input1 [31:0] $end
     $var wire 32 5 out [31:0] $end
    $upscope $end
    $scope module data $end
     $var wire 32 * A [31:0] $end
     $var wire 32 t ADDRESS_WIDTH [31:0] $end
     $var wire 32 u DATA_WIDTH [31:0] $end
     $var wire 32 - RD [31:0] $end
     $var wire 32 + WD [31:0] $end
     $var wire  2 % WE [1:0] $end
     $var wire  1 o clk $end
    $upscope $end
    $scope module register $end
     $var wire  8 h A1 [7:0] $end
     $var wire  5 c A1_i [4:0] $end
     $var wire  8 i A2 [7:0] $end
     $var wire  5 d A2_i [4:0] $end
     $var wire  8 j A3 [7:0] $end
     $var wire  5 e A3_i [4:0] $end
     $var wire 32 t ADDRESS_WIDTH [31:0] $end
     $var wire 32 u DATA_WIDTH [31:0] $end
     $var wire 32 f RD1 [31:0] $end
     $var wire 32 g RD2 [31:0] $end
     $var wire 32 1 WD3 [31:0] $end
     $var wire  3 # WE3 [2:0] $end
     $var wire 32 q a0 [31:0] $end
     $var wire  1 o clk $end
    $upscope $end
    $scope module resultMux $end
     $var wire 32 w CONTROL_WIDTH [31:0] $end
     $var wire 32 u DATA_WIDTH [31:0] $end
     $var wire  2 & control [1:0] $end
     $var wire 32 0 input0 [31:0] $end
     $var wire 32 / input1 [31:0] $end
     $var wire 32 . input2 [31:0] $end
     $var wire 32 1 out [31:0] $end
    $upscope $end
   $upscope $end
   $scope module control $end
    $var wire 32 t ADDRESS_WIDTH [31:0] $end
    $var wire  3 V ALUControlD [2:0] $end
    $var wire  3 2 ALUControlE_o [2:0] $end
    $var wire  1 W ALUSrcD $end
    $var wire  1 3 ALUSrcE_o $end
    $var wire  1 Y BranchD $end
    $var wire  1 B BranchE $end
    $var wire 32 u DATA_WIDTH [31:0] $end
    $var wire  1 l Den_i $end
    $var wire  1 n Drst_i $end
    $var wire 32 M ExtImmD_o [31:0] $end
    $var wire  1 l Fen_i $end
    $var wire  1 m Frst_i $end
    $var wire  3 R ImmSrcD [2:0] $end
    $var wire 32 L InstrD_o [31:0] $end
    $var wire 32 S InstrF [31:0] $end
    $var wire  1 X JumpD $end
    $var wire  1 A JumpE $end
    $var wire  2 U MemWriteD [1:0] $end
    $var wire  2 @ MemWriteE [1:0] $end
    $var wire  2 % MemWriteM_o [1:0] $end
    $var wire 32 N PCD_o [31:0] $end
    $var wire 32 P PCF_i [31:0] $end
    $var wire 32 O PCPlus4D_o [31:0] $end
    $var wire 32 Q PCPlus4F_i [31:0] $end
    $var wire  2 k PCSrcE_o [1:0] $end
    $var wire  3 Z RegWriteD [2:0] $end
    $var wire  3 > RegWriteE [2:0] $end
    $var wire  3 $ RegWriteM_o [2:0] $end
    $var wire  3 # RegWriteW_o [2:0] $end
    $var wire  2 T ResultSrcD [1:0] $end
    $var wire  2 ? ResultSrcE [1:0] $end
    $var wire  2 ) ResultSrcM [1:0] $end
    $var wire  2 & ResultSrcW_o [1:0] $end
    $var wire  1 : ZeroE_i $end
    $var wire  1 = ZeroOp $end
    $var wire  1 o clk $end
    $var wire  3 C funct3E [2:0] $end
    $scope module ControlUnit $end
     $var wire  3 V ALUControlD [2:0] $end
     $var wire  2 ^ ALUOpD [1:0] $end
     $var wire  1 W ALUSrcD $end
     $var wire  1 Y BranchD $end
     $var wire  3 R ImmSrcD [2:0] $end
     $var wire  1 X JumpD $end
     $var wire  2 U MemWriteD [1:0] $end
     $var wire 32 x OP_WIDTH [31:0] $end
     $var wire  3 Z RegWriteD [2:0] $end
     $var wire  2 T ResultSrcD [1:0] $end
     $var wire  3 \ funct3 [2:0] $end
     $var wire  1 ] funct7b5 $end
     $var wire  7 [ op [6:0] $end
     $scope module aludec $end
      $var wire  3 V ALUControl [2:0] $end
      $var wire  2 ^ ALUOp [1:0] $end
      $var wire 32 v CONTROL_WIDTH [31:0] $end
      $var wire  1 a RtypeSub $end
      $var wire  3 \ funct3 [2:0] $end
      $var wire  1 ] funct7b5 $end
      $var wire  1 ` opb5 $end
     $upscope $end
     $scope module maindec $end
      $var wire  2 ^ ALUOp [1:0] $end
      $var wire  1 W ALUSrc $end
      $var wire  1 Y Branch $end
      $var wire  3 R ImmSrc [2:0] $end
      $var wire  1 X Jump $end
      $var wire  2 U MemWrite [1:0] $end
      $var wire 32 x OP_WIDTH [31:0] $end
      $var wire  3 Z RegWrite [2:0] $end
      $var wire  2 T ResultSrc [1:0] $end
      $var wire 15 _ controls [14:0] $end
      $var wire  3 \ funct3 [2:0] $end
      $var wire  7 [ op [6:0] $end
     $upscope $end
    $upscope $end
    $scope module DReg $end
     $var wire  3 V ALUControlD [2:0] $end
     $var wire  3 2 ALUControlE [2:0] $end
     $var wire  1 W ALUSrcD $end
     $var wire  1 3 ALUSrcE $end
     $var wire  1 Y BranchD $end
     $var wire  1 B BranchE $end
     $var wire 32 u DATA_WIDTH [31:0] $end
     $var wire  1 X JumpD $end
     $var wire  1 A JumpE $end
     $var wire  2 U MemWriteD [1:0] $end
     $var wire  2 @ MemWriteE [1:0] $end
     $var wire  3 Z RegWriteD [2:0] $end
     $var wire  3 > RegWriteE [2:0] $end
     $var wire  2 T ResultSrcD [1:0] $end
     $var wire  2 ? ResultSrcE [1:0] $end
     $var wire  1 o clk $end
     $var wire  1 l en $end
     $var wire  3 \ funct3D [2:0] $end
     $var wire  3 C funct3E [2:0] $end
     $var wire  1 n rst $end
    $upscope $end
    $scope module EREG $end
     $var wire 32 u DATA_WIDTH [31:0] $end
     $var wire  2 @ MemWriteE [1:0] $end
     $var wire  2 % MemWriteM [1:0] $end
     $var wire  3 > RegWriteE [2:0] $end
     $var wire  3 $ RegWriteM [2:0] $end
     $var wire  2 ? ResultSrcE [1:0] $end
     $var wire  2 ) ResultSrcM [1:0] $end
     $var wire  1 o clk $end
    $upscope $end
    $scope module FReg $end
     $var wire 32 u DATA_WIDTH [31:0] $end
     $var wire 32 L InstrD [31:0] $end
     $var wire 32 S InstrF [31:0] $end
     $var wire 32 N PCD [31:0] $end
     $var wire 32 P PCF [31:0] $end
     $var wire 32 O PCPlus4D [31:0] $end
     $var wire 32 Q PCPlus4F [31:0] $end
     $var wire  1 o clk $end
     $var wire  1 l en $end
     $var wire  1 m rst $end
    $upscope $end
    $scope module InstrMem $end
     $var wire 32 t ADDRESS_WIDTH [31:0] $end
     $var wire 32 u DATA_WIDTH [31:0] $end
     $var wire 32 S Instr_o [31:0] $end
     $var wire 32 P addr_i [31:0] $end
    $upscope $end
    $scope module MREG $end
     $var wire 32 u DATA_WIDTH [31:0] $end
     $var wire  3 $ RegWriteM [2:0] $end
     $var wire  3 # RegWriteW [2:0] $end
     $var wire  2 ) ResultSrcM [1:0] $end
     $var wire  2 & ResultSrcW [1:0] $end
     $var wire  1 o clk $end
    $upscope $end
    $scope module MySignExtend $end
     $var wire 32 u DATA_WIDTH [31:0] $end
     $var wire 32 M ExtImm [31:0] $end
     $var wire 32 v IMM_WIDTH [31:0] $end
     $var wire  3 R ImmSrc [2:0] $end
     $var wire 25 b instr [31:7] $end
    $upscope $end
   $upscope $end
   $scope module hazard $end
    $var wire  1 l Den_o $end
    $var wire  1 n Drst_o $end
    $var wire  1 l Fen_o $end
    $var wire  2 ; FowardAE_o [1:0] $end
    $var wire  2 < FowardBE_o [1:0] $end
    $var wire  1 m Frst_o $end
    $var wire  2 k PCSrcE_i [1:0] $end
    $var wire  1 r PCen_o $end
    $var wire  1 m PCrst_o $end
    $var wire  5 8 RdE_i [4:0] $end
    $var wire  5 ' RdM_i [4:0] $end
    $var wire  5 ( RdW_i [4:0] $end
    $var wire  3 $ RegWriteM_i [2:0] $end
    $var wire  3 # RegWriteW_i [2:0] $end
    $var wire  5 c Rs1D_i [4:0] $end
    $var wire  5 6 Rs1E_i [4:0] $end
    $var wire  5 d Rs2D_i [4:0] $end
    $var wire  5 7 Rs2E_i [4:0] $end
    $var wire  7 9 opcodeE_i [6:0] $end
    $scope module ControlHazard $end
     $var wire  1 n Drst $end
     $var wire  1 m Frst $end
     $var wire  2 k PCSrcE [1:0] $end
     $var wire  1 m PCrst $end
    $upscope $end
    $scope module FowardHazard $end
     $var wire  2 ; FowardAE [1:0] $end
     $var wire  2 < FowardBE [1:0] $end
     $var wire  5 ' RdM [4:0] $end
     $var wire  5 ( RdW [4:0] $end
     $var wire  3 $ RegWriteM [2:0] $end
     $var wire  3 # RegWriteW [2:0] $end
     $var wire  5 6 Rs1E [4:0] $end
     $var wire  5 7 Rs2E [4:0] $end
    $upscope $end
    $scope module StallHazard $end
     $var wire  1 l Den $end
     $var wire  1 l Fen $end
     $var wire  1 r PCen $end
     $var wire  5 8 RdE [4:0] $end
     $var wire  5 c Rs1D [4:0] $end
     $var wire  5 d Rs2D [4:0] $end
     $var wire  7 9 opcodeE [6:0] $end
    $upscope $end
   $upscope $end
   $scope module pc $end
    $var wire 32 4 ALUResultE_i [31:0] $end
    $var wire 32 u DATA_WIDTH [31:0] $end
    $var wire 32 P PCF_o [31:0] $end
    $var wire 32 Q PCPlus4F_o [31:0] $end
    $var wire  2 k PCSrc_i [1:0] $end
    $var wire 32 5 PCTarget_i [31:0] $end
    $var wire  1 r PCen_i $end
    $var wire  1 m PCrst_i $end
    $var wire  1 o clk $end
    $var wire 32 s next_PC [31:0] $end
    $scope module pc_mux $end
     $var wire 32 w CONTROL_WIDTH [31:0] $end
     $var wire 32 u DATA_WIDTH [31:0] $end
     $var wire  2 k control [1:0] $end
     $var wire 32 Q input0 [31:0] $end
     $var wire 32 5 input1 [31:0] $end
     $var wire 32 4 input2 [31:0] $end
     $var wire 32 s out [31:0] $end
    $upscope $end
    $scope module pc_reg $end
     $var wire  1 r PCen $end
     $var wire 32 u WIDTH [31:0] $end
     $var wire  1 o clk $end
     $var wire 32 s next_PC [31:0] $end
     $var wire 32 P pc [31:0] $end
     $var wire  1 m rst $end
    $upscope $end
   $upscope $end
  $upscope $end
 $upscope $end
$enddefinitions $end


#0
b000 #
b000 $
b00 %
b00 &
b00000 '
b00000 (
b00 )
b00000000000000000000000000000000 *
b00000000000000000000000000000000 +
b00000000000000000000000000000000 ,
b00000000000000000000000000000000 -
b00000000000000000000000000000000 .
b00000000000000000000000000000000 /
b00000000000000000000000000000000 0
b00000000000000000000000000000000 1
b000 2
03
b00000000000000000000000000000000 4
b00000000000000000000000000000000 5
b00000 6
b00000 7
b00000 8
b0000000 9
1:
b00 ;
b00 <
1=
b000 >
b00 ?
b00 @
0A
0B
b000 C
b00000000000000000000000000000000 D
b00000000000000000000000000000000 E
b00000000000000000000000000000000 F
b00000000000000000000000000000000 G
b00000000000000000000000000000000 H
b00000000000000000000000000000000 I
b00000000000000000000000000000000 J
b00000000000000000000000000000000 K
b00000000000000000000000000000000 L
b00000000000000000000000000000000 M
b00000000000000000000000000000000 N
b00000000000000000000000000000000 O
b00000000000000000000000000000000 P
b00000000000000000000000000000100 Q
b000 R
b00000000000000000000000000000000 S
b00 T
b00 U
b000 V
0W
0X
0Y
b000 Z
b0000000 [
b000 \
0]
b00 ^
b000000000000000 _
0`
0a
b0000000000000000000000000 b
b00000 c
b00000 d
b00000 e
b00000000000000000000000000000000 f
b00000000000000000000000000000000 g
b00000000 h
b00000000 i
b00000000 j
b00 k
0l
0m
0n
0o
0p
b00000000000000000000000000000000 q
1r
b00000000000000000000000000000100 s
b00000000000000000000000000001000 t
b00000000000000000000000000100000 u
b00000000000000000000000000000011 v
b00000000000000000000000000000010 w
b00000000000000000000000000000111 x
#1
b00000000000000000000000011111110 -
b00000001000000000000000011101111 S
1l
1o
#2
0o
#3
b00000000000000000000000011111110 /
b00000001000000000000000011101111 L
b00000000000000000000000000010000 M
b00000000000000000000000000000100 O
b00000000000000000000000000000100 P
b00000000000000000000000000001000 Q
b011 R
b00000010010000000000000011101111 S
b10 T
1Y
b001 Z
b1101111 [
b001100001001100 _
1`
b0000000100000000000000001 b
b10000 d
b00001 e
b00010000 i
b00000001 j
1o
b00000000000000000000000000001000 s
#4
0o
#5
b00000010010000000000000011101111 L
b00000000000000000000000000100100 M
b00000000000000000000000000000100 N
b00000000000000000000000000001000 O
b00000000000000000000000000001000 P
b00000000000000000000000000001100 Q
b00000100010000000000000011101111 S
b0000001001000000000000001 b
b00100 d
b00000100 i
1o
b00000000000000000000000000001100 s
#6
0o
#7
b00000100010000000000000011101111 L
b00000000000000000000000001000100 M
b00000000000000000000000000001000 N
b00000000000000000000000000001100 O
b00000000000000000000000000001100 P
b00000000000000000000000000010000 Q
b11111111110111111111000011101111 S
b0000010001000000000000001 b
1o
b00000000000000000000000000010000 s
#8
0o
#9
b11111111110111111111000011101111 L
b11111111111111111111111111111100 M
b00000000000000000000000000001100 N
b00000000000000000000000000010000 O
b00000000000000000000000000010000 P
b00000000000000000000000000010100 Q
b00010000000000000000010110010011 S
b111 \
1]
1a
b1111111111011111111100001 b
b11111 c
b11101 d
b00011111 h
b00011101 i
1o
b00000000000000000000000000010100 s
#10
0o
#11
b00000000000000000000000000001000 5
b11111 6
b11101 7
b00001 8
b1101111 9
0=
b001 >
b10 ?
1B
b111 C
b00000000000000000000000000001100 F
b00000000000000000000000000010000 G
b11111111111111111111111111111100 K
b00010000000000000000010110010011 L
b00000000000000000000000100000000 M
b00000000000000000000000000010000 N
b00000000000000000000000000010100 O
b00000000000000000000000000010100 P
b00000000000000000000000000011000 Q
b000 R
b00001111111100000000010110010011 S
b00 T
0Y
b0010011 [
b000 \
0]
b10 ^
b001000000000010 _
0`
0a
b0001000000000000000001011 b
b00000 c
b00000 d
b01011 e
b00000000 h
b00000000 i
b00001011 j
1o
b00000000000000000000000000011000 s
#12
0o
#13
b001 $
b00001 '
b10 )
b00000000000000000000000000010000 ,
b00000000000000000000000100010000 5
b00000 6
b00000 7
b01011 8
b0010011 9
b01 ;
b01 <
1=
b00 ?
0B
b000 C
b00000000000000000000000000010000 F
b00000000000000000000000000010100 G
b00000000000000000000000100000000 K
b00001111111100000000010110010011 L
b00000000000000000000000011111111 M
b00000000000000000000000000010100 N
b00000000000000000000000000011000 O
b00000000000000000000000000011000 P
b00000000000000000000000000011100 Q
b00000000000000000000010100010011 S
b0000111111110000000001011 b
b11111 d
b00011111 i
1o
b00000000000000000000000000011100 s
#14
0o
#15
b001 #
b10 &
b01011 '
b00001 (
b00 )
b00000000000000000000000000010100 ,
b00000000000000000000000000010000 .
b00000000000000000000000000010000 1
b00000000000000000000000100010011 5
b11111 7
b00 ;
b00 <
b00000000000000000000000000010100 F
b00000000000000000000000000011000 G
b00000000000000000000000011111111 K
b00000000000000000000010100010011 L
b00000000000000000000000000000000 M
b00000000000000000000000000011000 N
b00000000000000000000000000011100 O
b00000000000000000000000000011100 P
b00000000000000000000000000100000 Q
b00010000000001011000000000100011 S
b0000000000000000000001010 b
b00000 d
b01010 e
b00000000 i
b00001010 j
1o
b00000000000000000000000000100000 s
#16
0o
#17
b00 &
b01011 (
b00000000000000000000000000011000 ,
b00000000000000000000000000010100 .
b00000000000000000000000000000000 1
b00000000000000000000000000011000 5
b00000 7
b01010 8
b00000000000000000000000000011000 F
b00000000000000000000000000011100 G
b00000000000000000000000000000000 K
b00010000000001011000000000100011 L
b00000000000000000000000100000000 M
b00000000000000000000000000011100 N
b00000000000000000000000000100000 O
b00000000000000000000000000100000 P
b00000000000000000000000000100100 Q
b010 R
b11111110101101010000101011100011 S
b11 U
1W
b000 Z
b0100011 [
b00 ^
b000001100101000 _
1`
b0001000000000101100000000 b
b01011 c
b00000 e
b00001011 h
b00000000 j
1o
b00000000000000000000000000100100 s
#18
0o
#19
b01010 '
b00000000000000000000000000011100 ,
b00000000000000000000000000011000 .
13
b00000000000000000000000100000000 4
b00000000000000000000000100011100 5
b01011 6
b00000 8
b0100011 9
0:
b01 ;
0=
b000 >
b11 @
b00000000000000000000000000011100 F
b00000000000000000000000000100000 G
b00000000000000000000000100000000 I
b00000000000000000000000100000000 K
b11111110101101010000101011100011 L
b11111111111111111111111111110100 M
b00000000000000000000000000100000 N
b00000000000000000000000000100100 O
b00000000000000000000000000100100 P
b00000000000000000000000000101000 Q
b00000000000000001000000001100111 S
b00 U
b001 V
0W
1Y
b1100011 [
1]
b01 ^
b000000001001001 _
1a
b1111111010110101000010101 b
b01010 c
b01011 d
b10101 e
b00000000000000000000000000010000 f
b00001010 h
b00001011 i
b00010101 j
1o
b00000000000000000000000000101000 s
#20
0o
#21
b000 $
b11 %
b00000 '
b01010 (
b00000000000000000000000100000000 *
b00000000000000000000000000100000 ,
b00000000000000000000000000011100 .
03
b00000000000000000000001000000000 4
b00000000000000000000000000000000 5
b00000 6
b0000000 9
1:
b10 ;
b10 <
1=
b00 @
b00000000000000000000000000000000 F
b00000000000000000000000000000000 G
b00000000000000000000000100000000 H
b00000000000000000000000100000000 J
b00000000000000000000000000000000 K
b00000000000000001000000001100111 L
b00000000000000000000000000000000 M
b00000000000000000000000000100100 N
b00000000000000000000000000101000 O
b00000000000000000000000000101000 P
b00000000000000000000000000101100 Q
b000 R
b00000000000000010000010110110111 S
b10 T
b000 V
1W
1X
0Y
b001 Z
b1100111 [
0]
b00 ^
b001100010100000 _
0a
b0000000000000000100000000 b
b00001 c
b00000 d
b00000 e
b00000000000000000000000000000000 f
b00000001 h
b00000000 i
b00000000 j
1o
b00000000000000000000000000101100 s
#22
0o
#23
b000 #
b00 %
b00000 (
b00000000000000000000001000000000 *
b00000000000000000000000100000000 +
b00000000000000000000000000000000 ,
b00000000000000000000000000000000 -
b00000000000000000000000000100000 .
b00000000000000000000000100000000 0
b00000000000000000000000100000000 1
b00000000000000000000000000000000 4
b00 ;
b00 <
b00000000000000000000000000000000 H
b00000000000000000000000000000000 I
b00000000000000000000000000000000 J
b00000000000000010000010110110111 L
b00000000000000010000000000000000 M
b00000000000000000000000000101000 N
b00000000000000000000000000101100 O
b00000000000000000000000000101100 P
b00000000000000000000000000110000 Q
b100 R
b00000000000000000000011000010011 S
b00 T
b111 V
0X
b0110111 [
b11 ^
b001000000110011 _
b0000000000000001000001011 b
b00010 c
b01011 e
b00000010 h
b00001011 j
1o
b00000000000000000000000000110000 s
#24
0o
#25
b00000000000000000000000000000000 *
b00000000000000000000000000000000 +
b00000000000000000000000000000000 .
b00000000000000000000000000000000 /
b00000000000000000000001000000000 0
b00000000000000000000001000000000 1
b111 2
13
b00000000000000010000000000000000 4
b00000000000000010000000000101000 5
b00010 6
b01011 8
b0110111 9
0:
0=
b001 >
b00000000000000000000000000101000 F
b00000000000000000000000000101100 G
b00000000000000010000000000000000 I
b00000000000000010000000000000000 K
b00000000000000000000011000010011 L
b00000000000000000000000000000000 M
b00000000000000000000000000101100 N
b00000000000000000000000000110000 O
b00000000000000000000000000110000 P
b00000000000000000000000000110100 Q
b000 R
b00010000000000000000011010010011 S
b000 V
0W
b0010011 [
b10 ^
b001000000000010 _
0`
b0000000000000000000001100 b
b00000 c
b01100 e
b00000000 h
b00001100 j
1o
b00000000000000000000000000110100 s
#26
0o
#27
b001 $
b01011 '
b00000000000000010000000000000000 *
b00000000000000000000000000101100 ,
b00000000000000000000000000000000 0
b00000000000000000000000000000000 1
b000 2
03
b00000000000000000000000000000000 4
b00000000000000000000000000101100 5
b00000 6
b01100 8
b0010011 9
1:
b01 ;
b01 <
1=
b00000000000000000000000000101100 F
b00000000000000000000000000110000 G
b00000000000000000000000000000000 I
b00000000000000000000000000000000 K
b00010000000000000000011010010011 L
b00000000000000000000000100000000 M
b00000000000000000000000000110000 N
b00000000000000000000000000110100 O
b00000000000000000000000000110100 P
b00000000000000000000000000111000 Q
b00011111010000000000011100010011 S
b0001000000000000000001101 b
b01101 e
b00001101 j
1o
b00000000000000000000000000111000 s
#28
0o
#29
b001 #
b01100 '
b01011 (
b00000000000000000000000000000000 *
b00000000000000000000000000110000 ,
b00000000000000000000000000101100 .
b00000000000000010000000000000000 0
b00000000000000010000000000000000 1
b00000000000000000000000100110000 5
b01101 8
b00 ;
b00 <
b00000000000000000000000000110000 F
b00000000000000000000000000110100 G
b00000000000000000000000100000000 K
b00011111010000000000011100010011 L
b00000000000000000000000111110100 M
b00000000000000000000000000110100 N
b00000000000000000000000000111000 O
b00000000000000000000000000111000 P
b00000000000000000000000000111100 Q
b00000000000101010001010100010011 S
b0001111101000000000001110 b
b10100 d
b01110 e
b00010100 i
b00001110 j
1o
b00000000000000000000000000111100 s
#30
0o
#31
b01101 '
b01100 (
b00000000000000000000000000110100 ,
b00000000000000000000000000110000 .
b00000000000000000000000000000000 0
b00000000000000000000000000000000 1
b00000000000000000000001000101000 5
b10100 7
b01110 8
b00000000000000000000000000110100 F
b00000000000000000000000000111000 G
b00000000000000000000000111110100 K
b00000000000101010001010100010011 L
b00000000000000000000000000000001 M
b00000000000000000000000000111000 N
b00000000000000000000000000111100 O
b00000000000000000000000000111100 P
b00000000000000000000000001000000 Q
b00000000000101010000010100010011 S
b100 V
b001 \
b0000000000010101000101010 b
b01010 c
b00001 d
b01010 e
b00000000000000000000000000010000 f
b00001010 h
b00000001 i
b00001010 j
1o
b00000000000000000000000001000000 s
#32
0o
#33
b01110 '
b01101 (
b00000000000000000000000000111000 ,
b00000000000000000000000000110100 .
b100 2
b00000000000000000000000000010000 4
b00000000000000000000000000111001 5
b01010 6
b00001 7
b01010 8
0:
b001 C
b00000000000000000000000000010000 D
b00000000000000000000000000111000 F
b00000000000000000000000000111100 G
b00000000000000000000000000010000 H
b00000000000000000000000000000001 K
b00000000000101010000010100010011 L
b00000000000000000000000000111100 N
b00000000000000000000000001000000 O
b00000000000000000000000001000000 P
b00000000000000000000000001000100 Q
b00001111111100000000001010010011 S
b000 V
b000 \
b0000000000010101000001010 b
b00000000000000000000000000000000 f
1o
b00000000000000000000000001000100 s
#34
0o
#35
b01010 '
b01110 (
b00000000000000000000000000010000 *
b00000000000000000000000000111100 ,
b00000000000000000000000011110100 -
b00000000000000000000000000111000 .
b000 2
b00000000000000000000000000111101 5
b10 ;
0=
b000 C
b00000000000000000000000000000000 D
b00000000000000000000000000111100 F
b00000000000000000000000001000000 G
b00001111111100000000001010010011 L
b00000000000000000000000011111111 M
b00000000000000000000000001000000 N
b00000000000000000000000001000100 O
b00000000000000000000000001000100 P
b00000000000000000000000001001000 Q
b11111110010101010001101011100011 S
b0000111111110000000000101 b
b00000 c
b11111 d
b00101 e
b00000000 h
b00011111 i
b00000101 j
1o
b00000000000000000000000001001000 s
#36
0o
