pipelined/cpu.vcd
$version Generated by VerilatedVcd $end
$date Thu Dec 14 14:32:51 2023
 $end
$timescale   1ps $end

 $scope module TOP $end
  $var wire 32 w a0 [31:0] $end
  $var wire  1 u clk $end
  $var wire  1 v rst $end
  $scope module cpu $end
   $var wire 32 x ADDRESS_WIDTH [31:0] $end
   $var wire  3 ' ALUControlE [2:0] $end
   $var wire 32 . ALUResultE [31:0] $end
   $var wire  1 ( ALUSrcE $end
   $var wire 32 z CONTROL_WIDTH [31:0] $end
   $var wire 32 y DATA_WIDTH [31:0] $end
   $var wire  1 | Den $end
   $var wire  1 ? Drst $end
   $var wire 32 * ExtImmD [31:0] $end
   $var wire  1 : Fen $end
   $var wire  2 < FowardAE [1:0] $end
   $var wire  2 = FowardBE [1:0] $end
   $var wire  1 > Frst $end
   $var wire 32 { IMM_WIDTH [31:0] $end
   $var wire  3 - ImmSrcE [2:0] $end
   $var wire 32 ) InstrD [31:0] $end
   $var wire  2 % MemWriteM [1:0] $end
   $var wire  7 6 OpcodeE [6:0] $end
   $var wire 32 + PCD [31:0] $end
   $var wire 32 8 PCF [31:0] $end
   $var wire 32 , PCPlus4D [31:0] $end
   $var wire 32 9 PCPlus4F [31:0] $end
   $var wire  2 0 PCSrcE [1:0] $end
   $var wire 32 / PCTarget [31:0] $end
   $var wire  1 ; PCen $end
   $var wire  1 } PCrst $end
   $var wire  5 5 RdE [4:0] $end
   $var wire  5 3 RdM [4:0] $end
   $var wire  5 4 RdW [4:0] $end
   $var wire  3 $ RegWriteM [2:0] $end
   $var wire  3 # RegWriteW [2:0] $end
   $var wire  2 & ResultSrcW [1:0] $end
   $var wire  5 1 Rs1E [4:0] $end
   $var wire  5 2 Rs2E [4:0] $end
   $var wire  1 7 ZeroE $end
   $var wire 32 w a0 [31:0] $end
   $var wire  1 u clk $end
   $var wire  1 v rst $end
   $scope module control $end
    $var wire 32 x ADDRESS_WIDTH [31:0] $end
    $var wire  3 F ALUControlD [2:0] $end
    $var wire  3 ' ALUControlE_o [2:0] $end
    $var wire  1 G ALUSrcD $end
    $var wire  1 ( ALUSrcE_o $end
    $var wire  1 I BranchD $end
    $var wire  1 O BranchE $end
    $var wire 32 y DATA_WIDTH [31:0] $end
    $var wire  1 | Den_i $end
    $var wire  1 ? Drst_i $end
    $var wire 32 * ExtImmD_o [31:0] $end
    $var wire  1 : Fen_i $end
    $var wire  1 > Frst_i $end
    $var wire  3 A ImmSrcD [2:0] $end
    $var wire  3 - ImmSrcE_o [2:0] $end
    $var wire 32 ) InstrD_o [31:0] $end
    $var wire 32 B InstrF [31:0] $end
    $var wire  1 H JumpD $end
    $var wire  1 N JumpE $end
    $var wire  2 E MemWriteD [1:0] $end
    $var wire  2 M MemWriteE [1:0] $end
    $var wire  2 % MemWriteM_o [1:0] $end
    $var wire 32 + PCD_o [31:0] $end
    $var wire 32 8 PCF_i [31:0] $end
    $var wire 32 , PCPlus4D_o [31:0] $end
    $var wire 32 9 PCPlus4F_i [31:0] $end
    $var wire  2 0 PCSrcE_o [1:0] $end
    $var wire  3 J RegWriteD [2:0] $end
    $var wire  3 K RegWriteE [2:0] $end
    $var wire  3 $ RegWriteM_o [2:0] $end
    $var wire  3 # RegWriteW_o [2:0] $end
    $var wire  2 D ResultSrcD [1:0] $end
    $var wire  2 L ResultSrcE [1:0] $end
    $var wire  2 Q ResultSrcM [1:0] $end
    $var wire  2 & ResultSrcW_o [1:0] $end
    $var wire  1 7 ZeroE_i $end
    $var wire  1 C ZeroOp $end
    $var wire  1 u clk $end
    $var wire  3 P funct3E [2:0] $end
    $scope module ControlUnit $end
     $var wire  3 F ALUControlD [2:0] $end
     $var wire  2 U ALUOpD [1:0] $end
     $var wire  1 G ALUSrcD $end
     $var wire  1 I BranchD $end
     $var wire  3 A ImmSrcD [2:0] $end
     $var wire  1 H JumpD $end
     $var wire  2 E MemWriteD [1:0] $end
     $var wire 32 ~ OP_WIDTH [31:0] $end
     $var wire  3 J RegWriteD [2:0] $end
     $var wire  2 D ResultSrcD [1:0] $end
     $var wire  3 S funct3 [2:0] $end
     $var wire  1 T funct7b5 $end
     $var wire  7 R op [6:0] $end
     $scope module aludec $end
      $var wire  3 F ALUControl [2:0] $end
      $var wire  2 U ALUOp [1:0] $end
      $var wire 32 z CONTROL_WIDTH [31:0] $end
      $var wire  1 X RtypeSub $end
      $var wire  3 S funct3 [2:0] $end
      $var wire  1 T funct7b5 $end
      $var wire  1 W opb5 $end
     $upscope $end
     $scope module maindec $end
      $var wire  2 U ALUOp [1:0] $end
      $var wire  1 G ALUSrc $end
      $var wire  1 I Branch $end
      $var wire  3 A ImmSrc [2:0] $end
      $var wire  1 H Jump $end
      $var wire  2 E MemWrite [1:0] $end
      $var wire 32 ~ OP_WIDTH [31:0] $end
      $var wire  3 J RegWrite [2:0] $end
      $var wire  2 D ResultSrc [1:0] $end
      $var wire 15 V controls [14:0] $end
      $var wire  3 S funct3 [2:0] $end
      $var wire  7 R op [6:0] $end
     $upscope $end
    $upscope $end
    $scope module DReg $end
     $var wire  3 F ALUControlD [2:0] $end
     $var wire  3 ' ALUControlE [2:0] $end
     $var wire  1 G ALUSrcD $end
     $var wire  1 ( ALUSrcE $end
     $var wire  1 I BranchD $end
     $var wire  1 O BranchE $end
     $var wire 32 y DATA_WIDTH [31:0] $end
     $var wire  3 A ImmSrcD [2:0] $end
     $var wire  3 - ImmSrcE [2:0] $end
     $var wire  1 H JumpD $end
     $var wire  1 N JumpE $end
     $var wire  2 E MemWriteD [1:0] $end
     $var wire  2 M MemWriteE [1:0] $end
     $var wire  3 J RegWriteD [2:0] $end
     $var wire  3 K RegWriteE [2:0] $end
     $var wire  2 D ResultSrcD [1:0] $end
     $var wire  2 L ResultSrcE [1:0] $end
     $var wire  1 u clk $end
     $var wire  1 | en $end
     $var wire  3 S funct3D [2:0] $end
     $var wire  3 P funct3E [2:0] $end
     $var wire  1 ? rst $end
    $upscope $end
    $scope module EREG $end
     $var wire 32 y DATA_WIDTH [31:0] $end
     $var wire  2 M MemWriteE [1:0] $end
     $var wire  2 % MemWriteM [1:0] $end
     $var wire  3 K RegWriteE [2:0] $end
     $var wire  3 $ RegWriteM [2:0] $end
     $var wire  2 L ResultSrcE [1:0] $end
     $var wire  2 Q ResultSrcM [1:0] $end
     $var wire  1 u clk $end
    $upscope $end
    $scope module FReg $end
     $var wire 32 y DATA_WIDTH [31:0] $end
     $var wire 32 ) InstrD [31:0] $end
     $var wire 32 B InstrF [31:0] $end
     $var wire 32 + PCD [31:0] $end
     $var wire 32 8 PCF [31:0] $end
     $var wire 32 , PCPlus4D [31:0] $end
     $var wire 32 9 PCPlus4F [31:0] $end
     $var wire  1 u clk $end
     $var wire  1 : en $end
     $var wire  1 > rst $end
    $upscope $end
    $scope module InstrMem $end
     $var wire 32 x ADDRESS_WIDTH [31:0] $end
     $var wire 32 y DATA_WIDTH [31:0] $end
     $var wire 32 B Instr_o [31:0] $end
     $var wire 32 8 addr_i [31:0] $end
    $upscope $end
    $scope module MREG $end
     $var wire 32 y DATA_WIDTH [31:0] $end
     $var wire  3 $ RegWriteM [2:0] $end
     $var wire  3 # RegWriteW [2:0] $end
     $var wire  2 Q ResultSrcM [1:0] $end
     $var wire  2 & ResultSrcW [1:0] $end
     $var wire  1 u clk $end
    $upscope $end
    $scope module MySignExtend $end
     $var wire 32 y DATA_WIDTH [31:0] $end
     $var wire 32 * ExtImm [31:0] $end
     $var wire 32 z IMM_WIDTH [31:0] $end
     $var wire  3 A ImmSrc [2:0] $end
     $var wire 32 ) instr [31:0] $end
    $upscope $end
   $upscope $end
   $scope module data $end
    $var wire  3 ' ALUControlE_i [2:0] $end
    $var wire 32 . ALUResultE_o [31:0] $end
    $var wire 32 f ALUResultM [31:0] $end
    $var wire 32 l ALUResultW [31:0] $end
    $var wire  1 ( ALUSrcE_i $end
    $var wire 32 z CONTROL_WIDTH [31:0] $end
    $var wire 32 y DATA_WIDTH [31:0] $end
    $var wire  1 | Den_i $end
    $var wire  1 ? Drst_i $end
    $var wire 32 * ExtImmD_i [31:0] $end
    $var wire 32 e ExtImmE [31:0] $end
    $var wire  2 < FowardAE_i [1:0] $end
    $var wire  2 = FowardBE_i [1:0] $end
    $var wire  2 % MemWriteM_i [1:0] $end
    $var wire 32 + PCD_i [31:0] $end
    $var wire 32 ` PCE [31:0] $end
    $var wire 32 , PCPlus4D_i [31:0] $end
    $var wire 32 a PCPlus4E [31:0] $end
    $var wire 32 h PCPlus4M [31:0] $end
    $var wire 32 j PCPlus4W [31:0] $end
    $var wire 32 / PCTargetE_o [31:0] $end
    $var wire 32 \ RD1D [31:0] $end
    $var wire 32 ^ RD1E [31:0] $end
    $var wire 32 ] RD2D [31:0] $end
    $var wire 32 _ RD2E [31:0] $end
    $var wire  5 [ RdD_i [4:0] $end
    $var wire  5 5 RdE_o [4:0] $end
    $var wire  5 3 RdM_o [4:0] $end
    $var wire  5 4 RdW_o [4:0] $end
    $var wire 32 i ReadDataM [31:0] $end
    $var wire 32 k ReadDataW [31:0] $end
    $var wire  3 # RegWriteW_i [2:0] $end
    $var wire  2 & ResultSrcW_i [1:0] $end
    $var wire 32 m ResultW [31:0] $end
    $var wire  5 Y Rs1D_i [4:0] $end
    $var wire  5 1 Rs1E_o [4:0] $end
    $var wire  5 Z Rs2D_i [4:0] $end
    $var wire  5 2 Rs2E_o [4:0] $end
    $var wire 32 b SrcAE [31:0] $end
    $var wire 32 c SrcBE [31:0] $end
    $var wire 32 d WriteDataE [31:0] $end
    $var wire 32 g WriteDataM [31:0] $end
    $var wire  1 7 ZeroE_o $end
    $var wire 32 w a0 [31:0] $end
    $var wire  1 u clk $end
    $var wire  7 R opcodeD_i [6:0] $end
    $var wire  7 6 opcodeE_o [6:0] $end
    $scope module ALU $end
     $var wire  3 ' ALUControl [2:0] $end
     $var wire 32 . ALUResult [31:0] $end
     $var wire 32 z CONTROL_WIDTH [31:0] $end
     $var wire 32 y DATA_WIDTH [31:0] $end
     $var wire 32 b SrcA [31:0] $end
     $var wire 32 c SrcB [31:0] $end
     $var wire  1 7 Zero $end
    $upscope $end
    $scope module ALUMux $end
     $var wire 32 y DATA_WIDTH [31:0] $end
     $var wire  1 ( control $end
     $var wire 32 d input0 [31:0] $end
     $var wire 32 e input1 [31:0] $end
     $var wire 32 c out [31:0] $end
    $upscope $end
    $scope module DREg $end
     $var wire 32 y DATA_WIDTH [31:0] $end
     $var wire 32 * ExtImmD [31:0] $end
     $var wire 32 e ExtImmE [31:0] $end
     $var wire 32 + PCD [31:0] $end
     $var wire 32 ` PCE [31:0] $end
     $var wire 32 , PCPlus4D [31:0] $end
     $var wire 32 a PCPlus4E [31:0] $end
     $var wire 32 \ RD1D [31:0] $end
     $var wire 32 ^ RD1E [31:0] $end
     $var wire 32 ] RD2D [31:0] $end
     $var wire 32 _ RD2E [31:0] $end
     $var wire  5 [ RdD [4:0] $end
     $var wire  5 5 RdE [4:0] $end
     $var wire  5 Y Rs1D [4:0] $end
     $var wire  5 1 Rs1E [4:0] $end
     $var wire  5 Z Rs2D [4:0] $end
     $var wire  5 2 Rs2E [4:0] $end
     $var wire  1 u clk $end
     $var wire  1 | en $end
     $var wire  7 R opcodeD [6:0] $end
     $var wire  7 6 opcodeE [6:0] $end
     $var wire  1 ? rst $end
    $upscope $end
    $scope module EREG $end
     $var wire 32 . ALUResultE [31:0] $end
     $var wire 32 f ALUResultM [31:0] $end
     $var wire 32 y DATA_WIDTH [31:0] $end
     $var wire 32 a PCPlus4E [31:0] $end
     $var wire 32 h PCPlus4M [31:0] $end
     $var wire  5 5 RdE [4:0] $end
     $var wire  5 3 RdM [4:0] $end
     $var wire 32 d WriteDataE [31:0] $end
     $var wire 32 g WriteDataM [31:0] $end
     $var wire  1 u clk $end
    $upscope $end
    $scope module MREG $end
     $var wire 32 f ALUResultM [31:0] $end
     $var wire 32 l ALUResultW [31:0] $end
     $var wire 32 y DATA_WIDTH [31:0] $end
     $var wire 32 h PCPlus4M [31:0] $end
     $var wire 32 j PCPlus4W [31:0] $end
     $var wire  5 3 RdM [4:0] $end
     $var wire  5 4 RdW [4:0] $end
     $var wire 32 i ReadDataM [31:0] $end
     $var wire 32 k ReadDataW [31:0] $end
     $var wire  1 u clk $end
    $upscope $end
    $scope module RD1EHazardMux $end
     $var wire 32 { CONTROL_WIDTH [31:0] $end
     $var wire 32 y DATA_WIDTH [31:0] $end
     $var wire  2 < control [1:0] $end
     $var wire 32 ^ input0 [31:0] $end
     $var wire 32 m input1 [31:0] $end
     $var wire 32 f input2 [31:0] $end
     $var wire 32 b out [31:0] $end
    $upscope $end
    $scope module RD2EHazardMux $end
     $var wire 32 { CONTROL_WIDTH [31:0] $end
     $var wire 32 y DATA_WIDTH [31:0] $end
     $var wire  2 = control [1:0] $end
     $var wire 32 _ input0 [31:0] $end
     $var wire 32 m input1 [31:0] $end
     $var wire 32 f input2 [31:0] $end
     $var wire 32 d out [31:0] $end
    $upscope $end
    $scope module addPCTargetE $end
     $var wire 32 y DATA_WIDTH [31:0] $end
     $var wire 32 ` input0 [31:0] $end
     $var wire 32 e input1 [31:0] $end
     $var wire 32 / out [31:0] $end
    $upscope $end
    $scope module data $end
     $var wire 32 f A [31:0] $end
     $var wire 32 x ADDRESS_WIDTH [31:0] $end
     $var wire 32 y DATA_WIDTH [31:0] $end
     $var wire 32 i RD [31:0] $end
     $var wire 32 g WD [31:0] $end
     $var wire  2 % WE [1:0] $end
     $var wire  1 u clk $end
    $upscope $end
    $scope module register $end
     $var wire  8 n A1 [7:0] $end
     $var wire  5 Y A1_i [4:0] $end
     $var wire  8 o A2 [7:0] $end
     $var wire  5 Z A2_i [4:0] $end
     $var wire  8 p A3 [7:0] $end
     $var wire  5 4 A3_i [4:0] $end
     $var wire 32 x ADDRESS_WIDTH [31:0] $end
     $var wire 32 y DATA_WIDTH [31:0] $end
     $var wire 32 \ RD1 [31:0] $end
     $var wire 32 ] RD2 [31:0] $end
     $var wire 32 m WD3 [31:0] $end
     $var wire  3 # WE3 [2:0] $end
     $var wire 32 w a0 [31:0] $end
     $var wire  1 u clk $end
    $upscope $end
    $scope module resultMux $end
     $var wire 32 { CONTROL_WIDTH [31:0] $end
     $var wire 32 y DATA_WIDTH [31:0] $end
     $var wire  2 & control [1:0] $end
     $var wire 32 l input0 [31:0] $end
     $var wire 32 k input1 [31:0] $end
     $var wire 32 j input2 [31:0] $end
     $var wire 32 m out [31:0] $end
    $upscope $end
   $upscope $end
   $scope module hazard $end
    $var wire  1 | Den_o $end
    $var wire  1 > Drst_control $end
    $var wire  1 ? Drst_o $end
    $var wire  1 q Drst_stall $end
    $var wire  1 : Fen_o $end
    $var wire  2 < FowardAE_o [1:0] $end
    $var wire  2 = FowardBE_o [1:0] $end
    $var wire  1 > Frst_o $end
    $var wire  3 - ImmSrcE_i [2:0] $end
    $var wire  2 0 PCSrcE_i [1:0] $end
    $var wire  1 ; PCen_o $end
    $var wire  1 } PCrst_o $end
    $var wire  5 5 RdE_i [4:0] $end
    $var wire  5 3 RdM_i [4:0] $end
    $var wire  5 4 RdW_i [4:0] $end
    $var wire  3 $ RegWriteM_i [2:0] $end
    $var wire  3 # RegWriteW_i [2:0] $end
    $var wire  5 Y Rs1D_i [4:0] $end
    $var wire  5 1 Rs1E_i [4:0] $end
    $var wire  5 Z Rs2D_i [4:0] $end
    $var wire  5 2 Rs2E_i [4:0] $end
    $var wire  7 6 opcodeE_i [6:0] $end
    $scope module ControlHazard $end
     $var wire  1 > Drst $end
     $var wire  1 > Frst $end
     $var wire  2 0 PCSrcE [1:0] $end
    $upscope $end
    $scope module FowardHazard $end
     $var wire  1 r A $end
     $var wire  1 s B $end
     $var wire  2 < FowardAE [1:0] $end
     $var wire  2 = FowardBE [1:0] $end
     $var wire  3 - ImmSrcE [2:0] $end
     $var wire  5 3 RdM [4:0] $end
     $var wire  5 4 RdW [4:0] $end
     $var wire  3 $ RegWriteM [2:0] $end
     $var wire  3 # RegWriteW [2:0] $end
     $var wire  5 1 Rs1E [4:0] $end
     $var wire  5 2 Rs2E [4:0] $end
    $upscope $end
    $scope module StallHazard $end
     $var wire  1 r A $end
     $var wire  1 t B $end
     $var wire  1 q Drst $end
     $var wire  1 : Fen $end
     $var wire  1 !! Flip $end
     $var wire  3 - ImmSrcE [2:0] $end
     $var wire  1 ; PCen $end
     $var wire  5 5 RdE [4:0] $end
     $var wire  5 Y Rs1D [4:0] $end
     $var wire  5 Z Rs2D [4:0] $end
     $var wire  7 6 opcodeE [6:0] $end
    $upscope $end
   $upscope $end
   $scope module pc $end
    $var wire 32 . ALUResultE_i [31:0] $end
    $var wire 32 y DATA_WIDTH [31:0] $end
    $var wire 32 8 PCF_o [31:0] $end
    $var wire 32 9 PCPlus4F_o [31:0] $end
    $var wire  2 0 PCSrc_i [1:0] $end
    $var wire 32 / PCTarget_i [31:0] $end
    $var wire  1 ; PCen_i $end
    $var wire  1 } PCrst_i $end
    $var wire  1 u clk $end
    $var wire 32 @ next_PC [31:0] $end
    $scope module pc_mux $end
     $var wire 32 { CONTROL_WIDTH [31:0] $end
     $var wire 32 y DATA_WIDTH [31:0] $end
     $var wire  2 0 control [1:0] $end
     $var wire 32 9 input0 [31:0] $end
     $var wire 32 / input1 [31:0] $end
     $var wire 32 . input2 [31:0] $end
     $var wire 32 @ out [31:0] $end
    $upscope $end
    $scope module pc_reg $end
     $var wire  1 ; PCen $end
     $var wire 32 y WIDTH [31:0] $end
     $var wire  1 u clk $end
     $var wire 32 @ next_PC [31:0] $end
     $var wire 32 8 pc [31:0] $end
     $var wire  1 } rst $end
    $upscope $end
   $upscope $end
  $upscope $end
 $upscope $end
$enddefinitions $end


#0
b000 #
b000 $
b00 %
b00 &
b000 '
0(
b00000000000000000000000000000000 )
b00000000000000000000000000000000 *
b00000000000000000000000000000000 +
b00000000000000000000000000000000 ,
b000 -
b00000000000000000000000000000000 .
b00000000000000000000000000000000 /
b00 0
b00000 1
b00000 2
b00000 3
b00000 4
b00000 5
b0000000 6
17
b00000000000000000000000000000000 8
b00000000000000000000000000000100 9
0:
1;
b00 <
b00 =
0>
0?
b00000000000000000000000000000100 @
b000 A
b00000000000000000000000000000000 B
1C
b00 D
b00 E
b000 F
0G
0H
0I
b000 J
b000 K
b00 L
b00 M
0N
0O
b000 P
b00 Q
b0000000 R
b000 S
0T
b00 U
b000000000000000 V
0W
0X
b00000 Y
b00000 Z
b00000 [
b00000000000000000000000000000000 \
b00000000000000000000000000000000 ]
b00000000000000000000000000000000 ^
b00000000000000000000000000000000 _
b00000000000000000000000000000000 `
b00000000000000000000000000000000 a
b00000000000000000000000000000000 b
b00000000000000000000000000000000 c
b00000000000000000000000000000000 d
b00000000000000000000000000000000 e
b00000000000000000000000000000000 f
b00000000000000000000000000000000 g
b00000000000000000000000000000000 h
b00000000000000000000000000000000 i
b00000000000000000000000000000000 j
b00000000000000000000000000000000 k
b00000000000000000000000000000000 l
b00000000000000000000000000000000 m
b00000000 n
b00000000 o
b00000000 p
0q
0r
0s
0t
0u
0v
b00000000000000000000000000000000 w
b00000000000000000000000000001000 x
b00000000000000000000000000100000 y
b00000000000000000000000000000011 z
b00000000000000000000000000000010 {
0|
0}
b00000000000000000000000000000111 ~
0!!
#1
1:
b00000001000000000000000011101111 B
b00000000000000000000000011111110 i
1r
1u
#2
0u
#3
b00000001000000000000000011101111 )
b00000000000000000000000000010000 *
b00000000000000000000000000000100 ,
b00000000000000000000000000000100 8
b00000000000000000000000000001000 9
b00000000000000000000000000001000 @
b011 A
b00000010000000000000000011101111 B
b10 D
1H
b001 J
b1101111 R
b001100010001100 V
1W
b10000 Z
b00001 [
b00000000000000000000000011111110 k
b00010000 o
1u
#4
0u
#5
b00000010000000000000000011101111 )
b00000000000000000000000000100000 *
b00000000000000000000000000000100 +
b00000000000000000000000000001000 ,
b011 -
b00000000000000000000000000010000 /
b01 0
b10000 2
b00001 5
b1101111 6
b00000000000000000000000000001000 8
b00000000000000000000000000001100 9
1>
1?
b00000000000000000000000000010000 @
b00000101000000000000000011101111 B
b001 K
b10 L
1N
b00000 Z
b00000000000000000000000000000100 a
b00000000000000000000000000010000 e
b00000000 o
0r
1u
#6
0u
#7
b001 $
b00000000000000000000000000000000 )
b00000000000000000000000000000000 *
b00000000000000000000000000000000 +
b00000000000000000000000000000000 ,
b000 -
b00000000000000000000000000000000 /
b00 0
b00000 2
b00001 3
b00000 5
b0000000 6
b00000000000000000000000000010000 8
b00000000000000000000000000010100 9
0>
0?
b00000000000000000000000000010100 @
b000 A
b00010000000000000000010110010011 B
b00 D
0H
b000 J
b000 K
b00 L
0N
b10 Q
b0000000 R
b000000000000000 V
0W
b00000 [
b00000000000000000000000000000000 a
b00000000000000000000000000000000 e
b00000000000000000000000000000100 h
1r
1u
#8
0u
#9
b001 #
b000 $
b10 &
b00010000000000000000010110010011 )
b00000000000000000000000100000000 *
b00000000000000000000000000010000 +
b00000000000000000000000000010100 ,
b00000 3
b00001 4
b00000000000000000000000000010100 8
b00000000000000000000000000011000 9
b00000000000000000000000000011000 @
b11111111111101011000010110010011 B
1G
b001 J
b00 Q
b0010011 R
b10 U
b001000000100010 V
b01011 [
b00000000000000000000000000000000 h
b00000000000000000000000000000100 j
b00000000000000000000000000000100 m
b00000001 p
1u
#10
0u
#11
b000 #
b00 &
1(
b11111111111101011000010110010011 )
b11111111111111111111111111111111 *
b00000000000000000000000000010100 +
b00000000000000000000000000011000 ,
b00000000000000000000000100000000 .
b00000000000000000000000100010000 /
b00000 4
b01011 5
b0010011 6
07
b00000000000000000000000000011000 8
b00000000000000000000000000011100 9
b00000000000000000000000000011100 @
b00010000000001011000000000100011 B
0C
b001 K
1T
b01011 Y
b11111 Z
b00000000000000000000000000010000 `
b00000000000000000000000000010100 a
b00000000000000000000000100000000 c
b00000000000000000000000100000000 e
b00000000000000000000000000000000 j
b00000000000000000000000000000000 m
b00001011 n
b00011111 o
b00000000 p
1u
#12
0u
#13
b001 $
b00010000000001011000000000100011 )
b00000000000000000000000100000000 *
b00000000000000000000000000011000 +
b00000000000000000000000000011100 ,
b00000000000000000000000011111111 .
b00000000000000000000000000010011 /
b01011 1
b11111 2
b01011 3
b00000000000000000000000000011100 8
b00000000000000000000000000100000 9
b10 <
b00000000000000000000000000100000 @
b010 A
b11111110000001011001110011100011 B
b11 E
b000 J
b0100011 R
0T
b00 U
b000001100101000 V
1W
b00000 Z
b00000 [
b00000000000000000000000000010100 `
b00000000000000000000000000011000 a
b00000000000000000000000100000000 b
b11111111111111111111111111111111 c
b11111111111111111111111111111111 e
b00000000000000000000000100000000 f
b00000000000000000000000000010100 h
b00000000 o
1u
#14
0u
#15
b001 #
b11111110000001011001110011100011 )
b11111111111111111111111111111000 *
b00000000000000000000000000011100 +
b00000000000000000000000000100000 ,
b010 -
b00000000000000000000000111111111 .
b00000000000000000000000100011000 /
b00000 2
b01011 4
b00000 5
b0100011 6
b00000000000000000000000000100000 8
b00000000000000000000000000100100 9
b00000000000000000000000000100100 @
b00000000000000001000000001100111 B
b00 E
b001 F
0G
1I
b000 K
b11 M
b1100011 R
b001 S
1T
b01 U
b000000001001001 V
1X
b11001 [
b00000000000000000000000000011000 `
b00000000000000000000000000011100 a
b00000000000000000000000011111111 b
b00000000000000000000000100000000 c
b00000000000000000000000100000000 e
b00000000000000000000000011111111 f
b00000000000000000000000000011000 h
b00000000000000000000000000000000 i
b00000000000000000000000000010100 j
b00000000000000000000000100000000 l
b00000000000000000000000100000000 m
b00001011 p
1s
1t
1u
#16
0u
#17
b000 $
b11 %
b001 '
0(
b00000000000000001000000001100111 )
b00000000000000000000000000000000 *
b00000000000000000000000000100000 +
b00000000000000000000000000100100 ,
b00000000000000000000000011111111 .
b00000000000000000000000000010100 /
b01 0
b00000 3
b11001 5
b1100011 6
b00000000000000000000000000100100 8
b00000000000000000000000000101000 9
b01 <
1>
1?
b00000000000000000000000000010100 @
b000 A
b00000000000000010000010110110111 B
1C
b10 D
b000 F
1G
1H
0I
b001 J
b00 M
1O
b001 P
b1100111 R
b000 S
0T
b00 U
b001100010100000 V
0X
b00001 Y
b00000 [
b00000000000000000000000000000100 \
b00000000000000000000000000011100 `
b00000000000000000000000000100000 a
b00000000000000000000000000000000 c
b11111111111111111111111111111000 e
b00000000000000000000000111111111 f
b00000000000000000000000000011100 h
b00000000000000000000000000011000 j
b00000000000000000000000000000000 k
b00000000000000000000000011111111 l
b00000000000000000000000011111111 m
b00000001 n
1u
#18
0u
#19
b000 #
b00 %
b000 '
b00000000000000000000000000000000 )
b00000000000000000000000000000000 +
b00000000000000000000000000000000 ,
b000 -
b00000000000000000000000000000000 .
b00000000000000000000000000000000 /
b00 0
b00000 1
b11001 3
b00000 4
b00000 5
b0000000 6
17
b00000000000000000000000000010100 8
b00000000000000000000000000011000 9
b00 <
0>
0?
b00000000000000000000000000011000 @
b11111111111101011000010110010011 B
b00 D
0G
0H
b000 J
0O
b000 P
b0000000 R
b000000000000000 V
0W
b00000 Y
b00000000000000000000000000000000 \
b00000000000000000000000000000000 `
b00000000000000000000000000000000 a
b00000000000000000000000000000000 b
b00000000000000000000000000000000 e
b00000000000000000000000011111111 f
b00000000000000000000000000100000 h
b00000000000000000000000000011100 j
b00000000000000000000000111111111 l
b00000000000000000000000111111111 m
b00000000 n
b00000000 p
0s
0t
1u
#20
0u
#21
b11111111111101011000010110010011 )
b11111111111111111111111111111111 *
b00000000000000000000000000010100 +
b00000000000000000000000000011000 ,
b00000 3
b11001 4
b00000000000000000000000000011000 8
b00000000000000000000000000011100 9
b00000000000000000000000000011100 @
b00010000000001011000000000100011 B
1G
b001 J
b0010011 R
1T
b10 U
b001000000100010 V
b01011 Y
b11111 Z
b01011 [
b00000000000000000000000011111111 \
b00000000000000000000000000000000 f
b00000000000000000000000000000000 h
b00000000000000000000000011111110 i
b00000000000000000000000000100000 j
b00000000000000000000000011111111 l
b00000000000000000000000011111111 m
b00001011 n
b00011111 o
b00011001 p
1u
#22
0u
#23
1(
b00010000000001011000000000100011 )
b00000000000000000000000100000000 *
b00000000000000000000000000011000 +
b00000000000000000000000000011100 ,
b00000000000000000000000011111110 .
b00000000000000000000000000010011 /
b01011 1
b11111 2
b00000 4
b01011 5
b0010011 6
07
b00000000000000000000000000011100 8
b00000000000000000000000000100000 9
b00000000000000000000000000100000 @
b010 A
b11111110000001011001110011100011 B
0C
b11 E
b000 J
b001 K
b0100011 R
0T
b00 U
b000001100101000 V
1W
b00000 Z
b00000 [
b00000000000000000000000011111111 ^
b00000000000000000000000000010100 `
b00000000000000000000000000011000 a
b00000000000000000000000011111111 b
b11111111111111111111111111111111 c
b11111111111111111111111111111111 e
b00000000000000000000000000000000 j
b00000000000000000000000011111110 k
b00000000000000000000000000000000 l
b00000000000000000000000000000000 m
b00000000 o
b00000000 p
1u
#24
0u
#25
b001 $
b11111110000001011001110011100011 )
b11111111111111111111111111111000 *
b00000000000000000000000000011100 +
b00000000000000000000000000100000 ,
b010 -
b00000000000000000000000111111110 .
b00000000000000000000000100011000 /
b00000 2
b01011 3
b00000 5
b0100011 6
b00000000000000000000000000100000 8
b00000000000000000000000000100100 9
b10 <
b00000000000000000000000000100100 @
b00000000000000001000000001100111 B
b00 E
b001 F
0G
1I
b000 K
b11 M
b1100011 R
b001 S
1T
b01 U
b000000001001001 V
1X
b11001 [
b00000000000000000000000000011000 `
b00000000000000000000000000011100 a
b00000000000000000000000011111110 b
b00000000000000000000000100000000 c
b00000000000000000000000100000000 e
b00000000000000000000000011111110 f
b00000000000000000000000000011000 h
b00000000000000000000000011111101 i
1s
1t
1u
#26
0u
#27
b001 #
b000 $
b11 %
b001 '
0(
b00000000000000001000000001100111 )
b00000000000000000000000000000000 *
b00000000000000000000000000100000 +
b00000000000000000000000000100100 ,
b00000000000000000000000011111110 .
b00000000000000000000000000010100 /
b01 0
b00000 3
b01011 4
b11001 5
b1100011 6
b00000000000000000000000000100100 8
b00000000000000000000000000101000 9
b01 <
1>
1?
b00000000000000000000000000010100 @
b000 A
b00000000000000010000010110110111 B
1C
b10 D
b000 F
1G
1H
0I
b001 J
b00 M
1O
b001 P
b1100111 R
b000 S
0T
b00 U
b001100010100000 V
0X
b00001 Y
b00000 [
b00000000000000000000000000000100 \
b00000000000000000000000000011100 `
b00000000000000000000000000100000 a
b00000000000000000000000000000000 c
b11111111111111111111111111111000 e
b00000000000000000000000111111110 f
b00000000000000000000000000011100 h
b00000000000000000000000000011000 j
b00000000000000000000000011111101 k
b00000000000000000000000011111110 l
b00000000000000000000000011111110 m
b00000001 n
b00001011 p
1u
#28
0u
#29
b000 #
b00 %
b000 '
b00000000000000000000000000000000 )
b00000000000000000000000000000000 +
b00000000000000000000000000000000 ,
b000 -
b00000000000000000000000000000000 .
b00000000000000000000000000000000 /
b00 0
b00000 1
b11001 3
b00000 4
b00000 5
b0000000 6
17
b00000000000000000000000000010100 8
b00000000000000000000000000011000 9
b00 <
0>
0?
b00000000000000000000000000011000 @
b11111111111101011000010110010011 B
b00 D
0G
0H
b000 J
0O
b000 P
b0000000 R
b000000000000000 V
0W
b00000 Y
b00000000000000000000000000000000 \
b00000000000000000000000000000000 ^
b00000000000000000000000000000000 `
b00000000000000000000000000000000 a
b00000000000000000000000000000000 b
b00000000000000000000000000000000 e
b00000000000000000000000011111110 f
b00000000000000000000000000100000 h
b00000000000000000000000000000000 i
b00000000000000000000000000011100 j
b00000000000000000000000111111110 l
b00000000000000000000000111111110 m
b00000000 n
b00000000 p
0s
0t
1u
#30
0u
