pipelined/cpu.vcd
$version Generated by VerilatedVcd $end
$date Thu Dec 14 13:20:45 2023 $end
$timescale 1ps $end

 $scope module TOP $end
  $var wire 32 u a0 [31:0] $end
  $var wire  1 s clk $end
  $var wire  1 t rst $end
  $scope module cpu $end
   $var wire 32 v ADDRESS_WIDTH [31:0] $end
   $var wire  3 ' ALUControlE [2:0] $end
   $var wire 32 . ALUResultE [31:0] $end
   $var wire  1 ( ALUSrcE $end
   $var wire 32 x CONTROL_WIDTH [31:0] $end
   $var wire 32 w DATA_WIDTH [31:0] $end
   $var wire  1 : Den $end
   $var wire  1 > Drst $end
   $var wire 32 * ExtImmD [31:0] $end
   $var wire  1 : Fen $end
   $var wire  2 < FowardAE [1:0] $end
   $var wire  2 = FowardBE [1:0] $end
   $var wire  1 > Frst $end
   $var wire 32 y IMM_WIDTH [31:0] $end
   $var wire  3 - ImmSrcE [2:0] $end
   $var wire 32 ) InstrD [31:0] $end
   $var wire  2 % MemWriteM [1:0] $end
   $var wire  7 6 OpcodeE [6:0] $end
   $var wire 32 + PCD [31:0] $end
   $var wire 32 8 PCF [31:0] $end
   $var wire 32 , PCPlus4D [31:0] $end
   $var wire 32 9 PCPlus4F [31:0] $end
   $var wire  2 0 PCSrcE [1:0] $end
   $var wire 32 / PCTarget [31:0] $end
   $var wire  1 ; PCen $end
   $var wire  1 z PCrst $end
   $var wire  5 5 RdE [4:0] $end
   $var wire  5 3 RdM [4:0] $end
   $var wire  5 4 RdW [4:0] $end
   $var wire  3 $ RegWriteM [2:0] $end
   $var wire  3 # RegWriteW [2:0] $end
   $var wire  2 & ResultSrcW [1:0] $end
   $var wire  5 1 Rs1E [4:0] $end
   $var wire  5 2 Rs2E [4:0] $end
   $var wire  1 7 ZeroE $end
   $var wire 32 u a0 [31:0] $end
   $var wire  1 s clk $end
   $var wire  1 t rst $end
   $scope module control $end
    $var wire 32 v ADDRESS_WIDTH [31:0] $end
    $var wire  3 D ALUControlD [2:0] $end
    $var wire  3 ' ALUControlE_o [2:0] $end
    $var wire  1 E ALUSrcD $end
    $var wire  1 ( ALUSrcE_o $end
    $var wire  1 G BranchD $end
    $var wire  1 M BranchE $end
    $var wire 32 w DATA_WIDTH [31:0] $end
    $var wire  1 : Den_i $end
    $var wire  1 > Drst_i $end
    $var wire 32 * ExtImmD_o [31:0] $end
    $var wire  1 : Fen_i $end
    $var wire  1 > Frst_i $end
    $var wire  3 ? ImmSrcD [2:0] $end
    $var wire  3 - ImmSrcE_o [2:0] $end
    $var wire 32 ) InstrD_o [31:0] $end
    $var wire 32 @ InstrF [31:0] $end
    $var wire  1 F JumpD $end
    $var wire  1 L JumpE $end
    $var wire  2 C MemWriteD [1:0] $end
    $var wire  2 K MemWriteE [1:0] $end
    $var wire  2 % MemWriteM_o [1:0] $end
    $var wire 32 + PCD_o [31:0] $end
    $var wire 32 8 PCF_i [31:0] $end
    $var wire 32 , PCPlus4D_o [31:0] $end
    $var wire 32 9 PCPlus4F_i [31:0] $end
    $var wire  2 0 PCSrcE_o [1:0] $end
    $var wire  3 H RegWriteD [2:0] $end
    $var wire  3 I RegWriteE [2:0] $end
    $var wire  3 $ RegWriteM_o [2:0] $end
    $var wire  3 # RegWriteW_o [2:0] $end
    $var wire  2 B ResultSrcD [1:0] $end
    $var wire  2 J ResultSrcE [1:0] $end
    $var wire  2 O ResultSrcM [1:0] $end
    $var wire  2 & ResultSrcW_o [1:0] $end
    $var wire  1 7 ZeroE_i $end
    $var wire  1 A ZeroOp $end
    $var wire  1 s clk $end
    $var wire  3 N funct3E [2:0] $end
    $scope module ControlUnit $end
     $var wire  3 D ALUControlD [2:0] $end
     $var wire  2 S ALUOpD [1:0] $end
     $var wire  1 E ALUSrcD $end
     $var wire  1 G BranchD $end
     $var wire  3 ? ImmSrcD [2:0] $end
     $var wire  1 F JumpD $end
     $var wire  2 C MemWriteD [1:0] $end
     $var wire 32 { OP_WIDTH [31:0] $end
     $var wire  3 H RegWriteD [2:0] $end
     $var wire  2 B ResultSrcD [1:0] $end
     $var wire  3 Q funct3 [2:0] $end
     $var wire  1 R funct7b5 $end
     $var wire  7 P op [6:0] $end
     $scope module aludec $end
      $var wire  3 D ALUControl [2:0] $end
      $var wire  2 S ALUOp [1:0] $end
      $var wire 32 x CONTROL_WIDTH [31:0] $end
      $var wire  1 U RtypeSub $end
      $var wire  3 Q funct3 [2:0] $end
      $var wire  1 R funct7b5 $end
      $var wire  1 T opb5 $end
     $upscope $end
     $scope module maindec $end
      $var wire  2 S ALUOp [1:0] $end
      $var wire  1 E ALUSrc $end
      $var wire  1 G Branch $end
      $var wire  3 ? ImmSrc [2:0] $end
      $var wire  1 F Jump $end
      $var wire  2 C MemWrite [1:0] $end
      $var wire 32 { OP_WIDTH [31:0] $end
      $var wire  3 H RegWrite [2:0] $end
      $var wire  2 B ResultSrc [1:0] $end
      $var wire 15 V controls [14:0] $end
      $var wire  3 Q funct3 [2:0] $end
      $var wire  7 P op [6:0] $end
     $upscope $end
    $upscope $end
    $scope module DReg $end
     $var wire  3 D ALUControlD [2:0] $end
     $var wire  3 ' ALUControlE [2:0] $end
     $var wire  1 E ALUSrcD $end
     $var wire  1 ( ALUSrcE $end
     $var wire  1 G BranchD $end
     $var wire  1 M BranchE $end
     $var wire 32 w DATA_WIDTH [31:0] $end
     $var wire  3 ? ImmSrcD [2:0] $end
     $var wire  3 - ImmSrcE [2:0] $end
     $var wire  1 F JumpD $end
     $var wire  1 L JumpE $end
     $var wire  2 C MemWriteD [1:0] $end
     $var wire  2 K MemWriteE [1:0] $end
     $var wire  3 H RegWriteD [2:0] $end
     $var wire  3 I RegWriteE [2:0] $end
     $var wire  2 B ResultSrcD [1:0] $end
     $var wire  2 J ResultSrcE [1:0] $end
     $var wire  1 s clk $end
     $var wire  1 : en $end
     $var wire  3 Q funct3D [2:0] $end
     $var wire  3 N funct3E [2:0] $end
     $var wire  1 > rst $end
    $upscope $end
    $scope module EREG $end
     $var wire 32 w DATA_WIDTH [31:0] $end
     $var wire  2 K MemWriteE [1:0] $end
     $var wire  2 % MemWriteM [1:0] $end
     $var wire  3 I RegWriteE [2:0] $end
     $var wire  3 $ RegWriteM [2:0] $end
     $var wire  2 J ResultSrcE [1:0] $end
     $var wire  2 O ResultSrcM [1:0] $end
     $var wire  1 s clk $end
    $upscope $end
    $scope module FReg $end
     $var wire 32 w DATA_WIDTH [31:0] $end
     $var wire 32 ) InstrD [31:0] $end
     $var wire 32 @ InstrF [31:0] $end
     $var wire 32 + PCD [31:0] $end
     $var wire 32 8 PCF [31:0] $end
     $var wire 32 , PCPlus4D [31:0] $end
     $var wire 32 9 PCPlus4F [31:0] $end
     $var wire  1 s clk $end
     $var wire  1 : en $end
     $var wire  1 > rst $end
    $upscope $end
    $scope module InstrMem $end
     $var wire 32 v ADDRESS_WIDTH [31:0] $end
     $var wire 32 w DATA_WIDTH [31:0] $end
     $var wire 32 @ Instr_o [31:0] $end
     $var wire 32 8 addr_i [31:0] $end
    $upscope $end
    $scope module MREG $end
     $var wire 32 w DATA_WIDTH [31:0] $end
     $var wire  3 $ RegWriteM [2:0] $end
     $var wire  3 # RegWriteW [2:0] $end
     $var wire  2 O ResultSrcM [1:0] $end
     $var wire  2 & ResultSrcW [1:0] $end
     $var wire  1 s clk $end
    $upscope $end
    $scope module MySignExtend $end
     $var wire 32 w DATA_WIDTH [31:0] $end
     $var wire 32 * ExtImm [31:0] $end
     $var wire 32 x IMM_WIDTH [31:0] $end
     $var wire  3 ? ImmSrc [2:0] $end
     $var wire 32 ) instr [31:0] $end
    $upscope $end
   $upscope $end
   $scope module data $end
    $var wire  3 ' ALUControlE_i [2:0] $end
    $var wire 32 . ALUResultE_o [31:0] $end
    $var wire 32 d ALUResultM [31:0] $end
    $var wire 32 j ALUResultW [31:0] $end
    $var wire  1 ( ALUSrcE_i $end
    $var wire 32 x CONTROL_WIDTH [31:0] $end
    $var wire 32 w DATA_WIDTH [31:0] $end
    $var wire  1 : Den_i $end
    $var wire  1 > Drst_i $end
    $var wire 32 * ExtImmD_i [31:0] $end
    $var wire 32 c ExtImmE [31:0] $end
    $var wire  2 < FowardAE_i [1:0] $end
    $var wire  2 = FowardBE_i [1:0] $end
    $var wire  2 % MemWriteM_i [1:0] $end
    $var wire 32 + PCD_i [31:0] $end
    $var wire 32 ^ PCE [31:0] $end
    $var wire 32 , PCPlus4D_i [31:0] $end
    $var wire 32 _ PCPlus4E [31:0] $end
    $var wire 32 f PCPlus4M [31:0] $end
    $var wire 32 h PCPlus4W [31:0] $end
    $var wire 32 / PCTargetE_o [31:0] $end
    $var wire 32 Z RD1D [31:0] $end
    $var wire 32 \ RD1E [31:0] $end
    $var wire 32 [ RD2D [31:0] $end
    $var wire 32 ] RD2E [31:0] $end
    $var wire  5 Y RdD_i [4:0] $end
    $var wire  5 5 RdE_o [4:0] $end
    $var wire  5 3 RdM_o [4:0] $end
    $var wire  5 4 RdW_o [4:0] $end
    $var wire 32 g ReadDataM [31:0] $end
    $var wire 32 i ReadDataW [31:0] $end
    $var wire  3 # RegWriteW_i [2:0] $end
    $var wire  2 & ResultSrcW_i [1:0] $end
    $var wire 32 k ResultW [31:0] $end
    $var wire  5 W Rs1D_i [4:0] $end
    $var wire  5 1 Rs1E_o [4:0] $end
    $var wire  5 X Rs2D_i [4:0] $end
    $var wire  5 2 Rs2E_o [4:0] $end
    $var wire 32 ` SrcAE [31:0] $end
    $var wire 32 a SrcBE [31:0] $end
    $var wire 32 b WriteDataE [31:0] $end
    $var wire 32 e WriteDataM [31:0] $end
    $var wire  1 7 ZeroE_o $end
    $var wire 32 u a0 [31:0] $end
    $var wire  1 s clk $end
    $var wire  7 P opcodeD_i [6:0] $end
    $var wire  7 6 opcodeE_o [6:0] $end
    $scope module ALU $end
     $var wire  3 ' ALUControl [2:0] $end
     $var wire 32 . ALUResult [31:0] $end
     $var wire 32 x CONTROL_WIDTH [31:0] $end
     $var wire 32 w DATA_WIDTH [31:0] $end
     $var wire 32 ` SrcA [31:0] $end
     $var wire 32 a SrcB [31:0] $end
     $var wire  1 7 Zero $end
    $upscope $end
    $scope module ALUMux $end
     $var wire 32 w DATA_WIDTH [31:0] $end
     $var wire  1 ( control $end
     $var wire 32 b input0 [31:0] $end
     $var wire 32 c input1 [31:0] $end
     $var wire 32 a out [31:0] $end
    $upscope $end
    $scope module DREg $end
     $var wire 32 w DATA_WIDTH [31:0] $end
     $var wire 32 * ExtImmD [31:0] $end
     $var wire 32 c ExtImmE [31:0] $end
     $var wire 32 + PCD [31:0] $end
     $var wire 32 ^ PCE [31:0] $end
     $var wire 32 , PCPlus4D [31:0] $end
     $var wire 32 _ PCPlus4E [31:0] $end
     $var wire 32 Z RD1D [31:0] $end
     $var wire 32 \ RD1E [31:0] $end
     $var wire 32 [ RD2D [31:0] $end
     $var wire 32 ] RD2E [31:0] $end
     $var wire  5 Y RdD [4:0] $end
     $var wire  5 5 RdE [4:0] $end
     $var wire  5 W Rs1D [4:0] $end
     $var wire  5 1 Rs1E [4:0] $end
     $var wire  5 X Rs2D [4:0] $end
     $var wire  5 2 Rs2E [4:0] $end
     $var wire  1 s clk $end
     $var wire  1 : en $end
     $var wire  7 P opcodeD [6:0] $end
     $var wire  7 6 opcodeE [6:0] $end
     $var wire  1 > rst $end
    $upscope $end
    $scope module EREG $end
     $var wire 32 . ALUResultE [31:0] $end
     $var wire 32 d ALUResultM [31:0] $end
     $var wire 32 w DATA_WIDTH [31:0] $end
     $var wire 32 _ PCPlus4E [31:0] $end
     $var wire 32 f PCPlus4M [31:0] $end
     $var wire  5 5 RdE [4:0] $end
     $var wire  5 3 RdM [4:0] $end
     $var wire 32 b WriteDataE [31:0] $end
     $var wire 32 e WriteDataM [31:0] $end
     $var wire  1 s clk $end
    $upscope $end
    $scope module MREG $end
     $var wire 32 d ALUResultM [31:0] $end
     $var wire 32 j ALUResultW [31:0] $end
     $var wire 32 w DATA_WIDTH [31:0] $end
     $var wire 32 f PCPlus4M [31:0] $end
     $var wire 32 h PCPlus4W [31:0] $end
     $var wire  5 3 RdM [4:0] $end
     $var wire  5 4 RdW [4:0] $end
     $var wire 32 g ReadDataM [31:0] $end
     $var wire 32 i ReadDataW [31:0] $end
     $var wire  1 s clk $end
    $upscope $end
    $scope module RD1EHazardMux $end
     $var wire 32 y CONTROL_WIDTH [31:0] $end
     $var wire 32 w DATA_WIDTH [31:0] $end
     $var wire  2 < control [1:0] $end
     $var wire 32 \ input0 [31:0] $end
     $var wire 32 k input1 [31:0] $end
     $var wire 32 d input2 [31:0] $end
     $var wire 32 ` out [31:0] $end
    $upscope $end
    $scope module RD2EHazardMux $end
     $var wire 32 y CONTROL_WIDTH [31:0] $end
     $var wire 32 w DATA_WIDTH [31:0] $end
     $var wire  2 = control [1:0] $end
     $var wire 32 ] input0 [31:0] $end
     $var wire 32 k input1 [31:0] $end
     $var wire 32 d input2 [31:0] $end
     $var wire 32 b out [31:0] $end
    $upscope $end
    $scope module addPCTargetE $end
     $var wire 32 w DATA_WIDTH [31:0] $end
     $var wire 32 ^ input0 [31:0] $end
     $var wire 32 c input1 [31:0] $end
     $var wire 32 / out [31:0] $end
    $upscope $end
    $scope module data $end
     $var wire 32 d A [31:0] $end
     $var wire 32 v ADDRESS_WIDTH [31:0] $end
     $var wire 32 w DATA_WIDTH [31:0] $end
     $var wire 32 g RD [31:0] $end
     $var wire 32 e WD [31:0] $end
     $var wire  2 % WE [1:0] $end
     $var wire  1 s clk $end
    $upscope $end
    $scope module register $end
     $var wire  8 l A1 [7:0] $end
     $var wire  5 W A1_i [4:0] $end
     $var wire  8 m A2 [7:0] $end
     $var wire  5 X A2_i [4:0] $end
     $var wire  8 n A3 [7:0] $end
     $var wire  5 4 A3_i [4:0] $end
     $var wire 32 v ADDRESS_WIDTH [31:0] $end
     $var wire 32 w DATA_WIDTH [31:0] $end
     $var wire 32 Z RD1 [31:0] $end
     $var wire 32 [ RD2 [31:0] $end
     $var wire 32 k WD3 [31:0] $end
     $var wire  3 # WE3 [2:0] $end
     $var wire 32 u a0 [31:0] $end
     $var wire  1 s clk $end
    $upscope $end
    $scope module resultMux $end
     $var wire 32 y CONTROL_WIDTH [31:0] $end
     $var wire 32 w DATA_WIDTH [31:0] $end
     $var wire  2 & control [1:0] $end
     $var wire 32 j input0 [31:0] $end
     $var wire 32 i input1 [31:0] $end
     $var wire 32 h input2 [31:0] $end
     $var wire 32 k out [31:0] $end
    $upscope $end
   $upscope $end
   $scope module hazard $end
    $var wire  1 : Den_o $end
    $var wire  1 > Drst_o $end
    $var wire  1 ; Een_o $end
    $var wire  1 : Fen_o $end
    $var wire  2 < FowardAE_o [1:0] $end
    $var wire  2 = FowardBE_o [1:0] $end
    $var wire  1 > Frst_o $end
    $var wire  3 - ImmSrcE_i [2:0] $end
    $var wire  2 0 PCSrcE_i [1:0] $end
    $var wire  1 ; PCen_o $end
    $var wire  1 z PCrst_o $end
    $var wire  5 5 RdE_i [4:0] $end
    $var wire  5 3 RdM_i [4:0] $end
    $var wire  5 4 RdW_i [4:0] $end
    $var wire  3 $ RegWriteM_i [2:0] $end
    $var wire  3 # RegWriteW_i [2:0] $end
    $var wire  5 W Rs1D_i [4:0] $end
    $var wire  5 1 Rs1E_i [4:0] $end
    $var wire  5 X Rs2D_i [4:0] $end
    $var wire  5 2 Rs2E_i [4:0] $end
    $var wire  7 6 opcodeE_i [6:0] $end
    $var wire  7 | opcodeM [6:0] $end
    $scope module ControlHazard $end
     $var wire  1 > Drst $end
     $var wire  1 > Frst $end
     $var wire  2 0 PCSrcE [1:0] $end
    $upscope $end
    $scope module FowardHazard $end
     $var wire  1 o A $end
     $var wire  1 p B $end
     $var wire  2 < FowardAE [1:0] $end
     $var wire  2 = FowardBE [1:0] $end
     $var wire  3 - ImmSrcE [2:0] $end
     $var wire  5 3 RdM [4:0] $end
     $var wire  5 4 RdW [4:0] $end
     $var wire  3 $ RegWriteM [2:0] $end
     $var wire  3 # RegWriteW [2:0] $end
     $var wire  5 1 Rs1E [4:0] $end
     $var wire  5 2 Rs2E [4:0] $end
     $var wire  1 } Stall $end
     $var wire  7 | opcodeM [6:0] $end
    $upscope $end
    $scope module StallHazard $end
     $var wire  1 o A $end
     $var wire  1 q B $end
     $var wire  1 : Den $end
     $var wire  1 ; Een $end
     $var wire  1 : Fen $end
     $var wire  1 ~ Flip $end
     $var wire  3 - ImmSrcE [2:0] $end
     $var wire  1 ; PCen $end
     $var wire  5 5 RdE [4:0] $end
     $var wire  5 W Rs1D [4:0] $end
     $var wire  5 X Rs2D [4:0] $end
     $var wire  7 6 opcodeE [6:0] $end
    $upscope $end
   $upscope $end
   $scope module pc $end
    $var wire 32 . ALUResultE_i [31:0] $end
    $var wire 32 w DATA_WIDTH [31:0] $end
    $var wire 32 8 PCF_o [31:0] $end
    $var wire 32 9 PCPlus4F_o [31:0] $end
    $var wire  2 0 PCSrc_i [1:0] $end
    $var wire 32 / PCTarget_i [31:0] $end
    $var wire  1 ; PCen_i $end
    $var wire  1 z PCrst_i $end
    $var wire  1 s clk $end
    $var wire 32 r next_PC [31:0] $end
    $scope module pc_mux $end
     $var wire 32 y CONTROL_WIDTH [31:0] $end
     $var wire 32 w DATA_WIDTH [31:0] $end
     $var wire  2 0 control [1:0] $end
     $var wire 32 9 input0 [31:0] $end
     $var wire 32 / input1 [31:0] $end
     $var wire 32 . input2 [31:0] $end
     $var wire 32 r out [31:0] $end
    $upscope $end
    $scope module pc_reg $end
     $var wire  1 ; PCen $end
     $var wire 32 w WIDTH [31:0] $end
     $var wire  1 s clk $end
     $var wire 32 r next_PC [31:0] $end
     $var wire 32 8 pc [31:0] $end
     $var wire  1 z rst $end
    $upscope $end
   $upscope $end
  $upscope $end
 $upscope $end
$enddefinitions $end


#0
b000 #
b000 $
b00 %
b00 &
b000 '
0(
b00000000000000000000000000000000 )
b00000000000000000000000000000000 *
b00000000000000000000000000000000 +
b00000000000000000000000000000000 ,
b000 -
b00000000000000000000000000000000 .
b00000000000000000000000000000000 /
b00 0
b00000 1
b00000 2
b00000 3
b00000 4
b00000 5
b0000000 6
17
b00000000000000000000000000000000 8
b00000000000000000000000000000100 9
0:
1;
b00 <
b00 =
0>
b000 ?
b00000000000000000000000000000000 @
1A
b00 B
b00 C
b000 D
0E
0F
0G
b000 H
b000 I
b00 J
b00 K
0L
0M
b000 N
b00 O
b0000000 P
b000 Q
0R
b00 S
0T
0U
b000000000000000 V
b00000 W
b00000 X
b00000 Y
b00000000000000000000000000000000 Z
b00000000000000000000000000000000 [
b00000000000000000000000000000000 \
b00000000000000000000000000000000 ]
b00000000000000000000000000000000 ^
b00000000000000000000000000000000 _
b00000000000000000000000000000000 `
b00000000000000000000000000000000 a
b00000000000000000000000000000000 b
b00000000000000000000000000000000 c
b00000000000000000000000000000000 d
b00000000000000000000000000000000 e
b00000000000000000000000000000000 f
b00000000000000000000000000000000 g
b00000000000000000000000000000000 h
b00000000000000000000000000000000 i
b00000000000000000000000000000000 j
b00000000000000000000000000000000 k
b00000000 l
b00000000 m
b00000000 n
0o
0p
0q
b00000000000000000000000000000100 r
0s
0t
b00000000000000000000000000000000 u
b00000000000000000000000000001000 v
b00000000000000000000000000100000 w
b00000000000000000000000000000011 x
b00000000000000000000000000000010 y
0z
b00000000000000000000000000000111 {
b0000000 |
1}
0~
#1
1:
b00000001000000000000000011101111 @
b00000000000000000000000011111110 g
1o
1s
#2
0s
#3
b00000001000000000000000011101111 )
b00000000000000000000000000010000 *
b00000000000000000000000000000100 ,
b00000000000000000000000000000100 8
b00000000000000000000000000001000 9
b011 ?
b00000010000000000000000011101111 @
b10 B
1F
b001 H
b1101111 P
1T
b001100010001100 V
b10000 X
b00001 Y
b00000000000000000000000011111110 i
b00010000 m
b00000000000000000000000000001000 r
1s
#4
0s
#5
b00000010000000000000000011101111 )
b00000000000000000000000000100000 *
b00000000000000000000000000000100 +
b00000000000000000000000000001000 ,
b011 -
b00000000000000000000000000010000 /
b01 0
b10000 2
b00001 5
b1101111 6
b00000000000000000000000000001000 8
b00000000000000000000000000001100 9
1>
b00000101000000000000000011101111 @
b001 I
b10 J
1L
b00000 X
b00000000000000000000000000000100 _
b00000000000000000000000000010000 c
b00000000 m
0o
b00000000000000000000000000010000 r
1s
#6
0s
#7
b001 $
b00000000000000000000000000000000 )
b00000000000000000000000000000000 *
b00000000000000000000000000000000 +
b00000000000000000000000000000000 ,
b000 -
b00000000000000000000000000000000 /
b00 0
b00000 2
b00001 3
b00000 5
b0000000 6
b00000000000000000000000000010000 8
b00000000000000000000000000010100 9
0>
b000 ?
b00010000000000000000010110010011 @
b00 B
0F
b000 H
b000 I
b00 J
0L
b10 O
b0000000 P
0T
b000000000000000 V
b00000 Y
b00000000000000000000000000000000 _
b00000000000000000000000000000000 c
b00000000000000000000000000000100 f
1o
b00000000000000000000000000010100 r
1s
#8
0s
#9
b001 #
b000 $
b10 &
b00010000000000000000010110010011 )
b00000000000000000000000100000000 *
b00000000000000000000000000010000 +
b00000000000000000000000000010100 ,
b00000 3
b00001 4
b00000000000000000000000000010100 8
b00000000000000000000000000011000 9
b11111111111101011000010110010011 @
1E
b001 H
b00 O
b0010011 P
b10 S
b001000000100010 V
b01011 Y
b00000000000000000000000000000000 f
b00000000000000000000000000000100 h
b00000000000000000000000000000100 k
b00000001 n
b00000000000000000000000000011000 r
1s
#10
0s
#11
b000 #
b00 &
1(
b11111111111101011000010110010011 )
b11111111111111111111111111111111 *
b00000000000000000000000000010100 +
b00000000000000000000000000011000 ,
b00000000000000000000000100000000 .
b00000000000000000000000100010000 /
b00000 4
b01011 5
b0010011 6
07
b00000000000000000000000000011000 8
b00000000000000000000000000011100 9
b00010000000001011000000000100011 @
0A
b001 I
1R
b01011 W
b11111 X
b00000000000000000000000000010000 ^
b00000000000000000000000000010100 _
b00000000000000000000000100000000 a
b00000000000000000000000100000000 c
b00000000000000000000000000000000 h
b00000000000000000000000000000000 k
b00001011 l
b00011111 m
b00000000 n
b00000000000000000000000000011100 r
1s
#12
0s
#13
b001 $
b00010000000001011000000000100011 )
b00000000000000000000000100000000 *
b00000000000000000000000000011000 +
b00000000000000000000000000011100 ,
b00000000000000000000000011111111 .
b00000000000000000000000000010011 /
b01011 1
b11111 2
b01011 3
b00000000000000000000000000011100 8
b00000000000000000000000000100000 9
b10 <
b010 ?
b11111110000001011001110011100011 @
b11 C
b000 H
b0100011 P
0R
b00 S
1T
b000001100101000 V
b00000 X
b00000 Y
b00000000000000000000000000010100 ^
b00000000000000000000000000011000 _
b00000000000000000000000100000000 `
b11111111111111111111111111111111 a
b11111111111111111111111111111111 c
b00000000000000000000000100000000 d
b00000000000000000000000000010100 f
b00000000 m
b00000000000000000000000000100000 r
1s
#14
0s
#15
b001 #
b11111110000001011001110011100011 )
b11111111111111111111111111111000 *
b00000000000000000000000000011100 +
b00000000000000000000000000100000 ,
b010 -
b00000000000000000000000111111111 .
b00000000000000000000000100011000 /
b00000 2
b01011 4
b00000 5
b0100011 6
b00000000000000000000000000100000 8
b00000000000000000000000000100100 9
b00000000000000001000000001100111 @
b00 C
b001 D
0E
1G
b000 I
b11 K
b1100011 P
b001 Q
1R
b01 S
1U
b000000001001001 V
b11001 Y
b00000000000000000000000000011000 ^
b00000000000000000000000000011100 _
b00000000000000000000000011111111 `
b00000000000000000000000100000000 a
b00000000000000000000000100000000 c
b00000000000000000000000011111111 d
b00000000000000000000000000011000 f
b00000000000000000000000000000000 g
b00000000000000000000000000010100 h
b00000000000000000000000100000000 j
b00000000000000000000000100000000 k
b00001011 n
1p
1q
b00000000000000000000000000100100 r
1s
#16
0s
#17
b000 $
b11 %
b001 '
0(
b00000000000000001000000001100111 )
b00000000000000000000000000000000 *
b00000000000000000000000000100000 +
b00000000000000000000000000100100 ,
b00000000000000000000000011111111 .
b00000000000000000000000000010100 /
b01 0
b00000 3
b11001 5
b1100011 6
b00000000000000000000000000100100 8
b00000000000000000000000000101000 9
b01 <
1>
b000 ?
b00000000000000010000010110110111 @
1A
b10 B
b000 D
1E
1F
0G
b001 H
b00 K
1M
b001 N
b1100111 P
b000 Q
0R
b00 S
0U
b001100010100000 V
b00001 W
b00000 Y
b00000000000000000000000000000100 Z
b00000000000000000000000000011100 ^
b00000000000000000000000000100000 _
b00000000000000000000000000000000 a
b11111111111111111111111111111000 c
b00000000000000000000000111111111 d
b00000000000000000000000000011100 f
b00000000000000000000000000011000 h
b00000000000000000000000000000000 i
b00000000000000000000000011111111 j
b00000000000000000000000011111111 k
b00000001 l
b00000000000000000000000000010100 r
1s
#18
0s
#19
b000 #
b00 %
b000 '
b00000000000000000000000000000000 )
b00000000000000000000000000000000 +
b00000000000000000000000000000000 ,
b000 -
b00000000000000000000000000000000 .
b00000000000000000000000000000000 /
b00 0
b00000 1
b11001 3
b00000 4
b00000 5
b0000000 6
17
b00000000000000000000000000010100 8
b00000000000000000000000000011000 9
b00 <
0>
b11111111111101011000010110010011 @
b00 B
0E
0F
b000 H
0M
b000 N
b0000000 P
0T
b000000000000000 V
b00000 W
b00000000000000000000000000000000 Z
b00000000000000000000000000000000 ^
b00000000000000000000000000000000 _
b00000000000000000000000000000000 `
b00000000000000000000000000000000 c
b00000000000000000000000011111111 d
b00000000000000000000000000100000 f
b00000000000000000000000000011100 h
b00000000000000000000000111111111 j
b00000000000000000000000111111111 k
b00000000 l
b00000000 n
0p
0q
b00000000000000000000000000011000 r
1s
#20
0s
#21
b11111111111101011000010110010011 )
b11111111111111111111111111111111 *
b00000000000000000000000000010100 +
b00000000000000000000000000011000 ,
b00000 3
b11001 4
b00000000000000000000000000011000 8
b00000000000000000000000000011100 9
b00010000000001011000000000100011 @
1E
b001 H
b0010011 P
1R
b10 S
b001000000100010 V
b01011 W
b11111 X
b01011 Y
b00000000000000000000000011111111 Z
b00000000000000000000000000000000 d
b00000000000000000000000000000000 f
b00000000000000000000000011111110 g
b00000000000000000000000000100000 h
b00000000000000000000000011111111 j
b00000000000000000000000011111111 k
b00001011 l
b00011111 m
b00011001 n
b00000000000000000000000000011100 r
1s
#22
0s
#23
1(
b00010000000001011000000000100011 )
b00000000000000000000000100000000 *
b00000000000000000000000000011000 +
b00000000000000000000000000011100 ,
b00000000000000000000000011111110 .
b00000000000000000000000000010011 /
b01011 1
b11111 2
b00000 4
b01011 5
b0010011 6
07
b00000000000000000000000000011100 8
b00000000000000000000000000100000 9
b010 ?
b11111110000001011001110011100011 @
0A
b11 C
b000 H
b001 I
b0100011 P
0R
b00 S
1T
b000001100101000 V
b00000 X
b00000 Y
b00000000000000000000000011111111 \
b00000000000000000000000000010100 ^
b00000000000000000000000000011000 _
b00000000000000000000000011111111 `
b11111111111111111111111111111111 a
b11111111111111111111111111111111 c
b00000000000000000000000000000000 h
b00000000000000000000000011111110 i
b00000000000000000000000000000000 j
b00000000000000000000000000000000 k
b00000000 m
b00000000 n
b00000000000000000000000000100000 r
1s
#24
0s
#25
b001 $
b11111110000001011001110011100011 )
b11111111111111111111111111111000 *
b00000000000000000000000000011100 +
b00000000000000000000000000100000 ,
b010 -
b00000000000000000000000111111110 .
b00000000000000000000000100011000 /
b00000 2
b01011 3
b00000 5
b0100011 6
b00000000000000000000000000100000 8
b00000000000000000000000000100100 9
b10 <
b00000000000000001000000001100111 @
b00 C
b001 D
0E
1G
b000 I
b11 K
b1100011 P
b001 Q
1R
b01 S
1U
b000000001001001 V
b11001 Y
b00000000000000000000000000011000 ^
b00000000000000000000000000011100 _
b00000000000000000000000011111110 `
b00000000000000000000000100000000 a
b00000000000000000000000100000000 c
b00000000000000000000000011111110 d
b00000000000000000000000000011000 f
b00000000000000000000000011111101 g
1p
1q
b00000000000000000000000000100100 r
1s
#26
0s
#27
b001 #
b000 $
b11 %
b001 '
0(
b00000000000000001000000001100111 )
b00000000000000000000000000000000 *
b00000000000000000000000000100000 +
b00000000000000000000000000100100 ,
b00000000000000000000000011111110 .
b00000000000000000000000000010100 /
b01 0
b00000 3
b01011 4
b11001 5
b1100011 6
b00000000000000000000000000100100 8
b00000000000000000000000000101000 9
b01 <
1>
b000 ?
b00000000000000010000010110110111 @
1A
b10 B
b000 D
1E
1F
0G
b001 H
b00 K
1M
b001 N
b1100111 P
b000 Q
0R
b00 S
0U
b001100010100000 V
b00001 W
b00000 Y
b00000000000000000000000000000100 Z
b00000000000000000000000000011100 ^
b00000000000000000000000000100000 _
b00000000000000000000000000000000 a
b11111111111111111111111111111000 c
b00000000000000000000000111111110 d
b00000000000000000000000000011100 f
b00000000000000000000000000011000 h
b00000000000000000000000011111101 i
b00000000000000000000000011111110 j
b00000000000000000000000011111110 k
b00000001 l
b00001011 n
b00000000000000000000000000010100 r
1s
#28
0s
#29
b000 #
b00 %
b000 '
b00000000000000000000000000000000 )
b00000000000000000000000000000000 +
b00000000000000000000000000000000 ,
b000 -
b00000000000000000000000000000000 .
b00000000000000000000000000000000 /
b00 0
b00000 1
b11001 3
b00000 4
b00000 5
b0000000 6
17
b00000000000000000000000000010100 8
b00000000000000000000000000011000 9
b00 <
0>
b11111111111101011000010110010011 @
b00 B
0E
0F
b000 H
0M
b000 N
b0000000 P
0T
b000000000000000 V
b00000 W
b00000000000000000000000000000000 Z
b00000000000000000000000000000000 \
b00000000000000000000000000000000 ^
b00000000000000000000000000000000 _
b00000000000000000000000000000000 `
b00000000000000000000000000000000 c
b00000000000000000000000011111110 d
b00000000000000000000000000100000 f
b00000000000000000000000000000000 g
b00000000000000000000000000011100 h
b00000000000000000000000111111110 j
b00000000000000000000000111111110 k
b00000000 l
b00000000 n
0p
0q
b00000000000000000000000000011000 r
1s
#30
0s
