pipelined/cpu.vcd
$version Generated by VerilatedVcd $end
$date Wed Dec 13 22:59:19 2023 $end
$timescale 1ps $end

 $scope module TOP $end
  $var wire 32 q a0 [31:0] $end
  $var wire  1 o clk $end
  $var wire  1 p rst $end
  $scope module cpu $end
   $var wire 32 r ADDRESS_WIDTH [31:0] $end
   $var wire  3 ' ALUControlE [2:0] $end
   $var wire 32 - ALUResultE [31:0] $end
   $var wire  1 ( ALUSrcE $end
   $var wire 32 t CONTROL_WIDTH [31:0] $end
   $var wire 32 s DATA_WIDTH [31:0] $end
   $var wire  1 9 Den $end
   $var wire  1 = Drst $end
   $var wire 32 * ExtImmD [31:0] $end
   $var wire  1 9 Fen $end
   $var wire  2 ; FowardAE [1:0] $end
   $var wire  2 < FowardBE [1:0] $end
   $var wire  1 = Frst $end
   $var wire 32 u IMM_WIDTH [31:0] $end
   $var wire 32 ) InstrD [31:0] $end
   $var wire  2 % MemWriteM [1:0] $end
   $var wire  7 5 OpcodeE [6:0] $end
   $var wire 32 + PCD [31:0] $end
   $var wire 32 7 PCF [31:0] $end
   $var wire 32 , PCPlus4D [31:0] $end
   $var wire 32 8 PCPlus4F [31:0] $end
   $var wire  2 / PCSrcE [1:0] $end
   $var wire 32 . PCTarget [31:0] $end
   $var wire  1 : PCen $end
   $var wire  1 v PCrst $end
   $var wire  5 4 RdE [4:0] $end
   $var wire  5 2 RdM [4:0] $end
   $var wire  5 3 RdW [4:0] $end
   $var wire  3 $ RegWriteM [2:0] $end
   $var wire  3 # RegWriteW [2:0] $end
   $var wire  2 & ResultSrcW [1:0] $end
   $var wire  5 0 Rs1E [4:0] $end
   $var wire  5 1 Rs2E [4:0] $end
   $var wire  1 6 ZeroE $end
   $var wire 32 q a0 [31:0] $end
   $var wire  1 o clk $end
   $var wire  1 p rst $end
   $scope module alu $end
    $var wire  3 ' ALUControlE_i [2:0] $end
    $var wire 32 - ALUResultE_o [31:0] $end
    $var wire 32 L ALUResultM [31:0] $end
    $var wire 32 R ALUResultW [31:0] $end
    $var wire  1 ( ALUSrcE_i $end
    $var wire 32 t CONTROL_WIDTH [31:0] $end
    $var wire 32 s DATA_WIDTH [31:0] $end
    $var wire  1 9 Den_i $end
    $var wire  1 = Drst_i $end
    $var wire 32 * ExtImmD_i [31:0] $end
    $var wire 32 K ExtImmE [31:0] $end
    $var wire  2 ; FowardAE_i [1:0] $end
    $var wire  2 < FowardBE_i [1:0] $end
    $var wire  2 % MemWriteM_i [1:0] $end
    $var wire 32 + PCD_i [31:0] $end
    $var wire 32 F PCE [31:0] $end
    $var wire 32 , PCPlus4D_i [31:0] $end
    $var wire 32 G PCPlus4E [31:0] $end
    $var wire 32 N PCPlus4M [31:0] $end
    $var wire 32 P PCPlus4W [31:0] $end
    $var wire 32 . PCTargetE_o [31:0] $end
    $var wire 32 B RD1D [31:0] $end
    $var wire 32 D RD1E [31:0] $end
    $var wire 32 C RD2D [31:0] $end
    $var wire 32 E RD2E [31:0] $end
    $var wire  5 @ RdD_i [4:0] $end
    $var wire  5 4 RdE_o [4:0] $end
    $var wire  5 2 RdM_o [4:0] $end
    $var wire  5 3 RdW_o [4:0] $end
    $var wire 32 O ReadDataM [31:0] $end
    $var wire 32 Q ReadDataW [31:0] $end
    $var wire  3 # RegWriteW_i [2:0] $end
    $var wire  2 & ResultSrcW_i [1:0] $end
    $var wire 32 S ResultW [31:0] $end
    $var wire  5 > Rs1D_i [4:0] $end
    $var wire  5 0 Rs1E_o [4:0] $end
    $var wire  5 ? Rs2D_i [4:0] $end
    $var wire  5 1 Rs2E_o [4:0] $end
    $var wire 32 H SrcAE [31:0] $end
    $var wire 32 I SrcBE [31:0] $end
    $var wire 32 J WriteDataE [31:0] $end
    $var wire 32 M WriteDataM [31:0] $end
    $var wire  1 6 ZeroE_o $end
    $var wire 32 q a0 [31:0] $end
    $var wire  1 o clk $end
    $var wire  7 A opcodeD_i [6:0] $end
    $var wire  7 5 opcodeE_o [6:0] $end
    $scope module ALU $end
     $var wire  3 ' ALUControl [2:0] $end
     $var wire 32 - ALUResult [31:0] $end
     $var wire 32 t CONTROL_WIDTH [31:0] $end
     $var wire 32 s DATA_WIDTH [31:0] $end
     $var wire 32 H SrcA [31:0] $end
     $var wire 32 I SrcB [31:0] $end
     $var wire  1 6 Zero $end
    $upscope $end
    $scope module ALUMux $end
     $var wire 32 s DATA_WIDTH [31:0] $end
     $var wire  1 ( control $end
     $var wire 32 J input0 [31:0] $end
     $var wire 32 K input1 [31:0] $end
     $var wire 32 I out [31:0] $end
    $upscope $end
    $scope module DREg $end
     $var wire 32 s DATA_WIDTH [31:0] $end
     $var wire 32 * ExtImmD [31:0] $end
     $var wire 32 K ExtImmE [31:0] $end
     $var wire 32 + PCD [31:0] $end
     $var wire 32 F PCE [31:0] $end
     $var wire 32 , PCPlus4D [31:0] $end
     $var wire 32 G PCPlus4E [31:0] $end
     $var wire 32 B RD1D [31:0] $end
     $var wire 32 D RD1E [31:0] $end
     $var wire 32 C RD2D [31:0] $end
     $var wire 32 E RD2E [31:0] $end
     $var wire  5 @ RdD [4:0] $end
     $var wire  5 4 RdE [4:0] $end
     $var wire  5 > Rs1D [4:0] $end
     $var wire  5 0 Rs1E [4:0] $end
     $var wire  5 ? Rs2D [4:0] $end
     $var wire  5 1 Rs2E [4:0] $end
     $var wire  1 o clk $end
     $var wire  1 9 en $end
     $var wire  7 A opcodeD [6:0] $end
     $var wire  7 5 opcodeE [6:0] $end
     $var wire  1 = rst $end
    $upscope $end
    $scope module EREG $end
     $var wire 32 - ALUResultE [31:0] $end
     $var wire 32 L ALUResultM [31:0] $end
     $var wire 32 s DATA_WIDTH [31:0] $end
     $var wire 32 G PCPlus4E [31:0] $end
     $var wire 32 N PCPlus4M [31:0] $end
     $var wire  5 4 RdE [4:0] $end
     $var wire  5 2 RdM [4:0] $end
     $var wire 32 J WriteDataE [31:0] $end
     $var wire 32 M WriteDataM [31:0] $end
     $var wire  1 o clk $end
    $upscope $end
    $scope module MREG $end
     $var wire 32 L ALUResultM [31:0] $end
     $var wire 32 R ALUResultW [31:0] $end
     $var wire 32 s DATA_WIDTH [31:0] $end
     $var wire 32 N PCPlus4M [31:0] $end
     $var wire 32 P PCPlus4W [31:0] $end
     $var wire  5 2 RdM [4:0] $end
     $var wire  5 3 RdW [4:0] $end
     $var wire 32 O ReadDataM [31:0] $end
     $var wire 32 Q ReadDataW [31:0] $end
     $var wire  1 o clk $end
    $upscope $end
    $scope module RD1EHazardMux $end
     $var wire 32 u CONTROL_WIDTH [31:0] $end
     $var wire 32 s DATA_WIDTH [31:0] $end
     $var wire  2 ; control [1:0] $end
     $var wire 32 D input0 [31:0] $end
     $var wire 32 S input1 [31:0] $end
     $var wire 32 L input2 [31:0] $end
     $var wire 32 H out [31:0] $end
    $upscope $end
    $scope module RD2EHazardMux $end
     $var wire 32 u CONTROL_WIDTH [31:0] $end
     $var wire 32 s DATA_WIDTH [31:0] $end
     $var wire  2 < control [1:0] $end
     $var wire 32 E input0 [31:0] $end
     $var wire 32 S input1 [31:0] $end
     $var wire 32 L input2 [31:0] $end
     $var wire 32 J out [31:0] $end
    $upscope $end
    $scope module addPCTargetE $end
     $var wire 32 s DATA_WIDTH [31:0] $end
     $var wire 32 F input0 [31:0] $end
     $var wire 32 K input1 [31:0] $end
     $var wire 32 . out [31:0] $end
    $upscope $end
    $scope module data $end
     $var wire 32 L A [31:0] $end
     $var wire 32 r ADDRESS_WIDTH [31:0] $end
     $var wire 32 s DATA_WIDTH [31:0] $end
     $var wire 32 O RD [31:0] $end
     $var wire 32 M WD [31:0] $end
     $var wire  2 % WE [1:0] $end
     $var wire  1 o clk $end
    $upscope $end
    $scope module register $end
     $var wire  8 T A1 [7:0] $end
     $var wire  5 > A1_i [4:0] $end
     $var wire  8 U A2 [7:0] $end
     $var wire  5 ? A2_i [4:0] $end
     $var wire  8 V A3 [7:0] $end
     $var wire  5 3 A3_i [4:0] $end
     $var wire 32 r ADDRESS_WIDTH [31:0] $end
     $var wire 32 s DATA_WIDTH [31:0] $end
     $var wire 32 B RD1 [31:0] $end
     $var wire 32 C RD2 [31:0] $end
     $var wire 32 S WD3 [31:0] $end
     $var wire  3 # WE3 [2:0] $end
     $var wire 32 q a0 [31:0] $end
     $var wire  1 o clk $end
    $upscope $end
    $scope module resultMux $end
     $var wire 32 u CONTROL_WIDTH [31:0] $end
     $var wire 32 s DATA_WIDTH [31:0] $end
     $var wire  2 & control [1:0] $end
     $var wire 32 R input0 [31:0] $end
     $var wire 32 Q input1 [31:0] $end
     $var wire 32 P input2 [31:0] $end
     $var wire 32 S out [31:0] $end
    $upscope $end
   $upscope $end
   $scope module control $end
    $var wire 32 r ADDRESS_WIDTH [31:0] $end
    $var wire  3 \ ALUControlD [2:0] $end
    $var wire  3 ' ALUControlE_o [2:0] $end
    $var wire  1 ] ALUSrcD $end
    $var wire  1 ( ALUSrcE_o $end
    $var wire  1 _ BranchD $end
    $var wire  1 e BranchE $end
    $var wire 32 s DATA_WIDTH [31:0] $end
    $var wire  1 9 Den_i $end
    $var wire  1 = Drst_i $end
    $var wire 32 * ExtImmD_o [31:0] $end
    $var wire  1 9 Fen_i $end
    $var wire  1 = Frst_i $end
    $var wire  3 W ImmSrcD [2:0] $end
    $var wire 32 ) InstrD_o [31:0] $end
    $var wire 32 X InstrF [31:0] $end
    $var wire  1 ^ JumpD $end
    $var wire  1 d JumpE $end
    $var wire  2 [ MemWriteD [1:0] $end
    $var wire  2 c MemWriteE [1:0] $end
    $var wire  2 % MemWriteM_o [1:0] $end
    $var wire 32 + PCD_o [31:0] $end
    $var wire 32 7 PCF_i [31:0] $end
    $var wire 32 , PCPlus4D_o [31:0] $end
    $var wire 32 8 PCPlus4F_i [31:0] $end
    $var wire  2 / PCSrcE_o [1:0] $end
    $var wire  3 ` RegWriteD [2:0] $end
    $var wire  3 a RegWriteE [2:0] $end
    $var wire  3 $ RegWriteM_o [2:0] $end
    $var wire  3 # RegWriteW_o [2:0] $end
    $var wire  2 Z ResultSrcD [1:0] $end
    $var wire  2 b ResultSrcE [1:0] $end
    $var wire  2 g ResultSrcM [1:0] $end
    $var wire  2 & ResultSrcW_o [1:0] $end
    $var wire  1 6 ZeroE_i $end
    $var wire  1 Y ZeroOp $end
    $var wire  1 o clk $end
    $var wire  3 f funct3E [2:0] $end
    $scope module ControlUnit $end
     $var wire  3 \ ALUControlD [2:0] $end
     $var wire  2 j ALUOpD [1:0] $end
     $var wire  1 ] ALUSrcD $end
     $var wire  1 _ BranchD $end
     $var wire  3 W ImmSrcD [2:0] $end
     $var wire  1 ^ JumpD $end
     $var wire  2 [ MemWriteD [1:0] $end
     $var wire 32 w OP_WIDTH [31:0] $end
     $var wire  3 ` RegWriteD [2:0] $end
     $var wire  2 Z ResultSrcD [1:0] $end
     $var wire  3 h funct3 [2:0] $end
     $var wire  1 i funct7b5 $end
     $var wire  7 A op [6:0] $end
     $scope module aludec $end
      $var wire  3 \ ALUControl [2:0] $end
      $var wire  2 j ALUOp [1:0] $end
      $var wire 32 t CONTROL_WIDTH [31:0] $end
      $var wire  1 l RtypeSub $end
      $var wire  3 h funct3 [2:0] $end
      $var wire  1 i funct7b5 $end
      $var wire  1 k opb5 $end
     $upscope $end
     $scope module maindec $end
      $var wire  2 j ALUOp [1:0] $end
      $var wire  1 ] ALUSrc $end
      $var wire  1 _ Branch $end
      $var wire  3 W ImmSrc [2:0] $end
      $var wire  1 ^ Jump $end
      $var wire  2 [ MemWrite [1:0] $end
      $var wire 32 w OP_WIDTH [31:0] $end
      $var wire  3 ` RegWrite [2:0] $end
      $var wire  2 Z ResultSrc [1:0] $end
      $var wire 15 m controls [14:0] $end
      $var wire  3 h funct3 [2:0] $end
      $var wire  7 A op [6:0] $end
     $upscope $end
    $upscope $end
    $scope module DReg $end
     $var wire  3 \ ALUControlD [2:0] $end
     $var wire  3 ' ALUControlE [2:0] $end
     $var wire  1 ] ALUSrcD $end
     $var wire  1 ( ALUSrcE $end
     $var wire  1 _ BranchD $end
     $var wire  1 e BranchE $end
     $var wire 32 s DATA_WIDTH [31:0] $end
     $var wire  1 ^ JumpD $end
     $var wire  1 d JumpE $end
     $var wire  2 [ MemWriteD [1:0] $end
     $var wire  2 c MemWriteE [1:0] $end
     $var wire  3 ` RegWriteD [2:0] $end
     $var wire  3 a RegWriteE [2:0] $end
     $var wire  2 Z ResultSrcD [1:0] $end
     $var wire  2 b ResultSrcE [1:0] $end
     $var wire  1 o clk $end
     $var wire  1 9 en $end
     $var wire  3 h funct3D [2:0] $end
     $var wire  3 f funct3E [2:0] $end
     $var wire  1 = rst $end
    $upscope $end
    $scope module EREG $end
     $var wire 32 s DATA_WIDTH [31:0] $end
     $var wire  2 c MemWriteE [1:0] $end
     $var wire  2 % MemWriteM [1:0] $end
     $var wire  3 a RegWriteE [2:0] $end
     $var wire  3 $ RegWriteM [2:0] $end
     $var wire  2 b ResultSrcE [1:0] $end
     $var wire  2 g ResultSrcM [1:0] $end
     $var wire  1 o clk $end
    $upscope $end
    $scope module FReg $end
     $var wire 32 s DATA_WIDTH [31:0] $end
     $var wire 32 ) InstrD [31:0] $end
     $var wire 32 X InstrF [31:0] $end
     $var wire 32 + PCD [31:0] $end
     $var wire 32 7 PCF [31:0] $end
     $var wire 32 , PCPlus4D [31:0] $end
     $var wire 32 8 PCPlus4F [31:0] $end
     $var wire  1 o clk $end
     $var wire  1 9 en $end
     $var wire  1 = rst $end
    $upscope $end
    $scope module InstrMem $end
     $var wire 32 r ADDRESS_WIDTH [31:0] $end
     $var wire 32 s DATA_WIDTH [31:0] $end
     $var wire 32 X Instr_o [31:0] $end
     $var wire 32 7 addr_i [31:0] $end
    $upscope $end
    $scope module MREG $end
     $var wire 32 s DATA_WIDTH [31:0] $end
     $var wire  3 $ RegWriteM [2:0] $end
     $var wire  3 # RegWriteW [2:0] $end
     $var wire  2 g ResultSrcM [1:0] $end
     $var wire  2 & ResultSrcW [1:0] $end
     $var wire  1 o clk $end
    $upscope $end
    $scope module MySignExtend $end
     $var wire 32 s DATA_WIDTH [31:0] $end
     $var wire 32 * ExtImm [31:0] $end
     $var wire 32 t IMM_WIDTH [31:0] $end
     $var wire  3 W ImmSrc [2:0] $end
     $var wire 32 ) instr [31:0] $end
    $upscope $end
   $upscope $end
   $scope module hazard $end
    $var wire  1 9 Den_o $end
    $var wire  1 = Drst_o $end
    $var wire  1 9 Fen_o $end
    $var wire  2 ; FowardAE_o [1:0] $end
    $var wire  2 < FowardBE_o [1:0] $end
    $var wire  1 = Frst_o $end
    $var wire  2 / PCSrcE_i [1:0] $end
    $var wire  1 : PCen_o $end
    $var wire  1 v PCrst_o $end
    $var wire  5 4 RdE_i [4:0] $end
    $var wire  5 2 RdM_i [4:0] $end
    $var wire  5 3 RdW_i [4:0] $end
    $var wire  3 $ RegWriteM_i [2:0] $end
    $var wire  3 # RegWriteW_i [2:0] $end
    $var wire  5 > Rs1D_i [4:0] $end
    $var wire  5 0 Rs1E_i [4:0] $end
    $var wire  5 ? Rs2D_i [4:0] $end
    $var wire  5 1 Rs2E_i [4:0] $end
    $var wire  7 5 opcodeE_i [6:0] $end
    $scope module ControlHazard $end
     $var wire  1 = Drst $end
     $var wire  1 = Frst $end
     $var wire  2 / PCSrcE [1:0] $end
     $var wire  1 v PCrst $end
    $upscope $end
    $scope module FowardHazard $end
     $var wire  2 ; FowardAE [1:0] $end
     $var wire  2 < FowardBE [1:0] $end
     $var wire  5 2 RdM [4:0] $end
     $var wire  5 3 RdW [4:0] $end
     $var wire  3 $ RegWriteM [2:0] $end
     $var wire  3 # RegWriteW [2:0] $end
     $var wire  5 0 Rs1E [4:0] $end
     $var wire  5 1 Rs2E [4:0] $end
    $upscope $end
    $scope module StallHazard $end
     $var wire  1 9 Den $end
     $var wire  1 9 Fen $end
     $var wire  1 : PCen $end
     $var wire  5 4 RdE [4:0] $end
     $var wire  5 > Rs1D [4:0] $end
     $var wire  5 ? Rs2D [4:0] $end
     $var wire  7 5 opcodeE [6:0] $end
    $upscope $end
   $upscope $end
   $scope module pc $end
    $var wire 32 - ALUResultE_i [31:0] $end
    $var wire 32 s DATA_WIDTH [31:0] $end
    $var wire 32 7 PCF_o [31:0] $end
    $var wire 32 8 PCPlus4F_o [31:0] $end
    $var wire  2 / PCSrc_i [1:0] $end
    $var wire 32 . PCTarget_i [31:0] $end
    $var wire  1 : PCen_i $end
    $var wire  1 v PCrst_i $end
    $var wire  1 o clk $end
    $var wire 32 n next_PC [31:0] $end
    $scope module pc_mux $end
     $var wire 32 u CONTROL_WIDTH [31:0] $end
     $var wire 32 s DATA_WIDTH [31:0] $end
     $var wire  2 / control [1:0] $end
     $var wire 32 8 input0 [31:0] $end
     $var wire 32 . input1 [31:0] $end
     $var wire 32 - input2 [31:0] $end
     $var wire 32 n out [31:0] $end
    $upscope $end
    $scope module pc_reg $end
     $var wire  1 : PCen $end
     $var wire 32 s WIDTH [31:0] $end
     $var wire  1 o clk $end
     $var wire 32 n next_PC [31:0] $end
     $var wire 32 7 pc [31:0] $end
     $var wire  1 v rst $end
    $upscope $end
   $upscope $end
  $upscope $end
 $upscope $end
$enddefinitions $end


#0
b000 #
b000 $
b00 %
b00 &
b000 '
0(
b00000000000000000000000000000000 )
b00000000000000000000000000000000 *
b00000000000000000000000000000000 +
b00000000000000000000000000000000 ,
b00000000000000000000000000000000 -
b00000000000000000000000000000000 .
b00 /
b00000 0
b00000 1
b00000 2
b00000 3
b00000 4
b0000000 5
16
b00000000000000000000000000000000 7
b00000000000000000000000000000100 8
09
1:
b00 ;
b00 <
0=
b00000 >
b00000 ?
b00000 @
b0000000 A
b00000000000000000000000000000000 B
b00000000000000000000000000000000 C
b00000000000000000000000000000000 D
b00000000000000000000000000000000 E
b00000000000000000000000000000000 F
b00000000000000000000000000000000 G
b00000000000000000000000000000000 H
b00000000000000000000000000000000 I
b00000000000000000000000000000000 J
b00000000000000000000000000000000 K
b00000000000000000000000000000000 L
b00000000000000000000000000000000 M
b00000000000000000000000000000000 N
b00000000000000000000000000000000 O
b00000000000000000000000000000000 P
b00000000000000000000000000000000 Q
b00000000000000000000000000000000 R
b00000000000000000000000000000000 S
b00000000 T
b00000000 U
b00000000 V
b000 W
b00000000000000000000000000000000 X
1Y
b00 Z
b00 [
b000 \
0]
0^
0_
b000 `
b000 a
b00 b
b00 c
0d
0e
b000 f
b00 g
b000 h
0i
b00 j
0k
0l
b000000000000000 m
b00000000000000000000000000000100 n
0o
0p
b00000000000000000000000000000000 q
b00000000000000000000000000001000 r
b00000000000000000000000000100000 s
b00000000000000000000000000000011 t
b00000000000000000000000000000010 u
0v
b00000000000000000000000000000111 w
#1
19
b00000000000000000000000011111110 O
b00000001000000000000000011101111 X
1o
#2
0o
#3
b00000001000000000000000011101111 )
b00000000000000000000000000010000 *
b00000000000000000000000000000100 ,
b00000000000000000000000000000100 7
b00000000000000000000000000001000 8
b10000 ?
b00001 @
b1101111 A
b00000000000000000000000011111110 Q
b00010000 U
b011 W
b00000010010000000000000011101111 X
b10 Z
1^
b001 `
1k
b001100010001100 m
b00000000000000000000000000001000 n
1o
#4
0o
#5
b00000010010000000000000011101111 )
b00000000000000000000000000100100 *
b00000000000000000000000000000100 +
b00000000000000000000000000001000 ,
b00000000000000000000000000010000 .
b01 /
b10000 1
b00001 4
b1101111 5
b00000000000000000000000000001000 7
b00000000000000000000000000001100 8
1=
b00100 ?
b00000000000000000000000000000100 G
b00000000000000000000000000010000 K
b00000100 U
b00000100010000000000000011101111 X
b001 a
b10 b
1d
b00000000000000000000000000010000 n
1o
#6
0o
#7
b001 $
b00000000000000000000000000000000 )
b00000000000000000000000000000000 *
b00000000000000000000000000000000 +
b00000000000000000000000000000000 ,
b00000000000000000000000000000000 .
b00 /
b00000 1
b00001 2
b00000 4
b0000000 5
b00000000000000000000000000010000 7
b00000000000000000000000000010100 8
0=
b00000 ?
b00000 @
b0000000 A
b00000000000000000000000000000000 G
b00000000000000000000000000000000 K
b00000000000000000000000000000100 N
b00000000 U
b000 W
b00010000000000000000010110010011 X
b00 Z
0^
b000 `
b000 a
b00 b
0d
b10 g
0k
b000000000000000 m
b00000000000000000000000000010100 n
1o
#8
0o
#9
b001 #
b000 $
b10 &
b00010000000000000000010110010011 )
b00000000000000000000000100000000 *
b00000000000000000000000000010000 +
b00000000000000000000000000010100 ,
b00000 2
b00001 3
b00000000000000000000000000010100 7
b00000000000000000000000000011000 8
b01011 @
b0010011 A
b00000000000000000000000000000000 N
b00000000000000000000000000000100 P
b00000000000000000000000000000100 S
b00000001 V
b00001111111100000000010110010011 X
1]
b001 `
b00 g
b10 j
b001000000100010 m
b00000000000000000000000000011000 n
1o
#10
0o
#11
b000 #
b00 &
1(
b00001111111100000000010110010011 )
b00000000000000000000000011111111 *
b00000000000000000000000000010100 +
b00000000000000000000000000011000 ,
b00000000000000000000000100000000 -
b00000000000000000000000100010000 .
b00000 3
b01011 4
b0010011 5
06
b00000000000000000000000000011000 7
b00000000000000000000000000011100 8
b11111 ?
b00000000000000000000000000010000 F
b00000000000000000000000000010100 G
b00000000000000000000000100000000 I
b00000000000000000000000100000000 K
b00000000000000000000000000000000 P
b00000000000000000000000000000000 S
b00011111 U
b00000000 V
b00000000000000000000010100010011 X
0Y
b001 a
b00000000000000000000000000011100 n
1o
#12
0o
#13
b001 $
b00000000000000000000010100010011 )
b00000000000000000000000000000000 *
b00000000000000000000000000011000 +
b00000000000000000000000000011100 ,
b00000000000000000000000011111111 -
b00000000000000000000000100010011 .
b11111 1
b01011 2
b00000000000000000000000000011100 7
b00000000000000000000000000100000 8
b00000 ?
b01010 @
b00000000000000000000000000010100 F
b00000000000000000000000000011000 G
b00000000000000000000000011111111 I
b00000000000000000000000011111111 K
b00000000000000000000000100000000 L
b00000000000000000000000000010100 N
b00000000 U
b00010000000001011000000000100011 X
b00000000000000000000000000100000 n
1o
#14
0o
#15
b001 #
b00010000000001011000000000100011 )
b00000000000000000000000100000000 *
b00000000000000000000000000011100 +
b00000000000000000000000000100000 ,
b00000000000000000000000000000000 -
b00000000000000000000000000011000 .
b00000 1
b01011 3
b01010 4
16
b00000000000000000000000000100000 7
b00000000000000000000000000100100 8
b01011 >
b00000 @
b0100011 A
b00000000000000000000000000011000 F
b00000000000000000000000000011100 G
b00000000000000000000000000000000 I
b00000000000000000000000000000000 K
b00000000000000000000000011111111 L
b00000000000000000000000000011000 N
b00000000000000000000000000000000 O
b00000000000000000000000000010100 P
b00000000000000000000000100000000 R
b00000000000000000000000100000000 S
b00001011 T
b00001011 V
b010 W
b11111110101101010000101011100011 X
1Y
b11 [
b000 `
b00 j
1k
b000001100101000 m
b00000000000000000000000000100100 n
1o
#16
0o
#17
b11111110101101010000101011100011 )
b11111111111111111111111111110100 *
b00000000000000000000000000100000 +
b00000000000000000000000000100100 ,
b00000000000000000000000111111111 -
b00000000000000000000000100011100 .
b01011 0
b01010 2
b00000 4
b0100011 5
06
b00000000000000000000000000100100 7
b00000000000000000000000000101000 8
b01 ;
b01010 >
b01011 ?
b10101 @
b1100011 A
b00000000000000000000000100000000 C
b00000000000000000000000000011100 F
b00000000000000000000000000100000 G
b00000000000000000000000011111111 H
b00000000000000000000000100000000 I
b00000000000000000000000100000000 K
b00000000000000000000000000000000 L
b00000000000000000000000000011100 N
b00000000000000000000000011111110 O
b00000000000000000000000000011000 P
b00000000000000000000000000000000 Q
b00000000000000000000000011111111 R
b00000000000000000000000011111111 S
b00001010 T
b00001011 U
b00000000000000001000000001100111 X
0Y
b00 [
b001 \
0]
1_
b000 a
b11 c
1i
b01 j
1l
b000000001001001 m
b00000000000000000000000000101000 n
1o
b00000000000000000000000100000000 q
#18
0o
#19
b000 $
b11 %
b001 '
0(
b00000000000000001000000001100111 )
b00000000000000000000000000000000 *
b00000000000000000000000000100100 +
b00000000000000000000000000101000 ,
b11111111111111111111111100000000 -
b00000000000000000000000000010100 .
b01010 0
b01011 1
b00000 2
b01010 3
b10101 4
b1100011 5
b00000000000000000000000000101000 7
b00000000000000000000000000101100 8
b00001 >
b00000 ?
b00000 @
b1100111 A
b00000000000000000000000000000100 B
b00000000000000000000000000000000 C
b00000000000000000000000100000000 E
b00000000000000000000000000100000 F
b00000000000000000000000000100100 G
b00000000000000000000000000000000 H
b00000000000000000000000100000000 J
b11111111111111111111111111110100 K
b00000000000000000000000111111111 L
b00000000000000000000000000100000 N
b00000000000000000000000000000000 O
b00000000000000000000000000011100 P
b00000000000000000000000011111110 Q
b00000000000000000000000000000000 R
b00000000000000000000000000000000 S
b00000001 T
b00000000 U
b00001010 V
b000 W
b00000000000000010000010110110111 X
b10 Z
b000 \
1]
1^
0_
b001 `
b00 c
1e
0i
b00 j
0l
b001100010100000 m
b00000000000000000000000000101100 n
1o
b00000000000000000000000011111111 q
#20
0o
#21
b000 #
b00 %
b000 '
1(
b00000000000000010000010110110111 )
b00000000000000010000000000000000 *
b00000000000000000000000000101000 +
b00000000000000000000000000101100 ,
b00000000000000000000000000000100 -
b00000000000000000000000000100100 .
b10 /
b00001 0
b00000 1
b10101 2
b00000 3
b00000 4
b1100111 5
b00000000000000000000000000101100 7
b00000000000000000000000000110000 8
b00 ;
1=
b00010 >
b01011 @
b0110111 A
b00000000000000000000000000000000 B
b00000000000000000000000000000100 D
b00000000000000000000000000000000 E
b00000000000000000000000000100100 F
b00000000000000000000000000101000 G
b00000000000000000000000000000100 H
b00000000000000000000000000000000 I
b00000000000000000000000000000000 J
b00000000000000000000000000000000 K
b11111111111111111111111100000000 L
b00000000000000000000000100000000 M
b00000000000000000000000000100100 N
b00000000000000000000000011111110 O
b00000000000000000000000000100000 P
b00000000000000000000000000000000 Q
b00000000000000000000000111111111 R
b00000000000000000000000111111111 S
b00000010 T
b00000000 V
b100 W
b00000000000000000000011000010011 X
b00 Z
b111 \
0^
b001 a
b10 b
1d
0e
b11 j
b001000000110011 m
b00000000000000000000000000000100 n
1o
#22
0o
#23
b001 $
0(
b00000000000000000000000000000000 )
b00000000000000000000000000000000 *
b00000000000000000000000000000000 +
b00000000000000000000000000000000 ,
b00000000000000000000000000000000 -
b00000000000000000000000000000000 .
b00 /
b00000 0
b00000 2
b10101 3
b0000000 5
16
b00000000000000000000000000000100 7
b00000000000000000000000000001000 8
0=
b00000 >
b00000 @
b0000000 A
b00000000000000000000000000000000 D
b00000000000000000000000000000000 F
b00000000000000000000000000000000 G
b00000000000000000000000000000000 H
b00000000000000000000000000000100 L
b00000000000000000000000000000000 M
b00000000000000000000000000101000 N
b00000000000000000000000011111101 O
b00000000000000000000000000100100 P
b00000000000000000000000011111110 Q
b11111111111111111111111100000000 R
b11111111111111111111111100000000 S
b00000000 T
b00010101 V
b000 W
b00000010010000000000000011101111 X
1Y
b000 \
0]
b000 `
b000 a
b00 b
0d
b10 g
b00 j
0k
b000000000000000 m
b00000000000000000000000000001000 n
1o
#24
0o
#25
b001 #
b000 $
b10 &
b00000010010000000000000011101111 )
b00000000000000000000000000100100 *
b00000000000000000000000000000100 +
b00000000000000000000000000001000 ,
b00000 3
b00000000000000000000000000001000 7
b00000000000000000000000000001100 8
b00100 ?
b00001 @
b1101111 A
b00000000000000000000000000000000 L
b00000000000000000000000000000000 N
b00000000000000000000000011111110 O
b00000000000000000000000000101000 P
b00000000000000000000000011111101 Q
b00000000000000000000000000000100 R
b00000000000000000000000000101000 S
b00000100 U
b00000000 V
b011 W
b00000100010000000000000011101111 X
b10 Z
1^
b001 `
b00 g
1k
b001100010001100 m
b00000000000000000000000000001100 n
1o
#26
0o
#27
b000 #
b00 &
b00000100010000000000000011101111 )
b00000000000000000000000001000100 *
b00000000000000000000000000001000 +
b00000000000000000000000000001100 ,
b00000000000000000000000000101000 .
b01 /
b00100 1
b00001 4
b1101111 5
b00000000000000000000000000001100 7
b00000000000000000000000000010000 8
1=
b00000000000000000000000000101000 B
b00000000000000000000000000000100 F
b00000000000000000000000000001000 G
b00000000000000000000000000100100 K
b00000000000000000000000000000000 P
b00000000000000000000000011111110 Q
b00000000000000000000000000000000 R
b00000000000000000000000000000000 S
b11111111110111111111000011101111 X
b001 a
b10 b
1d
b00000000000000000000000000101000 n
1o
#28
0o
#29
b001 $
b00000000000000000000000000000000 )
b00000000000000000000000000000000 *
b00000000000000000000000000000000 +
b00000000000000000000000000000000 ,
b00000000000000000000000000000000 .
b00 /
b00000 1
b00001 2
b00000 4
b0000000 5
b00000000000000000000000000101000 7
b00000000000000000000000000101100 8
0=
b00000 ?
b00000 @
b0000000 A
b00000000000000000000000000101000 C
b00000000000000000000000000000000 F
b00000000000000000000000000000000 G
b00000000000000000000000000000000 K
b00000000000000000000000000001000 N
b00000000 U
b000 W
b00000000000000010000010110110111 X
b00 Z
0^
b000 `
b000 a
b00 b
0d
b10 g
0k
b000000000000000 m
b00000000000000000000000000101100 n
1o
#30
0o
#31
b001 #
b000 $
b10 &
b00000000000000010000010110110111 )
b00000000000000010000000000000000 *
b00000000000000000000000000101000 +
b00000000000000000000000000101100 ,
b00000000000000000000000001010000 -
b00000 2
b00001 3
b00000000000000000000000000101100 7
b00000000000000000000000000110000 8
b00010 >
b01011 @
b0110111 A
b00000000000000000000000000000000 B
b00000000000000000000000000101000 D
b00000000000000000000000000101000 E
b00000000000000000000000000101000 H
b00000000000000000000000000101000 I
b00000000000000000000000000101000 J
b00000000000000000000000000000000 N
b00000000000000000000000000001000 P
b00000000000000000000000000001000 S
b00000010 T
b00000001 V
b100 W
b00000000000000000000011000010011 X
b111 \
1]
b001 `
b00 g
b11 j
1k
b001000000110011 m
b00000000000000000000000000110000 n
1o
#32
0o
