pipelined/cpu.vcd
$version Generated by VerilatedVcd $end
$date Thu Dec 14 13:25:39 2023
 $end
$timescale   1ps $end

 $scope module TOP $end
  $var wire 32 v a0 [31:0] $end
  $var wire  1 t clk $end
  $var wire  1 u rst $end
  $scope module cpu $end
   $var wire 32 w ADDRESS_WIDTH [31:0] $end
   $var wire  3 ' ALUControlE [2:0] $end
   $var wire 32 . ALUResultE [31:0] $end
   $var wire  1 ( ALUSrcE $end
   $var wire 32 y CONTROL_WIDTH [31:0] $end
   $var wire 32 x DATA_WIDTH [31:0] $end
   $var wire  1 : Den $end
   $var wire  1 > Drst $end
   $var wire 32 * ExtImmD [31:0] $end
   $var wire  1 : Fen $end
   $var wire  2 < FowardAE [1:0] $end
   $var wire  2 = FowardBE [1:0] $end
   $var wire  1 > Frst $end
   $var wire 32 z IMM_WIDTH [31:0] $end
   $var wire  3 - ImmSrcE [2:0] $end
   $var wire 32 ) InstrD [31:0] $end
   $var wire  2 % MemWriteM [1:0] $end
   $var wire  7 6 OpcodeE [6:0] $end
   $var wire 32 + PCD [31:0] $end
   $var wire 32 8 PCF [31:0] $end
   $var wire 32 , PCPlus4D [31:0] $end
   $var wire 32 9 PCPlus4F [31:0] $end
   $var wire  2 0 PCSrcE [1:0] $end
   $var wire 32 / PCTarget [31:0] $end
   $var wire  1 ; PCen $end
   $var wire  1 { PCrst $end
   $var wire  5 5 RdE [4:0] $end
   $var wire  5 3 RdM [4:0] $end
   $var wire  5 4 RdW [4:0] $end
   $var wire  3 $ RegWriteM [2:0] $end
   $var wire  3 # RegWriteW [2:0] $end
   $var wire  2 & ResultSrcW [1:0] $end
   $var wire  5 1 Rs1E [4:0] $end
   $var wire  5 2 Rs2E [4:0] $end
   $var wire  1 7 ZeroE $end
   $var wire 32 v a0 [31:0] $end
   $var wire  1 t clk $end
   $var wire  1 u rst $end
   $scope module alu $end
    $var wire  3 ' ALUControlE_i [2:0] $end
    $var wire 32 . ALUResultE_o [31:0] $end
    $var wire 32 e ALUResultM [31:0] $end
    $var wire 32 k ALUResultW [31:0] $end
    $var wire  1 ( ALUSrcE_i $end
    $var wire 32 y CONTROL_WIDTH [31:0] $end
    $var wire 32 x DATA_WIDTH [31:0] $end
    $var wire  1 : Den_i $end
    $var wire  1 > Drst_i $end
    $var wire 32 * ExtImmD_i [31:0] $end
    $var wire 32 d ExtImmE [31:0] $end
    $var wire  2 < FowardAE_i [1:0] $end
    $var wire  2 = FowardBE_i [1:0] $end
    $var wire  2 % MemWriteM_i [1:0] $end
    $var wire 32 + PCD_i [31:0] $end
    $var wire 32 _ PCE [31:0] $end
    $var wire 32 , PCPlus4D_i [31:0] $end
    $var wire 32 ` PCPlus4E [31:0] $end
    $var wire 32 g PCPlus4M [31:0] $end
    $var wire 32 i PCPlus4W [31:0] $end
    $var wire 32 / PCTargetE_o [31:0] $end
    $var wire 32 [ RD1D [31:0] $end
    $var wire 32 ] RD1E [31:0] $end
    $var wire 32 \ RD2D [31:0] $end
    $var wire 32 ^ RD2E [31:0] $end
    $var wire  5 Z RdD_i [4:0] $end
    $var wire  5 5 RdE_o [4:0] $end
    $var wire  5 3 RdM_o [4:0] $end
    $var wire  5 4 RdW_o [4:0] $end
    $var wire 32 h ReadDataM [31:0] $end
    $var wire 32 j ReadDataW [31:0] $end
    $var wire  3 # RegWriteW_i [2:0] $end
    $var wire  2 & ResultSrcW_i [1:0] $end
    $var wire 32 l ResultW [31:0] $end
    $var wire  5 X Rs1D_i [4:0] $end
    $var wire  5 1 Rs1E_o [4:0] $end
    $var wire  5 Y Rs2D_i [4:0] $end
    $var wire  5 2 Rs2E_o [4:0] $end
    $var wire 32 a SrcAE [31:0] $end
    $var wire 32 b SrcBE [31:0] $end
    $var wire 32 c WriteDataE [31:0] $end
    $var wire 32 f WriteDataM [31:0] $end
    $var wire  1 7 ZeroE_o $end
    $var wire 32 v a0 [31:0] $end
    $var wire  1 t clk $end
    $var wire  7 Q opcodeD_i [6:0] $end
    $var wire  7 6 opcodeE_o [6:0] $end
    $scope module ALU $end
     $var wire  3 ' ALUControl [2:0] $end
     $var wire 32 . ALUResult [31:0] $end
     $var wire 32 y CONTROL_WIDTH [31:0] $end
     $var wire 32 x DATA_WIDTH [31:0] $end
     $var wire 32 a SrcA [31:0] $end
     $var wire 32 b SrcB [31:0] $end
     $var wire  1 7 Zero $end
    $upscope $end
    $scope module ALUMux $end
     $var wire 32 x DATA_WIDTH [31:0] $end
     $var wire  1 ( control $end
     $var wire 32 c input0 [31:0] $end
     $var wire 32 d input1 [31:0] $end
     $var wire 32 b out [31:0] $end
    $upscope $end
    $scope module DREg $end
     $var wire 32 x DATA_WIDTH [31:0] $end
     $var wire 32 * ExtImmD [31:0] $end
     $var wire 32 d ExtImmE [31:0] $end
     $var wire 32 + PCD [31:0] $end
     $var wire 32 _ PCE [31:0] $end
     $var wire 32 , PCPlus4D [31:0] $end
     $var wire 32 ` PCPlus4E [31:0] $end
     $var wire 32 [ RD1D [31:0] $end
     $var wire 32 ] RD1E [31:0] $end
     $var wire 32 \ RD2D [31:0] $end
     $var wire 32 ^ RD2E [31:0] $end
     $var wire  5 Z RdD [4:0] $end
     $var wire  5 5 RdE [4:0] $end
     $var wire  5 X Rs1D [4:0] $end
     $var wire  5 1 Rs1E [4:0] $end
     $var wire  5 Y Rs2D [4:0] $end
     $var wire  5 2 Rs2E [4:0] $end
     $var wire  1 t clk $end
     $var wire  1 : en $end
     $var wire  7 Q opcodeD [6:0] $end
     $var wire  7 6 opcodeE [6:0] $end
     $var wire  1 > rst $end
    $upscope $end
    $scope module EREG $end
     $var wire 32 . ALUResultE [31:0] $end
     $var wire 32 e ALUResultM [31:0] $end
     $var wire 32 x DATA_WIDTH [31:0] $end
     $var wire 32 ` PCPlus4E [31:0] $end
     $var wire 32 g PCPlus4M [31:0] $end
     $var wire  5 5 RdE [4:0] $end
     $var wire  5 3 RdM [4:0] $end
     $var wire 32 c WriteDataE [31:0] $end
     $var wire 32 f WriteDataM [31:0] $end
     $var wire  1 t clk $end
    $upscope $end
    $scope module MREG $end
     $var wire 32 e ALUResultM [31:0] $end
     $var wire 32 k ALUResultW [31:0] $end
     $var wire 32 x DATA_WIDTH [31:0] $end
     $var wire 32 g PCPlus4M [31:0] $end
     $var wire 32 i PCPlus4W [31:0] $end
     $var wire  5 3 RdM [4:0] $end
     $var wire  5 4 RdW [4:0] $end
     $var wire 32 h ReadDataM [31:0] $end
     $var wire 32 j ReadDataW [31:0] $end
     $var wire  1 t clk $end
    $upscope $end
    $scope module RD1EHazardMux $end
     $var wire 32 z CONTROL_WIDTH [31:0] $end
     $var wire 32 x DATA_WIDTH [31:0] $end
     $var wire  2 < control [1:0] $end
     $var wire 32 ] input0 [31:0] $end
     $var wire 32 l input1 [31:0] $end
     $var wire 32 e input2 [31:0] $end
     $var wire 32 a out [31:0] $end
    $upscope $end
    $scope module RD2EHazardMux $end
     $var wire 32 z CONTROL_WIDTH [31:0] $end
     $var wire 32 x DATA_WIDTH [31:0] $end
     $var wire  2 = control [1:0] $end
     $var wire 32 ^ input0 [31:0] $end
     $var wire 32 l input1 [31:0] $end
     $var wire 32 e input2 [31:0] $end
     $var wire 32 c out [31:0] $end
    $upscope $end
    $scope module addPCTargetE $end
     $var wire 32 x DATA_WIDTH [31:0] $end
     $var wire 32 _ input0 [31:0] $end
     $var wire 32 d input1 [31:0] $end
     $var wire 32 / out [31:0] $end
    $upscope $end
    $scope module data $end
     $var wire 32 e A [31:0] $end
     $var wire 32 w ADDRESS_WIDTH [31:0] $end
     $var wire 32 x DATA_WIDTH [31:0] $end
     $var wire 32 h RD [31:0] $end
     $var wire 32 f WD [31:0] $end
     $var wire  2 % WE [1:0] $end
     $var wire  1 t clk $end
    $upscope $end
    $scope module register $end
     $var wire  8 m A1 [7:0] $end
     $var wire  5 X A1_i [4:0] $end
     $var wire  8 n A2 [7:0] $end
     $var wire  5 Y A2_i [4:0] $end
     $var wire  8 o A3 [7:0] $end
     $var wire  5 4 A3_i [4:0] $end
     $var wire 32 w ADDRESS_WIDTH [31:0] $end
     $var wire 32 x DATA_WIDTH [31:0] $end
     $var wire 32 [ RD1 [31:0] $end
     $var wire 32 \ RD2 [31:0] $end
     $var wire 32 l WD3 [31:0] $end
     $var wire  3 # WE3 [2:0] $end
     $var wire 32 v a0 [31:0] $end
     $var wire  1 t clk $end
    $upscope $end
    $scope module resultMux $end
     $var wire 32 z CONTROL_WIDTH [31:0] $end
     $var wire 32 x DATA_WIDTH [31:0] $end
     $var wire  2 & control [1:0] $end
     $var wire 32 k input0 [31:0] $end
     $var wire 32 j input1 [31:0] $end
     $var wire 32 i input2 [31:0] $end
     $var wire 32 l out [31:0] $end
    $upscope $end
   $upscope $end
   $scope module control $end
    $var wire 32 w ADDRESS_WIDTH [31:0] $end
    $var wire  3 E ALUControlD [2:0] $end
    $var wire  3 ' ALUControlE_o [2:0] $end
    $var wire  1 F ALUSrcD $end
    $var wire  1 ( ALUSrcE_o $end
    $var wire  1 H BranchD $end
    $var wire  1 N BranchE $end
    $var wire 32 x DATA_WIDTH [31:0] $end
    $var wire  1 : Den_i $end
    $var wire  1 > Drst_i $end
    $var wire 32 * ExtImmD_o [31:0] $end
    $var wire  1 : Fen_i $end
    $var wire  1 > Frst_i $end
    $var wire  3 @ ImmSrcD [2:0] $end
    $var wire  3 - ImmSrcE_o [2:0] $end
    $var wire 32 ) InstrD_o [31:0] $end
    $var wire 32 A InstrF [31:0] $end
    $var wire  1 G JumpD $end
    $var wire  1 M JumpE $end
    $var wire  2 D MemWriteD [1:0] $end
    $var wire  2 L MemWriteE [1:0] $end
    $var wire  2 % MemWriteM_o [1:0] $end
    $var wire 32 + PCD_o [31:0] $end
    $var wire 32 8 PCF_i [31:0] $end
    $var wire 32 , PCPlus4D_o [31:0] $end
    $var wire 32 9 PCPlus4F_i [31:0] $end
    $var wire  2 0 PCSrcE_o [1:0] $end
    $var wire  3 I RegWriteD [2:0] $end
    $var wire  3 J RegWriteE [2:0] $end
    $var wire  3 $ RegWriteM_o [2:0] $end
    $var wire  3 # RegWriteW_o [2:0] $end
    $var wire  2 C ResultSrcD [1:0] $end
    $var wire  2 K ResultSrcE [1:0] $end
    $var wire  2 P ResultSrcM [1:0] $end
    $var wire  2 & ResultSrcW_o [1:0] $end
    $var wire  1 7 ZeroE_i $end
    $var wire  1 B ZeroOp $end
    $var wire  1 t clk $end
    $var wire  3 O funct3E [2:0] $end
    $scope module ControlUnit $end
     $var wire  3 E ALUControlD [2:0] $end
     $var wire  2 T ALUOpD [1:0] $end
     $var wire  1 F ALUSrcD $end
     $var wire  1 H BranchD $end
     $var wire  3 @ ImmSrcD [2:0] $end
     $var wire  1 G JumpD $end
     $var wire  2 D MemWriteD [1:0] $end
     $var wire 32 | OP_WIDTH [31:0] $end
     $var wire  3 I RegWriteD [2:0] $end
     $var wire  2 C ResultSrcD [1:0] $end
     $var wire  3 R funct3 [2:0] $end
     $var wire  1 S funct7b5 $end
     $var wire  7 Q op [6:0] $end
     $scope module aludec $end
      $var wire  3 E ALUControl [2:0] $end
      $var wire  2 T ALUOp [1:0] $end
      $var wire 32 y CONTROL_WIDTH [31:0] $end
      $var wire  1 W RtypeSub $end
      $var wire  3 R funct3 [2:0] $end
      $var wire  1 S funct7b5 $end
      $var wire  1 V opb5 $end
     $upscope $end
     $scope module maindec $end
      $var wire  2 T ALUOp [1:0] $end
      $var wire  1 F ALUSrc $end
      $var wire  1 H Branch $end
      $var wire  3 @ ImmSrc [2:0] $end
      $var wire  1 G Jump $end
      $var wire  2 D MemWrite [1:0] $end
      $var wire 32 | OP_WIDTH [31:0] $end
      $var wire  3 I RegWrite [2:0] $end
      $var wire  2 C ResultSrc [1:0] $end
      $var wire 15 U controls [14:0] $end
      $var wire  3 R funct3 [2:0] $end
      $var wire  7 Q op [6:0] $end
     $upscope $end
    $upscope $end
    $scope module DReg $end
     $var wire  3 E ALUControlD [2:0] $end
     $var wire  3 ' ALUControlE [2:0] $end
     $var wire  1 F ALUSrcD $end
     $var wire  1 ( ALUSrcE $end
     $var wire  1 H BranchD $end
     $var wire  1 N BranchE $end
     $var wire 32 x DATA_WIDTH [31:0] $end
     $var wire  3 @ ImmSrcD [2:0] $end
     $var wire  3 - ImmSrcE [2:0] $end
     $var wire  1 G JumpD $end
     $var wire  1 M JumpE $end
     $var wire  2 D MemWriteD [1:0] $end
     $var wire  2 L MemWriteE [1:0] $end
     $var wire  3 I RegWriteD [2:0] $end
     $var wire  3 J RegWriteE [2:0] $end
     $var wire  2 C ResultSrcD [1:0] $end
     $var wire  2 K ResultSrcE [1:0] $end
     $var wire  1 t clk $end
     $var wire  1 : en $end
     $var wire  3 R funct3D [2:0] $end
     $var wire  3 O funct3E [2:0] $end
     $var wire  1 > rst $end
    $upscope $end
    $scope module EREG $end
     $var wire 32 x DATA_WIDTH [31:0] $end
     $var wire  2 L MemWriteE [1:0] $end
     $var wire  2 % MemWriteM [1:0] $end
     $var wire  3 J RegWriteE [2:0] $end
     $var wire  3 $ RegWriteM [2:0] $end
     $var wire  2 K ResultSrcE [1:0] $end
     $var wire  2 P ResultSrcM [1:0] $end
     $var wire  1 t clk $end
    $upscope $end
    $scope module FReg $end
     $var wire 32 x DATA_WIDTH [31:0] $end
     $var wire 32 ) InstrD [31:0] $end
     $var wire 32 A InstrF [31:0] $end
     $var wire 32 + PCD [31:0] $end
     $var wire 32 8 PCF [31:0] $end
     $var wire 32 , PCPlus4D [31:0] $end
     $var wire 32 9 PCPlus4F [31:0] $end
     $var wire  1 t clk $end
     $var wire  1 : en $end
     $var wire  1 > rst $end
    $upscope $end
    $scope module InstrMem $end
     $var wire 32 w ADDRESS_WIDTH [31:0] $end
     $var wire 32 x DATA_WIDTH [31:0] $end
     $var wire 32 A Instr_o [31:0] $end
     $var wire 32 8 addr_i [31:0] $end
    $upscope $end
    $scope module MREG $end
     $var wire 32 x DATA_WIDTH [31:0] $end
     $var wire  3 $ RegWriteM [2:0] $end
     $var wire  3 # RegWriteW [2:0] $end
     $var wire  2 P ResultSrcM [1:0] $end
     $var wire  2 & ResultSrcW [1:0] $end
     $var wire  1 t clk $end
    $upscope $end
    $scope module MySignExtend $end
     $var wire 32 x DATA_WIDTH [31:0] $end
     $var wire 32 * ExtImm [31:0] $end
     $var wire 32 y IMM_WIDTH [31:0] $end
     $var wire  3 @ ImmSrc [2:0] $end
     $var wire 32 ) instr [31:0] $end
    $upscope $end
   $upscope $end
   $scope module hazard $end
    $var wire  1 : Den_o $end
    $var wire  1 > Drst_o $end
    $var wire  1 : Fen_o $end
    $var wire  2 < FowardAE_o [1:0] $end
    $var wire  2 = FowardBE_o [1:0] $end
    $var wire  1 > Frst_o $end
    $var wire  3 - ImmSrcE_i [2:0] $end
    $var wire  2 0 PCSrcE_i [1:0] $end
    $var wire  1 ; PCen_o $end
    $var wire  1 { PCrst_o $end
    $var wire  5 5 RdE_i [4:0] $end
    $var wire  5 3 RdM_i [4:0] $end
    $var wire  5 4 RdW_i [4:0] $end
    $var wire  3 $ RegWriteM_i [2:0] $end
    $var wire  3 # RegWriteW_i [2:0] $end
    $var wire  5 X Rs1D_i [4:0] $end
    $var wire  5 1 Rs1E_i [4:0] $end
    $var wire  5 Y Rs2D_i [4:0] $end
    $var wire  5 2 Rs2E_i [4:0] $end
    $var wire  7 6 opcodeE_i [6:0] $end
    $scope module ControlHazard $end
     $var wire  1 > Drst $end
     $var wire  1 > Frst $end
     $var wire  2 0 PCSrcE [1:0] $end
     $var wire  1 { PCrst $end
    $upscope $end
    $scope module FowardHazard $end
     $var wire  1 p A $end
     $var wire  1 q B $end
     $var wire  2 < FowardAE [1:0] $end
     $var wire  2 = FowardBE [1:0] $end
     $var wire  3 - ImmSrcE [2:0] $end
     $var wire  5 3 RdM [4:0] $end
     $var wire  5 4 RdW [4:0] $end
     $var wire  3 $ RegWriteM [2:0] $end
     $var wire  3 # RegWriteW [2:0] $end
     $var wire  5 1 Rs1E [4:0] $end
     $var wire  5 2 Rs2E [4:0] $end
    $upscope $end
    $scope module StallHazard $end
     $var wire  1 p A $end
     $var wire  1 r B $end
     $var wire  1 : Den $end
     $var wire  1 : Fen $end
     $var wire  1 s Flip $end
     $var wire  3 - ImmSrcE [2:0] $end
     $var wire  1 ; PCen $end
     $var wire  5 5 RdE [4:0] $end
     $var wire  5 X Rs1D [4:0] $end
     $var wire  5 Y Rs2D [4:0] $end
     $var wire  7 6 opcodeE [6:0] $end
    $upscope $end
   $upscope $end
   $scope module pc $end
    $var wire 32 . ALUResultE_i [31:0] $end
    $var wire 32 x DATA_WIDTH [31:0] $end
    $var wire 32 8 PCF_o [31:0] $end
    $var wire 32 9 PCPlus4F_o [31:0] $end
    $var wire  2 0 PCSrc_i [1:0] $end
    $var wire 32 / PCTarget_i [31:0] $end
    $var wire  1 ; PCen_i $end
    $var wire  1 { PCrst_i $end
    $var wire  1 t clk $end
    $var wire 32 ? next_PC [31:0] $end
    $scope module pc_mux $end
     $var wire 32 z CONTROL_WIDTH [31:0] $end
     $var wire 32 x DATA_WIDTH [31:0] $end
     $var wire  2 0 control [1:0] $end
     $var wire 32 9 input0 [31:0] $end
     $var wire 32 / input1 [31:0] $end
     $var wire 32 . input2 [31:0] $end
     $var wire 32 ? out [31:0] $end
    $upscope $end
    $scope module pc_reg $end
     $var wire  1 ; PCen $end
     $var wire 32 x WIDTH [31:0] $end
     $var wire  1 t clk $end
     $var wire 32 ? next_PC [31:0] $end
     $var wire 32 8 pc [31:0] $end
     $var wire  1 { rst $end
    $upscope $end
   $upscope $end
  $upscope $end
 $upscope $end
$enddefinitions $end


#0
b000 #
b000 $
b00 %
b00 &
b000 '
0(
b00000000000000000000000000000000 )
b00000000000000000000000000000000 *
b00000000000000000000000000000000 +
b00000000000000000000000000000000 ,
b000 -
b00000000000000000000000000000000 .
b00000000000000000000000000000000 /
b00 0
b00000 1
b00000 2
b00000 3
b00000 4
b00000 5
b0000000 6
17
b00000000000000000000000000000000 8
b00000000000000000000000000000100 9
0:
1;
b00 <
b00 =
0>
b00000000000000000000000000000100 ?
b000 @
b00000000000000000000000000000000 A
1B
b00 C
b00 D
b000 E
0F
0G
0H
b000 I
b000 J
b00 K
b00 L
0M
0N
b000 O
b00 P
b0000000 Q
b000 R
0S
b00 T
b000000000000000 U
0V
0W
b00000 X
b00000 Y
b00000 Z
b00000000000000000000000000000000 [
b00000000000000000000000000000000 \
b00000000000000000000000000000000 ]
b00000000000000000000000000000000 ^
b00000000000000000000000000000000 _
b00000000000000000000000000000000 `
b00000000000000000000000000000000 a
b00000000000000000000000000000000 b
b00000000000000000000000000000000 c
b00000000000000000000000000000000 d
b00000000000000000000000000000000 e
b00000000000000000000000000000000 f
b00000000000000000000000000000000 g
b00000000000000000000000000000000 h
b00000000000000000000000000000000 i
b00000000000000000000000000000000 j
b00000000000000000000000000000000 k
b00000000000000000000000000000000 l
b00000000 m
b00000000 n
b00000000 o
0p
0q
0r
0s
0t
0u
b00000000000000000000000000000000 v
b00000000000000000000000000001000 w
b00000000000000000000000000100000 x
b00000000000000000000000000000011 y
b00000000000000000000000000000010 z
0{
b00000000000000000000000000000111 |
#1
1:
b00000001000000000000000011101111 A
b00000000000000000000000011111110 h
1p
1s
1t
#2
0t
#3
b00000001000000000000000011101111 )
b00000000000000000000000000010000 *
b00000000000000000000000000000100 ,
b00000000000000000000000000000100 8
b00000000000000000000000000001000 9
b00000000000000000000000000001000 ?
b011 @
b00000010000000000000000011101111 A
b10 C
1G
b001 I
b1101111 Q
b001100010001100 U
1V
b10000 Y
b00001 Z
b00000000000000000000000011111110 j
b00010000 n
1t
#4
0t
#5
b00000010000000000000000011101111 )
b00000000000000000000000000100000 *
b00000000000000000000000000000100 +
b00000000000000000000000000001000 ,
b011 -
b00000000000000000000000000010000 /
b01 0
b10000 2
b00001 5
b1101111 6
b00000000000000000000000000001000 8
b00000000000000000000000000001100 9
1>
b00000000000000000000000000010000 ?
b00000101000000000000000011101111 A
b001 J
b10 K
1M
b00000 Y
b00000000000000000000000000000100 `
b00000000000000000000000000010000 d
b00000000 n
0p
1t
#6
0t
#7
b001 $
b00000000000000000000000000000000 )
b00000000000000000000000000000000 *
b00000000000000000000000000000000 +
b00000000000000000000000000000000 ,
b000 -
b00000000000000000000000000000000 /
b00 0
b00000 2
b00001 3
b00000 5
b0000000 6
b00000000000000000000000000010000 8
b00000000000000000000000000010100 9
0>
b00000000000000000000000000010100 ?
b000 @
b00010000000000000000010110010011 A
b00 C
0G
b000 I
b000 J
b00 K
0M
b10 P
b0000000 Q
b000000000000000 U
0V
b00000 Z
b00000000000000000000000000000000 `
b00000000000000000000000000000000 d
b00000000000000000000000000000100 g
1p
1t
#8
0t
#9
b001 #
b000 $
b10 &
b00010000000000000000010110010011 )
b00000000000000000000000100000000 *
b00000000000000000000000000010000 +
b00000000000000000000000000010100 ,
b00000 3
b00001 4
b00000000000000000000000000010100 8
b00000000000000000000000000011000 9
b00000000000000000000000000011000 ?
b11111111111101011000010110010011 A
1F
b001 I
b00 P
b0010011 Q
b10 T
b001000000100010 U
b01011 Z
b00000000000000000000000000000000 g
b00000000000000000000000000000100 i
b00000000000000000000000000000100 l
b00000001 o
1t
#10
0t
#11
b000 #
b00 &
1(
b11111111111101011000010110010011 )
b11111111111111111111111111111111 *
b00000000000000000000000000010100 +
b00000000000000000000000000011000 ,
b00000000000000000000000100000000 .
b00000000000000000000000100010000 /
b00000 4
b01011 5
b0010011 6
07
b00000000000000000000000000011000 8
b00000000000000000000000000011100 9
b00000000000000000000000000011100 ?
b00010000000001011000000000100011 A
0B
b001 J
1S
b01011 X
b11111 Y
b00000000000000000000000000010000 _
b00000000000000000000000000010100 `
b00000000000000000000000100000000 b
b00000000000000000000000100000000 d
b00000000000000000000000000000000 i
b00000000000000000000000000000000 l
b00001011 m
b00011111 n
b00000000 o
1t
#12
0t
#13
b001 $
b00010000000001011000000000100011 )
b00000000000000000000000100000000 *
b00000000000000000000000000011000 +
b00000000000000000000000000011100 ,
b00000000000000000000000011111111 .
b00000000000000000000000000010011 /
b01011 1
b11111 2
b01011 3
b00000000000000000000000000011100 8
b00000000000000000000000000100000 9
b10 <
b00000000000000000000000000100000 ?
b010 @
b11111110000001011001110011100011 A
b11 D
b000 I
b0100011 Q
0S
b00 T
b000001100101000 U
1V
b00000 Y
b00000 Z
b00000000000000000000000000010100 _
b00000000000000000000000000011000 `
b00000000000000000000000100000000 a
b11111111111111111111111111111111 b
b11111111111111111111111111111111 d
b00000000000000000000000100000000 e
b00000000000000000000000000010100 g
b00000000 n
1t
#14
0t
#15
b001 #
b11111110000001011001110011100011 )
b11111111111111111111111111111000 *
b00000000000000000000000000011100 +
b00000000000000000000000000100000 ,
b010 -
b00000000000000000000000111111111 .
b00000000000000000000000100011000 /
b00000 2
b01011 4
b00000 5
b0100011 6
b00000000000000000000000000100000 8
b00000000000000000000000000100100 9
b00000000000000000000000000100100 ?
b00000000000000001000000001100111 A
b00 D
b001 E
0F
1H
b000 J
b11 L
b1100011 Q
b001 R
1S
b01 T
b000000001001001 U
1W
b11001 Z
b00000000000000000000000000011000 _
b00000000000000000000000000011100 `
b00000000000000000000000011111111 a
b00000000000000000000000100000000 b
b00000000000000000000000100000000 d
b00000000000000000000000011111111 e
b00000000000000000000000000011000 g
b00000000000000000000000000000000 h
b00000000000000000000000000010100 i
b00000000000000000000000100000000 k
b00000000000000000000000100000000 l
b00001011 o
1q
1r
1t
#16
0t
#17
b000 $
b11 %
b001 '
0(
b00000000000000001000000001100111 )
b00000000000000000000000000000000 *
b00000000000000000000000000100000 +
b00000000000000000000000000100100 ,
b00000000000000000000000011111111 .
b00000000000000000000000000010100 /
b01 0
b00000 3
b11001 5
b1100011 6
b00000000000000000000000000100100 8
b00000000000000000000000000101000 9
b01 <
1>
b00000000000000000000000000010100 ?
b000 @
b00000000000000010000010110110111 A
1B
b10 C
b000 E
1F
1G
0H
b001 I
b00 L
1N
b001 O
b1100111 Q
b000 R
0S
b00 T
b001100010100000 U
0W
b00001 X
b00000 Z
b00000000000000000000000000000100 [
b00000000000000000000000000011100 _
b00000000000000000000000000100000 `
b00000000000000000000000000000000 b
b11111111111111111111111111111000 d
b00000000000000000000000111111111 e
b00000000000000000000000000011100 g
b00000000000000000000000000011000 i
b00000000000000000000000000000000 j
b00000000000000000000000011111111 k
b00000000000000000000000011111111 l
b00000001 m
1t
#18
0t
#19
b000 #
b00 %
b000 '
b00000000000000000000000000000000 )
b00000000000000000000000000000000 +
b00000000000000000000000000000000 ,
b000 -
b00000000000000000000000000000000 .
b00000000000000000000000000000000 /
b00 0
b00000 1
b11001 3
b00000 4
b00000 5
b0000000 6
17
b00000000000000000000000000010100 8
b00000000000000000000000000011000 9
b00 <
0>
b00000000000000000000000000011000 ?
b11111111111101011000010110010011 A
b00 C
0F
0G
b000 I
0N
b000 O
b0000000 Q
b000000000000000 U
0V
b00000 X
b00000000000000000000000000000000 [
b00000000000000000000000000000000 _
b00000000000000000000000000000000 `
b00000000000000000000000000000000 a
b00000000000000000000000000000000 d
b00000000000000000000000011111111 e
b00000000000000000000000000100000 g
b00000000000000000000000000011100 i
b00000000000000000000000111111111 k
b00000000000000000000000111111111 l
b00000000 m
b00000000 o
0q
0r
1t
#20
0t
#21
b11111111111101011000010110010011 )
b11111111111111111111111111111111 *
b00000000000000000000000000010100 +
b00000000000000000000000000011000 ,
b00000 3
b11001 4
b00000000000000000000000000011000 8
b00000000000000000000000000011100 9
b00000000000000000000000000011100 ?
b00010000000001011000000000100011 A
1F
b001 I
b0010011 Q
1S
b10 T
b001000000100010 U
b01011 X
b11111 Y
b01011 Z
b00000000000000000000000011111111 [
b00000000000000000000000000000000 e
b00000000000000000000000000000000 g
b00000000000000000000000011111110 h
b00000000000000000000000000100000 i
b00000000000000000000000011111111 k
b00000000000000000000000011111111 l
b00001011 m
b00011111 n
b00011001 o
1t
#22
0t
#23
1(
b00010000000001011000000000100011 )
b00000000000000000000000100000000 *
b00000000000000000000000000011000 +
b00000000000000000000000000011100 ,
b00000000000000000000000011111110 .
b00000000000000000000000000010011 /
b01011 1
b11111 2
b00000 4
b01011 5
b0010011 6
07
b00000000000000000000000000011100 8
b00000000000000000000000000100000 9
b00000000000000000000000000100000 ?
b010 @
b11111110000001011001110011100011 A
0B
b11 D
b000 I
b001 J
b0100011 Q
0S
b00 T
b000001100101000 U
1V
b00000 Y
b00000 Z
b00000000000000000000000011111111 ]
b00000000000000000000000000010100 _
b00000000000000000000000000011000 `
b00000000000000000000000011111111 a
b11111111111111111111111111111111 b
b11111111111111111111111111111111 d
b00000000000000000000000000000000 i
b00000000000000000000000011111110 j
b00000000000000000000000000000000 k
b00000000000000000000000000000000 l
b00000000 n
b00000000 o
1t
#24
0t
#25
b001 $
b11111110000001011001110011100011 )
b11111111111111111111111111111000 *
b00000000000000000000000000011100 +
b00000000000000000000000000100000 ,
b010 -
b00000000000000000000000111111110 .
b00000000000000000000000100011000 /
b00000 2
b01011 3
b00000 5
b0100011 6
b00000000000000000000000000100000 8
b00000000000000000000000000100100 9
b10 <
b00000000000000000000000000100100 ?
b00000000000000001000000001100111 A
b00 D
b001 E
0F
1H
b000 J
b11 L
b1100011 Q
b001 R
1S
b01 T
b000000001001001 U
1W
b11001 Z
b00000000000000000000000000011000 _
b00000000000000000000000000011100 `
b00000000000000000000000011111110 a
b00000000000000000000000100000000 b
b00000000000000000000000100000000 d
b00000000000000000000000011111110 e
b00000000000000000000000000011000 g
b00000000000000000000000011111101 h
1q
1r
1t
#26
0t
#27
b001 #
b000 $
b11 %
b001 '
0(
b00000000000000001000000001100111 )
b00000000000000000000000000000000 *
b00000000000000000000000000100000 +
b00000000000000000000000000100100 ,
b00000000000000000000000011111110 .
b00000000000000000000000000010100 /
b01 0
b00000 3
b01011 4
b11001 5
b1100011 6
b00000000000000000000000000100100 8
b00000000000000000000000000101000 9
b01 <
1>
b00000000000000000000000000010100 ?
b000 @
b00000000000000010000010110110111 A
1B
b10 C
b000 E
1F
1G
0H
b001 I
b00 L
1N
b001 O
b1100111 Q
b000 R
0S
b00 T
b001100010100000 U
0W
b00001 X
b00000 Z
b00000000000000000000000000000100 [
b00000000000000000000000000011100 _
b00000000000000000000000000100000 `
b00000000000000000000000000000000 b
b11111111111111111111111111111000 d
b00000000000000000000000111111110 e
b00000000000000000000000000011100 g
b00000000000000000000000000011000 i
b00000000000000000000000011111101 j
b00000000000000000000000011111110 k
b00000000000000000000000011111110 l
b00000001 m
b00001011 o
1t
#28
0t
#29
b000 #
b00 %
b000 '
b00000000000000000000000000000000 )
b00000000000000000000000000000000 +
b00000000000000000000000000000000 ,
b000 -
b00000000000000000000000000000000 .
b00000000000000000000000000000000 /
b00 0
b00000 1
b11001 3
b00000 4
b00000 5
b0000000 6
17
b00000000000000000000000000010100 8
b00000000000000000000000000011000 9
b00 <
0>
b00000000000000000000000000011000 ?
b11111111111101011000010110010011 A
b00 C
0F
0G
b000 I
0N
b000 O
b0000000 Q
b000000000000000 U
0V
b00000 X
b00000000000000000000000000000000 [
b00000000000000000000000000000000 ]
b00000000000000000000000000000000 _
b00000000000000000000000000000000 `
b00000000000000000000000000000000 a
b00000000000000000000000000000000 d
b00000000000000000000000011111110 e
b00000000000000000000000000100000 g
b00000000000000000000000000000000 h
b00000000000000000000000000011100 i
b00000000000000000000000111111110 k
b00000000000000000000000111111110 l
b00000000 m
b00000000 o
0q
0r
1t
#30
0t
