pipelined/cpu.vcd
$version Generated by VerilatedVcd $end
$date Wed Dec 13 20:15:08 2023
 $end
$timescale   1ps $end

 $scope module TOP $end
  $var wire 32 q a0 [31:0] $end
  $var wire  1 o clk $end
  $var wire  1 p rst $end
  $scope module cpu $end
   $var wire 32 r ADDRESS_WIDTH [31:0] $end
   $var wire  3 ' ALUControlE [2:0] $end
   $var wire 32 - ALUResultE [31:0] $end
   $var wire  1 ( ALUSrcE $end
   $var wire 32 t CONTROL_WIDTH [31:0] $end
   $var wire 32 s DATA_WIDTH [31:0] $end
   $var wire  1 9 Den $end
   $var wire  1 = Drst $end
   $var wire 32 * ExtImmD [31:0] $end
   $var wire  1 9 Fen $end
   $var wire  2 ; FowardAE [1:0] $end
   $var wire  2 < FowardBE [1:0] $end
   $var wire  1 = Frst $end
   $var wire 32 u IMM_WIDTH [31:0] $end
   $var wire 32 ) InstrD [31:0] $end
   $var wire  2 % MemWriteM [1:0] $end
   $var wire  7 5 OpcodeE [6:0] $end
   $var wire 32 + PCD [31:0] $end
   $var wire 32 7 PCF [31:0] $end
   $var wire 32 , PCPlus4D [31:0] $end
   $var wire 32 8 PCPlus4F [31:0] $end
   $var wire  2 / PCSrcE [1:0] $end
   $var wire 32 . PCTarget [31:0] $end
   $var wire  1 : PCen $end
   $var wire  1 v PCrst $end
   $var wire  5 4 RdE [4:0] $end
   $var wire  5 2 RdM [4:0] $end
   $var wire  5 3 RdW [4:0] $end
   $var wire  3 $ RegWriteM [2:0] $end
   $var wire  3 # RegWriteW [2:0] $end
   $var wire  2 & ResultSrcW [1:0] $end
   $var wire  5 0 Rs1E [4:0] $end
   $var wire  5 1 Rs2E [4:0] $end
   $var wire  1 6 ZeroE $end
   $var wire 32 q a0 [31:0] $end
   $var wire  1 o clk $end
   $var wire  1 p rst $end
   $scope module alu $end
    $var wire  3 ' ALUControlE_i [2:0] $end
    $var wire 32 - ALUResultE_o [31:0] $end
    $var wire 32 d ALUResultM [31:0] $end
    $var wire 32 j ALUResultW [31:0] $end
    $var wire  1 ( ALUSrcE_i $end
    $var wire 32 t CONTROL_WIDTH [31:0] $end
    $var wire 32 s DATA_WIDTH [31:0] $end
    $var wire  1 9 Den_i $end
    $var wire  1 = Drst_i $end
    $var wire 32 * ExtImmD_i [31:0] $end
    $var wire 32 c ExtImmE [31:0] $end
    $var wire  2 ; FowardAE_i [1:0] $end
    $var wire  2 < FowardBE_i [1:0] $end
    $var wire  2 % MemWriteM_i [1:0] $end
    $var wire 32 + PCD_i [31:0] $end
    $var wire 32 ^ PCE [31:0] $end
    $var wire 32 , PCPlus4D_i [31:0] $end
    $var wire 32 _ PCPlus4E [31:0] $end
    $var wire 32 f PCPlus4M [31:0] $end
    $var wire 32 h PCPlus4W [31:0] $end
    $var wire 32 . PCTargetE_o [31:0] $end
    $var wire 32 Z RD1D [31:0] $end
    $var wire 32 \ RD1E [31:0] $end
    $var wire 32 [ RD2D [31:0] $end
    $var wire 32 ] RD2E [31:0] $end
    $var wire  5 Y RdD_i [4:0] $end
    $var wire  5 4 RdE_o [4:0] $end
    $var wire  5 2 RdM_o [4:0] $end
    $var wire  5 3 RdW_o [4:0] $end
    $var wire 32 g ReadDataM [31:0] $end
    $var wire 32 i ReadDataW [31:0] $end
    $var wire  3 # RegWriteW_i [2:0] $end
    $var wire  2 & ResultSrcW_i [1:0] $end
    $var wire 32 k ResultW [31:0] $end
    $var wire  5 W Rs1D_i [4:0] $end
    $var wire  5 0 Rs1E_o [4:0] $end
    $var wire  5 X Rs2D_i [4:0] $end
    $var wire  5 1 Rs2E_o [4:0] $end
    $var wire 32 ` SrcAE [31:0] $end
    $var wire 32 a SrcBE [31:0] $end
    $var wire 32 b WriteDataE [31:0] $end
    $var wire 32 e WriteDataM [31:0] $end
    $var wire  1 6 ZeroE_o $end
    $var wire 32 q a0 [31:0] $end
    $var wire  1 o clk $end
    $var wire  7 P opcodeD_i [6:0] $end
    $var wire  7 5 opcodeE_o [6:0] $end
    $scope module ALU $end
     $var wire  3 ' ALUControl [2:0] $end
     $var wire 32 - ALUResult [31:0] $end
     $var wire 32 t CONTROL_WIDTH [31:0] $end
     $var wire 32 s DATA_WIDTH [31:0] $end
     $var wire 32 ` SrcA [31:0] $end
     $var wire 32 a SrcB [31:0] $end
     $var wire  1 6 Zero $end
    $upscope $end
    $scope module ALUMux $end
     $var wire 32 s DATA_WIDTH [31:0] $end
     $var wire  1 ( control $end
     $var wire 32 b input0 [31:0] $end
     $var wire 32 c input1 [31:0] $end
     $var wire 32 a out [31:0] $end
    $upscope $end
    $scope module DREg $end
     $var wire 32 s DATA_WIDTH [31:0] $end
     $var wire 32 * ExtImmD [31:0] $end
     $var wire 32 c ExtImmE [31:0] $end
     $var wire 32 + PCD [31:0] $end
     $var wire 32 ^ PCE [31:0] $end
     $var wire 32 , PCPlus4D [31:0] $end
     $var wire 32 _ PCPlus4E [31:0] $end
     $var wire 32 Z RD1D [31:0] $end
     $var wire 32 \ RD1E [31:0] $end
     $var wire 32 [ RD2D [31:0] $end
     $var wire 32 ] RD2E [31:0] $end
     $var wire  5 Y RdD [4:0] $end
     $var wire  5 4 RdE [4:0] $end
     $var wire  5 W Rs1D [4:0] $end
     $var wire  5 0 Rs1E [4:0] $end
     $var wire  5 X Rs2D [4:0] $end
     $var wire  5 1 Rs2E [4:0] $end
     $var wire  1 o clk $end
     $var wire  1 9 en $end
     $var wire  7 P opcodeD [6:0] $end
     $var wire  7 5 opcodeE [6:0] $end
     $var wire  1 = rst $end
    $upscope $end
    $scope module EREG $end
     $var wire 32 - ALUResultE [31:0] $end
     $var wire 32 d ALUResultM [31:0] $end
     $var wire 32 s DATA_WIDTH [31:0] $end
     $var wire 32 _ PCPlus4E [31:0] $end
     $var wire 32 f PCPlus4M [31:0] $end
     $var wire  5 4 RdE [4:0] $end
     $var wire  5 2 RdM [4:0] $end
     $var wire 32 b WriteDataE [31:0] $end
     $var wire 32 e WriteDataM [31:0] $end
     $var wire  1 o clk $end
    $upscope $end
    $scope module MREG $end
     $var wire 32 d ALUResultM [31:0] $end
     $var wire 32 j ALUResultW [31:0] $end
     $var wire 32 s DATA_WIDTH [31:0] $end
     $var wire 32 f PCPlus4M [31:0] $end
     $var wire 32 h PCPlus4W [31:0] $end
     $var wire  5 2 RdM [4:0] $end
     $var wire  5 3 RdW [4:0] $end
     $var wire 32 g ReadDataM [31:0] $end
     $var wire 32 i ReadDataW [31:0] $end
     $var wire  1 o clk $end
    $upscope $end
    $scope module RD1EHazardMux $end
     $var wire 32 u CONTROL_WIDTH [31:0] $end
     $var wire 32 s DATA_WIDTH [31:0] $end
     $var wire  2 ; control [1:0] $end
     $var wire 32 \ input0 [31:0] $end
     $var wire 32 k input1 [31:0] $end
     $var wire 32 d input2 [31:0] $end
     $var wire 32 ` out [31:0] $end
    $upscope $end
    $scope module RD2EHazardMux $end
     $var wire 32 u CONTROL_WIDTH [31:0] $end
     $var wire 32 s DATA_WIDTH [31:0] $end
     $var wire  2 < control [1:0] $end
     $var wire 32 ] input0 [31:0] $end
     $var wire 32 k input1 [31:0] $end
     $var wire 32 d input2 [31:0] $end
     $var wire 32 b out [31:0] $end
    $upscope $end
    $scope module addPCTargetE $end
     $var wire 32 s DATA_WIDTH [31:0] $end
     $var wire 32 ^ input0 [31:0] $end
     $var wire 32 c input1 [31:0] $end
     $var wire 32 . out [31:0] $end
    $upscope $end
    $scope module data $end
     $var wire 32 d A [31:0] $end
     $var wire 32 r ADDRESS_WIDTH [31:0] $end
     $var wire 32 s DATA_WIDTH [31:0] $end
     $var wire 32 g RD [31:0] $end
     $var wire 32 e WD [31:0] $end
     $var wire  2 % WE [1:0] $end
     $var wire  1 o clk $end
    $upscope $end
    $scope module register $end
     $var wire  8 l A1 [7:0] $end
     $var wire  5 W A1_i [4:0] $end
     $var wire  8 m A2 [7:0] $end
     $var wire  5 X A2_i [4:0] $end
     $var wire  8 n A3 [7:0] $end
     $var wire  5 3 A3_i [4:0] $end
     $var wire 32 r ADDRESS_WIDTH [31:0] $end
     $var wire 32 s DATA_WIDTH [31:0] $end
     $var wire 32 Z RD1 [31:0] $end
     $var wire 32 [ RD2 [31:0] $end
     $var wire 32 k WD3 [31:0] $end
     $var wire  3 # WE3 [2:0] $end
     $var wire 32 q a0 [31:0] $end
     $var wire  1 o clk $end
    $upscope $end
    $scope module resultMux $end
     $var wire 32 u CONTROL_WIDTH [31:0] $end
     $var wire 32 s DATA_WIDTH [31:0] $end
     $var wire  2 & control [1:0] $end
     $var wire 32 j input0 [31:0] $end
     $var wire 32 i input1 [31:0] $end
     $var wire 32 h input2 [31:0] $end
     $var wire 32 k out [31:0] $end
    $upscope $end
   $upscope $end
   $scope module control $end
    $var wire 32 r ADDRESS_WIDTH [31:0] $end
    $var wire  3 D ALUControlD [2:0] $end
    $var wire  3 ' ALUControlE_o [2:0] $end
    $var wire  1 E ALUSrcD $end
    $var wire  1 ( ALUSrcE_o $end
    $var wire  1 G BranchD $end
    $var wire  1 M BranchE $end
    $var wire 32 s DATA_WIDTH [31:0] $end
    $var wire  1 9 Den_i $end
    $var wire  1 = Drst_i $end
    $var wire 32 * ExtImmD_o [31:0] $end
    $var wire  1 9 Fen_i $end
    $var wire  1 = Frst_i $end
    $var wire  3 ? ImmSrcD [2:0] $end
    $var wire 32 ) InstrD_o [31:0] $end
    $var wire 32 @ InstrF [31:0] $end
    $var wire  1 F JumpD $end
    $var wire  1 L JumpE $end
    $var wire  2 C MemWriteD [1:0] $end
    $var wire  2 K MemWriteE [1:0] $end
    $var wire  2 % MemWriteM_o [1:0] $end
    $var wire 32 + PCD_o [31:0] $end
    $var wire 32 7 PCF_i [31:0] $end
    $var wire 32 , PCPlus4D_o [31:0] $end
    $var wire 32 8 PCPlus4F_i [31:0] $end
    $var wire  2 / PCSrcE_o [1:0] $end
    $var wire  3 H RegWriteD [2:0] $end
    $var wire  3 I RegWriteE [2:0] $end
    $var wire  3 $ RegWriteM_o [2:0] $end
    $var wire  3 # RegWriteW_o [2:0] $end
    $var wire  2 B ResultSrcD [1:0] $end
    $var wire  2 J ResultSrcE [1:0] $end
    $var wire  2 O ResultSrcM [1:0] $end
    $var wire  2 & ResultSrcW_o [1:0] $end
    $var wire  1 6 ZeroE_i $end
    $var wire  1 A ZeroOp $end
    $var wire  1 o clk $end
    $var wire  3 N funct3E [2:0] $end
    $scope module ControlUnit $end
     $var wire  3 D ALUControlD [2:0] $end
     $var wire  2 S ALUOpD [1:0] $end
     $var wire  1 E ALUSrcD $end
     $var wire  1 G BranchD $end
     $var wire  3 ? ImmSrcD [2:0] $end
     $var wire  1 F JumpD $end
     $var wire  2 C MemWriteD [1:0] $end
     $var wire 32 w OP_WIDTH [31:0] $end
     $var wire  3 H RegWriteD [2:0] $end
     $var wire  2 B ResultSrcD [1:0] $end
     $var wire  3 Q funct3 [2:0] $end
     $var wire  1 R funct7b5 $end
     $var wire  7 P op [6:0] $end
     $scope module aludec $end
      $var wire  3 D ALUControl [2:0] $end
      $var wire  2 S ALUOp [1:0] $end
      $var wire 32 t CONTROL_WIDTH [31:0] $end
      $var wire  1 V RtypeSub $end
      $var wire  3 Q funct3 [2:0] $end
      $var wire  1 R funct7b5 $end
      $var wire  1 U opb5 $end
     $upscope $end
     $scope module maindec $end
      $var wire  2 S ALUOp [1:0] $end
      $var wire  1 E ALUSrc $end
      $var wire  1 G Branch $end
      $var wire  3 ? ImmSrc [2:0] $end
      $var wire  1 F Jump $end
      $var wire  2 C MemWrite [1:0] $end
      $var wire 32 w OP_WIDTH [31:0] $end
      $var wire  3 H RegWrite [2:0] $end
      $var wire  2 B ResultSrc [1:0] $end
      $var wire 15 T controls [14:0] $end
      $var wire  3 Q funct3 [2:0] $end
      $var wire  7 P op [6:0] $end
     $upscope $end
    $upscope $end
    $scope module DReg $end
     $var wire  3 D ALUControlD [2:0] $end
     $var wire  3 ' ALUControlE [2:0] $end
     $var wire  1 E ALUSrcD $end
     $var wire  1 ( ALUSrcE $end
     $var wire  1 G BranchD $end
     $var wire  1 M BranchE $end
     $var wire 32 s DATA_WIDTH [31:0] $end
     $var wire  1 F JumpD $end
     $var wire  1 L JumpE $end
     $var wire  2 C MemWriteD [1:0] $end
     $var wire  2 K MemWriteE [1:0] $end
     $var wire  3 H RegWriteD [2:0] $end
     $var wire  3 I RegWriteE [2:0] $end
     $var wire  2 B ResultSrcD [1:0] $end
     $var wire  2 J ResultSrcE [1:0] $end
     $var wire  1 o clk $end
     $var wire  1 9 en $end
     $var wire  3 Q funct3D [2:0] $end
     $var wire  3 N funct3E [2:0] $end
     $var wire  1 = rst $end
    $upscope $end
    $scope module EREG $end
     $var wire 32 s DATA_WIDTH [31:0] $end
     $var wire  2 K MemWriteE [1:0] $end
     $var wire  2 % MemWriteM [1:0] $end
     $var wire  3 I RegWriteE [2:0] $end
     $var wire  3 $ RegWriteM [2:0] $end
     $var wire  2 J ResultSrcE [1:0] $end
     $var wire  2 O ResultSrcM [1:0] $end
     $var wire  1 o clk $end
    $upscope $end
    $scope module FReg $end
     $var wire 32 s DATA_WIDTH [31:0] $end
     $var wire 32 ) InstrD [31:0] $end
     $var wire 32 @ InstrF [31:0] $end
     $var wire 32 + PCD [31:0] $end
     $var wire 32 7 PCF [31:0] $end
     $var wire 32 , PCPlus4D [31:0] $end
     $var wire 32 8 PCPlus4F [31:0] $end
     $var wire  1 o clk $end
     $var wire  1 9 en $end
     $var wire  1 = rst $end
    $upscope $end
    $scope module InstrMem $end
     $var wire 32 r ADDRESS_WIDTH [31:0] $end
     $var wire 32 s DATA_WIDTH [31:0] $end
     $var wire 32 @ Instr_o [31:0] $end
     $var wire 32 7 addr_i [31:0] $end
    $upscope $end
    $scope module MREG $end
     $var wire 32 s DATA_WIDTH [31:0] $end
     $var wire  3 $ RegWriteM [2:0] $end
     $var wire  3 # RegWriteW [2:0] $end
     $var wire  2 O ResultSrcM [1:0] $end
     $var wire  2 & ResultSrcW [1:0] $end
     $var wire  1 o clk $end
    $upscope $end
    $scope module MySignExtend $end
     $var wire 32 s DATA_WIDTH [31:0] $end
     $var wire 32 * ExtImm [31:0] $end
     $var wire 32 t IMM_WIDTH [31:0] $end
     $var wire  3 ? ImmSrc [2:0] $end
     $var wire 32 ) instr [31:0] $end
    $upscope $end
   $upscope $end
   $scope module hazard $end
    $var wire  1 9 Den_o $end
    $var wire  1 = Drst_o $end
    $var wire  1 9 Fen_o $end
    $var wire  2 ; FowardAE_o [1:0] $end
    $var wire  2 < FowardBE_o [1:0] $end
    $var wire  1 = Frst_o $end
    $var wire  2 / PCSrcE_i [1:0] $end
    $var wire  1 : PCen_o $end
    $var wire  1 v PCrst_o $end
    $var wire  5 4 RdE_i [4:0] $end
    $var wire  5 2 RdM_i [4:0] $end
    $var wire  5 3 RdW_i [4:0] $end
    $var wire  3 $ RegWriteM_i [2:0] $end
    $var wire  3 # RegWriteW_i [2:0] $end
    $var wire  5 W Rs1D_i [4:0] $end
    $var wire  5 0 Rs1E_i [4:0] $end
    $var wire  5 X Rs2D_i [4:0] $end
    $var wire  5 1 Rs2E_i [4:0] $end
    $var wire  7 5 opcodeE_i [6:0] $end
    $scope module ControlHazard $end
     $var wire  1 = Drst $end
     $var wire  1 = Frst $end
     $var wire  2 / PCSrcE [1:0] $end
     $var wire  1 v PCrst $end
    $upscope $end
    $scope module FowardHazard $end
     $var wire  2 ; FowardAE [1:0] $end
     $var wire  2 < FowardBE [1:0] $end
     $var wire  5 2 RdM [4:0] $end
     $var wire  5 3 RdW [4:0] $end
     $var wire  3 $ RegWriteM [2:0] $end
     $var wire  3 # RegWriteW [2:0] $end
     $var wire  5 0 Rs1E [4:0] $end
     $var wire  5 1 Rs2E [4:0] $end
    $upscope $end
    $scope module StallHazard $end
     $var wire  1 9 Den $end
     $var wire  1 9 Fen $end
     $var wire  1 : PCen $end
     $var wire  5 4 RdE [4:0] $end
     $var wire  5 W Rs1D [4:0] $end
     $var wire  5 X Rs2D [4:0] $end
     $var wire  7 5 opcodeE [6:0] $end
    $upscope $end
   $upscope $end
   $scope module pc $end
    $var wire 32 - ALUResultE_i [31:0] $end
    $var wire 32 s DATA_WIDTH [31:0] $end
    $var wire 32 7 PCF_o [31:0] $end
    $var wire 32 8 PCPlus4F_o [31:0] $end
    $var wire  2 / PCSrc_i [1:0] $end
    $var wire 32 . PCTarget_i [31:0] $end
    $var wire  1 : PCen_i $end
    $var wire  1 v PCrst_i $end
    $var wire  1 o clk $end
    $var wire 32 > next_PC [31:0] $end
    $scope module pc_mux $end
     $var wire 32 u CONTROL_WIDTH [31:0] $end
     $var wire 32 s DATA_WIDTH [31:0] $end
     $var wire  2 / control [1:0] $end
     $var wire 32 8 input0 [31:0] $end
     $var wire 32 . input1 [31:0] $end
     $var wire 32 - input2 [31:0] $end
     $var wire 32 > out [31:0] $end
    $upscope $end
    $scope module pc_reg $end
     $var wire  1 : PCen $end
     $var wire 32 s WIDTH [31:0] $end
     $var wire  1 o clk $end
     $var wire 32 > next_PC [31:0] $end
     $var wire 32 7 pc [31:0] $end
     $var wire  1 v rst $end
    $upscope $end
   $upscope $end
  $upscope $end
 $upscope $end
$enddefinitions $end


#0
b000 #
b000 $
b00 %
b00 &
b000 '
0(
b00000000000000000000000000000000 )
b00000000000000000000000000000000 *
b00000000000000000000000000000000 +
b00000000000000000000000000000000 ,
b00000000000000000000000000000000 -
b00000000000000000000000000000000 .
b00 /
b00000 0
b00000 1
b00000 2
b00000 3
b00000 4
b0000000 5
16
b00000000000000000000000000000000 7
b00000000000000000000000000000100 8
09
1:
b00 ;
b00 <
0=
b00000000000000000000000000000100 >
b000 ?
b00000000000000000000000000000000 @
1A
b00 B
b00 C
b000 D
0E
0F
0G
b000 H
b000 I
b00 J
b00 K
0L
0M
b000 N
b00 O
b0000000 P
b000 Q
0R
b00 S
b000000000000000 T
0U
0V
b00000 W
b00000 X
b00000 Y
b00000000000000000000000000000000 Z
b00000000000000000000000000000000 [
b00000000000000000000000000000000 \
b00000000000000000000000000000000 ]
b00000000000000000000000000000000 ^
b00000000000000000000000000000000 _
b00000000000000000000000000000000 `
b00000000000000000000000000000000 a
b00000000000000000000000000000000 b
b00000000000000000000000000000000 c
b00000000000000000000000000000000 d
b00000000000000000000000000000000 e
b00000000000000000000000000000000 f
b00000000000000000000000000000000 g
b00000000000000000000000000000000 h
b00000000000000000000000000000000 i
b00000000000000000000000000000000 j
b00000000000000000000000000000000 k
b00000000 l
b00000000 m
b00000000 n
0o
0p
b00000000000000000000000000000000 q
b00000000000000000000000000001000 r
b00000000000000000000000000100000 s
b00000000000000000000000000000011 t
b00000000000000000000000000000010 u
0v
b00000000000000000000000000000111 w
#1
19
b00000001000000000000000011101111 @
b00000000000000000000000011111110 g
1o
#2
0o
#3
b00000001000000000000000011101111 )
b00000000000000000000000000010000 *
b00000000000000000000000000000100 ,
b00000000000000000000000000000100 7
b00000000000000000000000000001000 8
b00000000000000000000000000001000 >
b011 ?
b00000010010000000000000011101111 @
b10 B
1F
b001 H
b1101111 P
b001100010001100 T
1U
b10000 X
b00001 Y
b00000000000000000000000011111110 i
b00010000 m
1o
#4
0o
#5
b00000010010000000000000011101111 )
b00000000000000000000000000100100 *
b00000000000000000000000000000100 +
b00000000000000000000000000001000 ,
b00000000000000000000000000010000 .
b01 /
b10000 1
b00001 4
b1101111 5
b00000000000000000000000000001000 7
b00000000000000000000000000001100 8
1=
b00000000000000000000000000010000 >
b00000100010000000000000011101111 @
b001 I
b10 J
1L
b00100 X
b00000000000000000000000000000100 _
b00000000000000000000000000010000 c
b00000100 m
1o
#6
0o
#7
b001 $
b00000000000000000000000000000000 )
b00000000000000000000000000000000 *
b00000000000000000000000000000000 +
b00000000000000000000000000000000 ,
b00000000000000000000000000000000 .
b00 /
b00000 1
b00001 2
b00000 4
b0000000 5
b00000000000000000000000000010000 7
b00000000000000000000000000010100 8
0=
b00000000000000000000000000010100 >
b000 ?
b00010000000000000000010110010011 @
b00 B
0F
b000 H
b000 I
b00 J
0L
b10 O
b0000000 P
b000000000000000 T
0U
b00000 X
b00000 Y
b00000000000000000000000000000000 _
b00000000000000000000000000000000 c
b00000000000000000000000000000100 f
b00000000 m
1o
#8
0o
#9
b001 #
b000 $
b10 &
b00010000000000000000010110010011 )
b00000000000000000000000100000000 *
b00000000000000000000000000010000 +
b00000000000000000000000000010100 ,
b00000 2
b00001 3
b00000000000000000000000000010100 7
b00000000000000000000000000011000 8
b00000000000000000000000000011000 >
b00001111111100000000010110010011 @
1E
b001 H
b00 O
b0010011 P
b10 S
b001000000100010 T
b01011 Y
b00000000000000000000000000000000 f
b00000000000000000000000000000100 h
b00000000000000000000000000000100 k
b00000001 n
1o
#10
0o
#11
b000 #
b00 &
1(
b00001111111100000000010110010011 )
b00000000000000000000000011111111 *
b00000000000000000000000000010100 +
b00000000000000000000000000011000 ,
b00000000000000000000000100000000 -
b00000000000000000000000100010000 .
b00000 3
b01011 4
b0010011 5
06
b00000000000000000000000000011000 7
b00000000000000000000000000011100 8
b00000000000000000000000000011100 >
b00000000000000000000010100010011 @
0A
b001 I
b11111 X
b00000000000000000000000000010000 ^
b00000000000000000000000000010100 _
b00000000000000000000000100000000 a
b00000000000000000000000100000000 c
b00000000000000000000000000000000 h
b00000000000000000000000000000000 k
b00011111 m
b00000000 n
1o
#12
0o
#13
b001 $
b00000000000000000000010100010011 )
b00000000000000000000000000000000 *
b00000000000000000000000000011000 +
b00000000000000000000000000011100 ,
b00000000000000000000000011111111 -
b00000000000000000000000100010011 .
b11111 1
b01011 2
b00000000000000000000000000011100 7
b00000000000000000000000000100000 8
b00000000000000000000000000100000 >
b00010000000001011000000000100011 @
b00000 X
b01010 Y
b00000000000000000000000000010100 ^
b00000000000000000000000000011000 _
b00000000000000000000000011111111 a
b00000000000000000000000011111111 c
b00000000000000000000000100000000 d
b00000000000000000000000000010100 f
b00000000 m
1o
#14
0o
#15
b001 #
b00010000000001011000000000100011 )
b00000000000000000000000100000000 *
b00000000000000000000000000011100 +
b00000000000000000000000000100000 ,
b00000000000000000000000000000000 -
b00000000000000000000000000011000 .
b00000 1
b01011 3
b01010 4
16
b00000000000000000000000000100000 7
b00000000000000000000000000100100 8
b00000000000000000000000000100100 >
b010 ?
b11111110101101010000101011100011 @
1A
b11 C
b000 H
b0100011 P
b00 S
b000001100101000 T
1U
b01011 W
b00000 Y
b00000000000000000000000000011000 ^
b00000000000000000000000000011100 _
b00000000000000000000000000000000 a
b00000000000000000000000000000000 c
b00000000000000000000000011111111 d
b00000000000000000000000000011000 f
b00000000000000000000000000000000 g
b00000000000000000000000000010100 h
b00000000000000000000000100000000 j
b00000000000000000000000100000000 k
b00001011 l
b00001011 n
1o
#16
0o
#17
b11111110101101010000101011100011 )
b11111111111111111111111111110100 *
b00000000000000000000000000100000 +
b00000000000000000000000000100100 ,
b00000000000000000000000111111111 -
b00000000000000000000000100011100 .
b01011 0
b01010 2
b00000 4
b0100011 5
06
b00000000000000000000000000100100 7
b00000000000000000000000000101000 8
b01 ;
b00000000000000000000000000101000 >
b00000000000000001000000001100111 @
0A
b00 C
b001 D
0E
1G
b000 I
b11 K
b1100011 P
1R
b01 S
b000000001001001 T
1V
b01010 W
b01011 X
b10101 Y
b00000000000000000000000100000000 [
b00000000000000000000000000011100 ^
b00000000000000000000000000100000 _
b00000000000000000000000011111111 `
b00000000000000000000000100000000 a
b00000000000000000000000100000000 c
b00000000000000000000000000000000 d
b00000000000000000000000000011100 f
b00000000000000000000000011111110 g
b00000000000000000000000000011000 h
b00000000000000000000000000000000 i
b00000000000000000000000011111111 j
b00000000000000000000000011111111 k
b00001010 l
b00001011 m
1o
b00000000000000000000000100000000 q
#18
0o
#19
b000 $
b11 %
b001 '
0(
b00000000000000001000000001100111 )
b00000000000000000000000000000000 *
b00000000000000000000000000100100 +
b00000000000000000000000000101000 ,
b11111111111111111111111100000000 -
b00000000000000000000000000010100 .
b01010 0
b01011 1
b00000 2
b01010 3
b10101 4
b1100011 5
b00000000000000000000000000101000 7
b00000000000000000000000000101100 8
b00000000000000000000000000101100 >
b000 ?
b00000000000000010000010110110111 @
b10 B
b000 D
1E
1F
0G
b001 H
b00 K
1M
b1100111 P
0R
b00 S
b001100010100000 T
0V
b00001 W
b00000 X
b00000 Y
b00000000000000000000000000000100 Z
b00000000000000000000000000000000 [
b00000000000000000000000100000000 ]
b00000000000000000000000000100000 ^
b00000000000000000000000000100100 _
b00000000000000000000000000000000 `
b00000000000000000000000100000000 b
b11111111111111111111111111110100 c
b00000000000000000000000111111111 d
b00000000000000000000000000100000 f
b00000000000000000000000000000000 g
b00000000000000000000000000011100 h
b00000000000000000000000011111110 i
b00000000000000000000000000000000 j
b00000000000000000000000000000000 k
b00000001 l
b00000000 m
b00001010 n
1o
b00000000000000000000000011111111 q
#20
0o
#21
b000 #
b00 %
b000 '
1(
b00000000000000010000010110110111 )
b00000000000000010000000000000000 *
b00000000000000000000000000101000 +
b00000000000000000000000000101100 ,
b00000000000000000000000000000100 -
b00000000000000000000000000100100 .
b10 /
b00001 0
b00000 1
b10101 2
b00000 3
b00000 4
b1100111 5
b00000000000000000000000000101100 7
b00000000000000000000000000110000 8
b00 ;
1=
b00000000000000000000000000000100 >
b100 ?
b00000000000000000000011000010011 @
b00 B
b111 D
0F
b001 I
b10 J
1L
0M
b0110111 P
b11 S
b001000000110011 T
b00010 W
b01011 Y
b00000000000000000000000000000000 Z
b00000000000000000000000000000100 \
b00000000000000000000000000000000 ]
b00000000000000000000000000100100 ^
b00000000000000000000000000101000 _
b00000000000000000000000000000100 `
b00000000000000000000000000000000 a
b00000000000000000000000000000000 b
b00000000000000000000000000000000 c
b11111111111111111111111100000000 d
b00000000000000000000000100000000 e
b00000000000000000000000000100100 f
b00000000000000000000000011111110 g
b00000000000000000000000000100000 h
b00000000000000000000000000000000 i
b00000000000000000000000111111111 j
b00000000000000000000000111111111 k
b00000010 l
b00000000 n
1o
#22
0o
#23
b001 $
0(
b00000000000000000000000000000000 )
b00000000000000000000000000000000 *
b00000000000000000000000000000000 +
b00000000000000000000000000000000 ,
b00000000000000000000000000000000 -
b00000000000000000000000000000000 .
b00 /
b00000 0
b00000 2
b10101 3
b0000000 5
16
b00000000000000000000000000000100 7
b00000000000000000000000000001000 8
0=
b00000000000000000000000000001000 >
b000 ?
b00000010010000000000000011101111 @
1A
b000 D
0E
b000 H
b000 I
b00 J
0L
b10 O
b0000000 P
b00 S
b000000000000000 T
0U
b00000 W
b00000 Y
b00000000000000000000000000000000 \
b00000000000000000000000000000000 ^
b00000000000000000000000000000000 _
b00000000000000000000000000000000 `
b00000000000000000000000000000100 d
b00000000000000000000000000000000 e
b00000000000000000000000000101000 f
b00000000000000000000000011111101 g
b00000000000000000000000000100100 h
b00000000000000000000000011111110 i
b11111111111111111111111100000000 j
b11111111111111111111111100000000 k
b00000000 l
b00010101 n
1o
#24
0o
#25
b001 #
b000 $
b10 &
b00000010010000000000000011101111 )
b00000000000000000000000000100100 *
b00000000000000000000000000000100 +
b00000000000000000000000000001000 ,
b00000 3
b00000000000000000000000000001000 7
b00000000000000000000000000001100 8
b00000000000000000000000000001100 >
b011 ?
b00000100010000000000000011101111 @
b10 B
1F
b001 H
b00 O
b1101111 P
b001100010001100 T
1U
b00100 X
b00001 Y
b00000000000000000000000000000000 d
b00000000000000000000000000000000 f
b00000000000000000000000011111110 g
b00000000000000000000000000101000 h
b00000000000000000000000011111101 i
b00000000000000000000000000000100 j
b00000000000000000000000000101000 k
b00000100 m
b00000000 n
1o
#26
0o
#27
b000 #
b00 &
b00000100010000000000000011101111 )
b00000000000000000000000001000100 *
b00000000000000000000000000001000 +
b00000000000000000000000000001100 ,
b00000000000000000000000000101000 .
b01 /
b00100 1
b00001 4
b1101111 5
b00000000000000000000000000001100 7
b00000000000000000000000000010000 8
1=
b00000000000000000000000000101000 >
b11111111110111111111000011101111 @
b001 I
b10 J
1L
b00000000000000000000000000101000 Z
b00000000000000000000000000000100 ^
b00000000000000000000000000001000 _
b00000000000000000000000000100100 c
b00000000000000000000000000000000 h
b00000000000000000000000011111110 i
b00000000000000000000000000000000 j
b00000000000000000000000000000000 k
1o
#28
0o
#29
b001 $
b00000000000000000000000000000000 )
b00000000000000000000000000000000 *
b00000000000000000000000000000000 +
b00000000000000000000000000000000 ,
b00000000000000000000000000000000 .
b00 /
b00000 1
b00001 2
b00000 4
b0000000 5
b00000000000000000000000000101000 7
b00000000000000000000000000101100 8
0=
b00000000000000000000000000101100 >
b000 ?
b00000000000000010000010110110111 @
b00 B
0F
b000 H
b000 I
b00 J
0L
b10 O
b0000000 P
b000000000000000 T
0U
b00000 X
b00000 Y
b00000000000000000000000000101000 [
b00000000000000000000000000000000 ^
b00000000000000000000000000000000 _
b00000000000000000000000000000000 c
b00000000000000000000000000001000 f
b00000000 m
1o
#30
0o
#31
b001 #
b000 $
b10 &
b00000000000000010000010110110111 )
b00000000000000010000000000000000 *
b00000000000000000000000000101000 +
b00000000000000000000000000101100 ,
b00000000000000000000000001010000 -
b00000 2
b00001 3
b00000000000000000000000000101100 7
b00000000000000000000000000110000 8
b00000000000000000000000000110000 >
b100 ?
b00000000000000000000011000010011 @
b111 D
1E
b001 H
b00 O
b0110111 P
b11 S
b001000000110011 T
1U
b00010 W
b01011 Y
b00000000000000000000000000000000 Z
b00000000000000000000000000101000 \
b00000000000000000000000000101000 ]
b00000000000000000000000000101000 `
b00000000000000000000000000101000 a
b00000000000000000000000000101000 b
b00000000000000000000000000000000 f
b00000000000000000000000000001000 h
b00000000000000000000000000001000 k
b00000010 l
b00000001 n
1o
#32
0o
